3/SV2LabStudent_Schematics/simulation/qsim/SV2Lab.msim.vcd
$comment
	File created using the following command:
		vcd file SV2Lab.msim.vcd -direction
$end
$date
	Sun Aug 16 20:13:02 2020
$end
$version
	ModelSim Version 10.5b
$end
$timescale
	1ps
$end

$scope module ramzor_vlg_vec_tst $end
$var reg 1 ! CLOCK_50 $end
$var reg 1 " resetN $end
$var reg 1 # switchN $end
$var reg 1 $ turbo $end
$var wire 1 % greenLight $end
$var wire 1 & redLight $end
$var wire 1 ' yellowLight $end

$scope module i1 $end
$var wire 1 ( gnd $end
$var wire 1 ) vcc $end
$var wire 1 * unknown $end
$var tri1 1 + devclrn $end
$var tri1 1 , devpor $end
$var tri1 1 - devoe $end
$var wire 1 . redLight~output_o $end
$var wire 1 / yellowLight~output_o $end
$var wire 1 0 greenLight~output_o $end
$var wire 1 1 CLOCK_50~input_o $end
$var wire 1 2 switchN~input_o $end
$var wire 1 3 aux_timer|Equal0~2_combout $end
$var wire 1 4 onetens_sec_counter|Add0~125_sumout $end
$var wire 1 5 resetN~input_o $end
$var wire 1 6 onetens_sec_counter|Add0~126 $end
$var wire 1 7 onetens_sec_counter|Add0~17_sumout $end
$var wire 1 8 onetens_sec_counter|Add0~18 $end
$var wire 1 9 onetens_sec_counter|Add0~13_sumout $end
$var wire 1 : onetens_sec_counter|Add0~14 $end
$var wire 1 ; onetens_sec_counter|Add0~9_sumout $end
$var wire 1 < onetens_sec_counter|Add0~10 $end
$var wire 1 = onetens_sec_counter|Add0~21_sumout $end
$var wire 1 > onetens_sec_counter|Add0~22 $end
$var wire 1 ? onetens_sec_counter|Add0~101_sumout $end
$var wire 1 @ onetens_sec_counter|Add0~102 $end
$var wire 1 A onetens_sec_counter|Add0~97_sumout $end
$var wire 1 B onetens_sec_counter|Add0~98 $end
$var wire 1 C onetens_sec_counter|Add0~93_sumout $end
$var wire 1 D onetens_sec_counter|Add0~94 $end
$var wire 1 E onetens_sec_counter|Add0~89_sumout $end
$var wire 1 F onetens_sec_counter|Add0~90 $end
$var wire 1 G onetens_sec_counter|Add0~5_sumout $end
$var wire 1 H onetens_sec_counter|Add0~6 $end
$var wire 1 I onetens_sec_counter|Add0~1_sumout $end
$var wire 1 J turbo~input_o $end
$var wire 1 K onetens_sec_counter|LessThan0~0_combout $end
$var wire 1 L onetens_sec_counter|Add0~2 $end
$var wire 1 M onetens_sec_counter|Add0~57_sumout $end
$var wire 1 N onetens_sec_counter|Add0~58 $end
$var wire 1 O onetens_sec_counter|Add0~53_sumout $end
$var wire 1 P onetens_sec_counter|Add0~54 $end
$var wire 1 Q onetens_sec_counter|Add0~49_sumout $end
$var wire 1 R onetens_sec_counter|Add0~50 $end
$var wire 1 S onetens_sec_counter|Add0~45_sumout $end
$var wire 1 T onetens_sec_counter|Add0~46 $end
$var wire 1 U onetens_sec_counter|Add0~41_sumout $end
$var wire 1 V onetens_sec_counter|Add0~42 $end
$var wire 1 W onetens_sec_counter|Add0~37_sumout $end
$var wire 1 X onetens_sec_counter|Add0~38 $end
$var wire 1 Y onetens_sec_counter|Add0~81_sumout $end
$var wire 1 Z onetens_sec_counter|Add0~82 $end
$var wire 1 [ onetens_sec_counter|Add0~77_sumout $end
$var wire 1 \ onetens_sec_counter|Add0~78 $end
$var wire 1 ] onetens_sec_counter|Add0~29_sumout $end
$var wire 1 ^ onetens_sec_counter|Add0~30 $end
$var wire 1 _ onetens_sec_counter|Add0~73_sumout $end
$var wire 1 ` onetens_sec_counter|Add0~74 $end
$var wire 1 a onetens_sec_counter|Add0~69_sumout $end
$var wire 1 b onetens_sec_counter|Add0~70 $end
$var wire 1 c onetens_sec_counter|Add0~65_sumout $end
$var wire 1 d onetens_sec_counter|Add0~66 $end
$var wire 1 e onetens_sec_counter|Add0~61_sumout $end
$var wire 1 f onetens_sec_counter|Add0~62 $end
$var wire 1 g onetens_sec_counter|Add0~33_sumout $end
$var wire 1 h onetens_sec_counter|Add0~34 $end
$var wire 1 i onetens_sec_counter|Add0~121_sumout $end
$var wire 1 j onetens_sec_counter|Add0~122 $end
$var wire 1 k onetens_sec_counter|Add0~117_sumout $end
$var wire 1 l onetens_sec_counter|Add0~118 $end
$var wire 1 m onetens_sec_counter|Add0~113_sumout $end
$var wire 1 n onetens_sec_counter|Add0~114 $end
$var wire 1 o onetens_sec_counter|Add0~109_sumout $end
$var wire 1 p onetens_sec_counter|Add0~110 $end
$var wire 1 q onetens_sec_counter|Add0~105_sumout $end
$var wire 1 r onetens_sec_counter|Add0~106 $end
$var wire 1 s onetens_sec_counter|Add0~85_sumout $end
$var wire 1 t onetens_sec_counter|Add0~86 $end
$var wire 1 u onetens_sec_counter|Add0~25_sumout $end
$var wire 1 v onetens_sec_counter|LessThan0~1_combout $end
$var wire 1 w onetens_sec_counter|LessThan0~2_combout $end
$var wire 1 x onetens_sec_counter|LessThan0~3_combout $end
$var wire 1 y onetens_sec_counter|LessThan0~4_combout $end
$var wire 1 z onetens_sec_counter|LessThan0~5_combout $end
$var wire 1 { onetens_sec_counter|LessThan0~6_combout $end
$var wire 1 | onetens_sec_counter|onetens_sec~q $end
$var wire 1 } aux_timer|count[5]~3_combout $end
$var wire 1 ~ aux_timer|Add0~2 $end
$var wire 1 !! aux_timer|Add0~29_sumout $end
$var wire 1 "! aux_timer|count[1]~9_combout $end
$var wire 1 #! aux_timer|Add0~30 $end
$var wire 1 $! aux_timer|Add0~25_sumout $end
$var wire 1 %! aux_timer|count[2]~8_combout $end
$var wire 1 &! aux_timer|count[0]~6_combout $end
$var wire 1 '! aux_timer|Equal0~1_combout $end
$var wire 1 (! aux_timer|Add0~1_sumout $end
$var wire 1 )! aux_timer|count[0]~0_combout $end
$var wire 1 *! aux_timer|Add0~26 $end
$var wire 1 +! aux_timer|Add0~21_sumout $end
$var wire 1 ,! aux_timer|count[3]~7_combout $end
$var wire 1 -! aux_timer|Add0~22 $end
$var wire 1 .! aux_timer|Add0~17_sumout $end
$var wire 1 /! aux_timer|count[4]~5_combout $end
$var wire 1 0! aux_timer|Add0~18 $end
$var wire 1 1! aux_timer|Add0~13_sumout $end
$var wire 1 2! aux_timer|count[5]~4_combout $end
$var wire 1 3! aux_timer|Add0~14 $end
$var wire 1 4! aux_timer|Add0~9_sumout $end
$var wire 1 5! aux_timer|count[6]~2_combout $end
$var wire 1 6! aux_timer|Add0~10 $end
$var wire 1 7! aux_timer|Add0~5_sumout $end
$var wire 1 8! aux_timer|count[7]~1_combout $end
$var wire 1 9! aux_timer|Equal0~0_combout $end
$var wire 1 :! ramzor_fsm|Selector1~0_combout $end
$var wire 1 ;! ramzor_fsm|present_state.red_yellow_st~q $end
$var wire 1 <! ramzor_fsm|Selector3~0_combout $end
$var wire 1 =! ramzor_fsm|present_state.green_st~q $end
$var wire 1 >! ramzor_fsm|present_state.yellow_st~0_combout $end
$var wire 1 ?! ramzor_fsm|present_state.yellow_st~q $end
$var wire 1 @! ramzor_fsm|Selector0~0_combout $end
$var wire 1 A! ramzor_fsm|present_state.red_st~q $end
$var wire 1 B! ramzor_fsm|redLight~combout $end
$var wire 1 C! ramzor_fsm|yellowLight~combout $end
$var wire 1 D! onetens_sec_counter|onetensSecCount [31] $end
$var wire 1 E! onetens_sec_counter|onetensSecCount [30] $end
$var wire 1 F! onetens_sec_counter|onetensSecCount [29] $end
$var wire 1 G! onetens_sec_counter|onetensSecCount [28] $end
$var wire 1 H! onetens_sec_counter|onetensSecCount [27] $end
$var wire 1 I! onetens_sec_counter|onetensSecCount [26] $end
$var wire 1 J! onetens_sec_counter|onetensSecCount [25] $end
$var wire 1 K! onetens_sec_counter|onetensSecCount [24] $end
$var wire 1 L! onetens_sec_counter|onetensSecCount [23] $end
$var wire 1 M! onetens_sec_counter|onetensSecCount [22] $end
$var wire 1 N! onetens_sec_counter|onetensSecCount [21] $end
$var wire 1 O! onetens_sec_counter|onetensSecCount [20] $end
$var wire 1 P! onetens_sec_counter|onetensSecCount [19] $end
$var wire 1 Q! onetens_sec_counter|onetensSecCount [18] $end
$var wire 1 R! onetens_sec_counter|onetensSecCount [17] $end
$var wire 1 S! onetens_sec_counter|onetensSecCount [16] $end
$var wire 1 T! onetens_sec_counter|onetensSecCount [15] $end
$var wire 1 U! onetens_sec_counter|onetensSecCount [14] $end
$var wire 1 V! onetens_sec_counter|onetensSecCount [13] $end
$var wire 1 W! onetens_sec_counter|onetensSecCount [12] $end
$var wire 1 X! onetens_sec_counter|onetensSecCount [11] $end
$var wire 1 Y! onetens_sec_counter|onetensSecCount [10] $end
$var wire 1 Z! onetens_sec_counter|onetensSecCount [9] $end
$var wire 1 [! onetens_sec_counter|onetensSecCount [8] $end
$var wire 1 \! onetens_sec_counter|onetensSecCount [7] $end
$var wire 1 ]! onetens_sec_counter|onetensSecCount [6] $end
$var wire 1 ^! onetens_sec_counter|onetensSecCount [5] $end
$var wire 1 _! onetens_sec_counter|onetensSecCount [4] $end
$var wire 1 `! onetens_sec_counter|onetensSecCount [3] $end
$var wire 1 a! onetens_sec_counter|onetensSecCount [2] $end
$var wire 1 b! onetens_sec_counter|onetensSecCount [1] $end
$var wire 1 c! onetens_sec_counter|onetensSecCount [0] $end
$var wire 1 d! aux_timer|count [7] $end
$var wire 1 e! aux_timer|count [6] $end
$var wire 1 f! aux_timer|count [5] $end
$var wire 1 g! aux_timer|count [4] $end
$var wire 1 h! aux_timer|count [3] $end
$var wire 1 i! aux_timer|count [2] $end
$var wire 1 j! aux_timer|count [1] $end
$var wire 1 k! aux_timer|count [0] $end
$upscope $end
$upscope $end
$enddefinitions $end
#0
$dumpvars
0!
0"
1#
1$
0%
1&
0'
0(
1)
x*
1+
1,
1-
1.
0/
00
01
12
13
14
05
06
07
08
09
0:
0;
0<
0=
0>
0?
0@
0A
0B
0C
0D
0E
0F
0G
0H
0I
1J
1K
0L
0M
0N
0O
0P
0Q
0R
0S
0T
0U
0V
0W
0X
0Y
0Z
0[
0\
0]
0^
0_
0`
0a
0b
0c
0d
0e
0f
0g
0h
0i
0j
0k
0l
0m
0n
0o
0p
0q
0r
0s
0t
0u
1v
1w
1x
1y
1z
0{
0|
0}
0~
1!!
1"!
0#!
1$!
0%!
1&!
1'!
1(!
0)!
0*!
1+!
0,!
0-!
1.!
1/!
00!
11!
02!
03!
14!
05!
06!
17!
08!
19!
1:!
0;!
0<!
0=!
0>!
0?!
1@!
0A!
1B!
0C!
0c!
0b!
0a!
0`!
0_!
0^!
0]!
0\!
0[!
0Z!
0Y!
0X!
0W!
0V!
0U!
0T!
0S!
0R!
0Q!
0P!
0O!
0N!
0M!
0L!
0K!
0J!
0I!
0H!
0G!
0F!
0E!
0D!
0k!
0j!
0i!
0h!
0g!
0f!
0e!
0d!
$end
#500
1!
11
#1000
0!
01
#1500
1!
11
#2000
0!
01
#2500
1!
11
#3000
0!
01
#3500
1!
11
#4000
0!
01
#4500
1!
11
#5000
0!
01
#5500
1!
11
#6000
0!
01
#6500
1!
11
#7000
0!
01
#7500
1!
11
#8000
0!
01
#8500
1!
11
#9000
0!
01
#9500
1!
11
#10000
0!
01
#10500
1!
11
#11000
0!
01
#11500
1!
11
#12000
0!
01
#12500
1!
11
#13000
0!
01
#13500
1!
11
#14000
0!
01
#14500
1!
11
#15000
0!
01
#15500
1!
11
#16000
0!
01
#16500
1!
11
#17000
0!
01
#17500
1!
11
#18000
0!
01
#18500
1!
11
#19000
0!
01
#19500
1!
11
#20000
1"
0!
15
01
#20500
1!
11
1A!
1;!
1g!
1j!
1c!
16
0'!
1#!
0!!
09!
10!
0.!
1}
04
1C!
1<!
0:!
0/!
1%!
1/
1*!
0$!
13!
01!
0&!
0}
03
1'
17
12!
0"!
0<!
1:!
1-!
0+!
16!
04!
02!
1"!
0%!
1.!
07!
1/!
#21000
0!
01
#21500
1!
11
1b!
0c!
06
0K
18
14
07
08
17
19
1{
09
#22000
0!
01
#22500
1!
11
1|
0b!
1K
1&!
07
1)!
0"!
0{
#23000
0!
01
#23500
1!
11
1k!
0j!
0|
1c!
16
0&!
1'!
0#!
1!!
1~
0(!
04
0*!
1$!
1#!
0!!
17
0-!
1+!
1*!
0$!
1%!
0.!
1-!
0+!
0%!
1.!
0/!
1/!
#24000
0!
01
#24500
1!
11
1b!
0c!
06
0K
18
14
07
08
17
19
1{
09
#25000
0!
01
#25500
1!
11
1|
0b!
1K
1&!
07
0)!
0{
#26000
0!
01
#26500
1!
11
0k!
0|
1c!
16
0&!
0~
1(!
04
0#!
1!!
17
0*!
1$!
0-!
1+!
1%!
0.!
0/!
#27000
0!
01
#27500
1!
11
1b!
0c!
06
0K
18
14
07
08
17
19
1{
09
#28000
0!
01
#28500
1!
11
1|
0b!
1K
1&!
07
1,!
1)!
1"!
0{
#29000
0!
01
#29500
1!
11
0g!
1h!
1k!
1i!
1j!
0|
1c!
16
0&!
0'!
1#!
0!!
1*!
0$!
1~
0(!
1-!
0+!
00!
1.!
04
1$!
1+!
1!!
10!
0.!
03!
11!
17
1/!
0%!
13!
01!
06!
14!
0/!
1%!
16!
04!
17!
07!
#30000
0!
01
#30500
1!
11
1b!
0c!
06
0K
18
14
07
08
17
19
1{
09
#31000
0!
01
#31500
1!
11
1|
0b!
1K
1&!
07
0)!
0{
#32000
0!
01
#32500
1!
11
0k!
0|
1c!
16
0&!
0~
1(!
04
0!!
17
#33000
0!
01
#33500
1!
11
1b!
0c!
06
0K
18
14
07
08
17
19
1{
09
#34000
0!
01
#34500
1!
11
1|
0b!
1K
1&!
07
1)!
0"!
0{
#35000
0!
01
#35500
1!
11
1k!
0j!
0|
1c!
16
0&!
0#!
1!!
1~
0(!
04
0$!
1#!
0!!
17
1$!
0%!
1%!
#36000
0!
01
#36500
1!
11
1b!
0c!
06
0K
18
14
07
08
17
19
1{
09
#37000
0!
01
#37500
1!
11
1|
0b!
1K
1&!
07
0)!
0{
#38000
0!
01
#38500
1!
11
0k!
0|
1c!
16
0&!
0~
1(!
04
0#!
1!!
17
0$!
0%!
#39000
0!
01
#39500
1!
11
1b!
0c!
06
0K
18
14
07
08
17
19
1{
09
#40000
0!
01
#40500
1!
11
1|
0b!
1K
1&!
07
1)!
1"!
0{
#41000
0!
01
#41500
1!
11
1k!
0i!
1j!
0|
1c!
16
0&!
1#!
0!!
0*!
1$!
1~
0(!
04
1*!
0$!
0+!
1!!
17
1%!
1+!
0%!
#42000
0!
01
#42500
1!
11
1b!
0c!
06
0K
18
14
07
08
17
19
1{
09
#43000
0!
01
#43500
1!
11
1|
0b!
1K
1&!
07
0)!
0{
#44000
0!
01
#44500
1!
11
0k!
0|
1c!
16
0&!
0~
1(!
04
0!!
17
#45000
0!
01
#45500
1!
11
1b!
0c!
06
0K
18
14
07
08
17
19
1{
09
#46000
0!
01
#46500
1!
11
1|
0b!
1K
1&!
07
1)!
0"!
0{
#47000
0!
01
#47500
1!
11
1k!
0j!
0|
1c!
16
0&!
1'!
0#!
1!!
1~
0(!
04
0*!
1$!
1#!
0!!
17
0+!
1*!
0$!
1%!
1+!
0%!
#48000
0!
01
#48500
1!
11
1b!
0c!
06
0K
18
14
07
08
17
19
1{
09
#49000
0!
01
#49500
1!
11
1|
0b!
1K
1&!
07
0)!
0{
#50000
0!
01
#50500
1!
11
0k!
0|
1c!
16
0&!
0~
1(!
04
0#!
1!!
17
0*!
1$!
0+!
1%!
#51000
0!
01
#51500
1!
11
1b!
0c!
06
0K
18
14
07
08
17
19
1{
09
#52000
0!
01
#52500
1!
11
1|
0b!
1K
1&!
07
0,!
1)!
1"!
0{
#53000
0!
01
#53500
1!
11
0h!
1k!
1i!
1j!
0|
1c!
16
0&!
0'!
1#!
0!!
1*!
0$!
1~
0(!
0-!
1+!
04
1$!
1-!
0+!
1!!
00!
1.!
17
0%!
10!
0.!
03!
11!
1/!
1%!
13!
01!
06!
14!
0/!
16!
04!
17!
07!
#54000
0!
01
#54500
1!
11
1b!
0c!
06
0K
18
14
07
08
17
19
1{
09
#55000
0!
01
#55500
1!
11
1|
0b!
1K
1&!
07
0)!
0{
#56000
0!
01
#56500
1!
11
0k!
0|
1c!
16
0&!
19!
0~
1(!
04
0!!
17
#57000
0!
01
#57500
1!
11
1b!
0c!
06
0K
18
14
07
08
17
19
1{
09
#58000
0!
01
#58500
1!
11
1|
0b!
1K
1&!
07
1)!
0"!
0{
#59000
0!
01
#59500
1!
11
1k!
0j!
0|
1c!
16
0&!
0#!
1!!
09!
1~
0(!
04
0$!
1#!
0!!
17
1$!
0%!
1%!
#60000
0!
01
#60500
1!
11
1b!
0c!
06
0K
18
14
07
08
17
19
1{
09
#61000
0!
01
#61500
1!
11
1|
0b!
1K
1&!
07
0)!
0{
#62000
0!
01
#62500
1!
11
0k!
0|
1c!
16
0&!
19!
0~
1(!
04
0#!
1!!
17
0$!
0%!
#63000
0!
01
#63500
1!
11
1b!
0c!
06
0K
18
14
07
08
17
19
1{
09
#64000
0!
01
#64500
1!
11
1|
0b!
1K
1&!
07
1)!
1"!
0{
#65000
0!
01
#65500
1!
11
1k!
0i!
1j!
0|
1c!
16
0&!
1#!
0!!
0*!
1$!
09!
1~
0(!
04
1*!
0$!
0-!
1+!
1!!
17
1%!
1-!
0+!
00!
1.!
0%!
10!
0.!
03!
11!
1/!
13!
01!
06!
14!
0/!
16!
04!
17!
07!
#66000
0!
01
#66500
1!
11
1b!
0c!
06
0K
18
14
07
08
17
19
1{
09
#67000
0!
01
#67500
1!
11
1|
0b!
1K
1&!
07
0)!
0{
#68000
0!
01
#68500
1!
11
0k!
0|
1c!
16
0&!
19!
0~
1(!
04
0!!
17
#69000
0!
01
#69500
1!
11
1b!
0c!
06
0K
18
14
07
08
17
19
1{
09
#70000
0!
01
#70500
1!
11
1|
0b!
1K
1&!
07
1)!
0"!
0{
#71000
0!
01
#71500
1!
11
1k!
0j!
0|
1c!
16
0&!
1'!
0#!
1!!
09!
1~
0(!
04
0*!
1$!
1#!
0!!
17
0-!
1+!
1*!
0$!
1%!
00!
1.!
1-!
0+!
0%!
03!
11!
10!
0.!
1/!
06!
14!
13!
01!
0/!
17!
16!
04!
07!
#72000
0!
01
#72500
1!
11
1b!
0c!
06
0K
18
14
07
08
17
19
1{
09
#73000
0!
01
#73500
1!
11
1|
0b!
1K
1&!
07
0)!
0{
#74000
0!
01
#74500
1!
11
0k!
0|
1c!
16
0&!
19!
0~
1(!
04
0#!
1!!
1&!
1}
13
17
1<!
0:!
1%!
0*!
1$!
12!
0-!
1+!
00!
1.!
03!
11!
06!
14!
17!
#75000
0!
01
#75500
1!
11
0;!
1f!
1i!
1b!
0c!
1=!
10
06
0K
18
0'!
1*!
0$!
09!
13!
01!
0}
1%
14
07
0C!
0B!
0<!
1/!
0%!
1>!
0.
0/
08
1-!
0+!
16!
04!
0&!
1}
03
0'
0&
17
19
02!
1"!
0>!
1<!
1{
10!
0.!
07!
09
12!
0"!
11!
0/!
#76000
0!
01
#76500
1!
11
1|
0b!
1K
1&!
07
1)!
1"!
0{
#77000
0!
01
#77500
1!
11
1k!
0i!
1j!
0|
1c!
16
0&!
1#!
0!!
0*!
1$!
1~
0(!
04
1*!
0$!
0-!
1+!
1!!
17
1%!
1-!
0+!
00!
1.!
0%!
10!
0.!
01!
1/!
11!
0/!
#78000
0!
01
#78500
1!
11
1b!
0c!
06
0K
18
14
07
08
17
19
1{
09
#79000
0!
01
#79500
1!
11
1|
0b!
1K
1&!
07
0)!
0{
#80000
0!
01
#80500
1!
11
0k!
0|
1c!
16
0&!
0~
1(!
04
0!!
17
#81000
0!
01
#81500
1!
11
1b!
0c!
06
0K
18
14
07
08
17
19
1{
09
#82000
0!
01
#82500
1!
11
1|
0b!
1K
1&!
07
1)!
0"!
0{
#83000
0!
01
#83500
1!
11
1k!
0j!
0|
1c!
16
0&!
1'!
0#!
1!!
1~
0(!
04
0*!
1$!
1#!
0!!
17
0-!
1+!
1*!
0$!
1%!
00!
1.!
1-!
0+!
0%!
01!
10!
0.!
1/!
11!
0/!
#84000
0!
01
#84500
1!
11
1b!
0c!
06
0K
18
14
07
08
17
19
1{
09
#85000
0!
01
#85500
1!
11
1|
0b!
1K
1&!
07
0)!
0{
#86000
0!
01
#86500
1!
11
0k!
0|
1c!
16
0&!
0~
1(!
04
0#!
1!!
17
0*!
1$!
0-!
1+!
1%!
00!
1.!
01!
1/!
#87000
0!
01
#87500
1!
11
1b!
0c!
06
0K
18
14
07
08
17
19
1{
09
#88000
0!
01
#88500
1!
11
1|
0b!
1K
1&!
07
02!
1,!
1)!
1"!
0{
#89000
0!
01
#89500
1!
11
0f!
1g!
1h!
1k!
1i!
1j!
0|
1c!
16
0&!
0'!
1#!
0!!
1*!
0$!
1~
0(!
1-!
0+!
10!
0.!
03!
11!
04
1$!
1+!
1!!
1.!
13!
01!
06!
14!
17
0/!
0%!
16!
04!
17!
1/!
1%!
07!
#90000
0!
01
#90500
1!
11
1b!
0c!
06
0K
18
14
07
08
17
19
1{
09
#91000
0!
01
#91500
1!
11
1|
0b!
1K
1&!
07
0)!
0{
#92000
0!
01
#92500
1!
11
0k!
0|
1c!
16
0&!
0~
1(!
04
0!!
17
#93000
0!
01
#93500
1!
11
1b!
0c!
06
0K
18
14
07
08
17
19
1{
09
#94000
0!
01
#94500
1!
11
1|
0b!
1K
1&!
07
1)!
0"!
0{
#95000
0!
01
#95500
1!
11
1k!
0j!
0|
1c!
16
0&!
0#!
1!!
1~
0(!
04
0$!
1#!
0!!
17
1$!
0%!
1%!
#96000
0!
01
#96500
1!
11
1b!
0c!
06
0K
18
14
07
08
17
19
1{
09
#97000
0!
01
#97500
1!
11
1|
0b!
1K
1&!
07
0)!
0{
#98000
0!
01
#98500
1!
11
0k!
0|
1c!
16
0&!
0~
1(!
04
0#!
1!!
17
0$!
0%!
#99000
0!
01
#99500
1!
11
1b!
0c!
06
0K
18
14
07
08
17
19
1{
09
#100000
0!
01
#100500
1!
11
1|
0b!
1K
1&!
07
1)!
1"!
0{
#101000
0!
01
#101500
1!
11
1k!
0i!
1j!
0|
1c!
16
0&!
1#!
0!!
0*!
1$!
1~
0(!
04
1*!
0$!
0+!
1!!
17
1%!
1+!
0%!
#102000
0!
01
#102500
1!
11
1b!
0c!
06
0K
18
14
07
08
17
19
1{
09
#103000
0!
01
#103500
1!
11
1|
0b!
1K
1&!
07
0)!
0{
#104000
0!
01
#104500
1!
11
0k!
0|
1c!
16
0&!
0~
1(!
04
0!!
17
#105000
0!
01
#105500
1!
11
1b!
0c!
06
0K
18
14
07
08
17
19
1{
09
#106000
0!
01
#106500
1!
11
1|
0b!
1K
1&!
07
1)!
0"!
0{
#107000
0!
01
#107500
1!
11
1k!
0j!
0|
1c!
16
0&!
1'!
0#!
1!!
1~
0(!
04
0*!
1$!
1#!
0!!
17
0+!
1*!
0$!
1%!
1+!
0%!
#108000
0!
01
#108500
1!
11
1b!
0c!
06
0K
18
14
07
08
17
19
1{
09
#109000
0!
01
#109500
1!
11
1|
0b!
1K
1&!
07
0)!
0{
#110000
0!
01
#110500
1!
11
0k!
0|
1c!
16
0&!
0~
1(!
04
0#!
1!!
17
0*!
1$!
0+!
1%!
#111000
0!
01
#111500
1!
11
1b!
0c!
06
0K
18
14
07
08
17
19
1{
09
#112000
0!
01
#112500
1!
11
1|
0b!
1K
1&!
07
0,!
1)!
1"!
0{
#113000
0!
01
#113500
1!
11
0h!
1k!
1i!
1j!
0|
1c!
16
0&!
0'!
1#!
0!!
1*!
0$!
1~
0(!
0-!
1+!
04
1$!
1-!
0+!
1!!
0.!
17
0%!
1.!
0/!
1%!
1/!
#114000
0!
01
#114500
1!
11
1b!
0c!
06
0K
18
14
07
08
17
19
1{
09
#115000
0!
01
#115500
1!
11
1|
0b!
1K
1&!
07
0)!
0{
#116000
0!
01
#116500
1!
11
0k!
0|
1c!
16
0&!
0~
1(!
04
0!!
17
#117000
0!
01
#117500
1!
11
1b!
0c!
06
0K
18
14
07
08
17
19
1{
09
#118000
0!
01
#118500
1!
11
1|
0b!
1K
1&!
07
1)!
0"!
0{
#119000
0!
01
#119500
1!
11
1k!
0j!
0|
1c!
16
0&!
0#!
1!!
1~
0(!
04
0$!
1#!
0!!
17
1$!
0%!
1%!
#120000
0!
01
#120500
1!
11
1b!
0c!
06
0K
18
14
07
08
17
19
1{
09
#121000
0!
01
#121500
1!
11
1|
0b!
1K
1&!
07
0)!
0{
#122000
0!
01
#122500
1!
11
0k!
0|
1c!
16
0&!
0~
1(!
04
0#!
1!!
17
0$!
0%!
#123000
0!
01
#123500
1!
11
1b!
0c!
06
0K
18
14
07
08
17
19
1{
09
#124000
0!
01
#124500
1!
11
1|
0b!
1K
1&!
07
1)!
1"!
0{
#125000
0!
01
#125500
1!
11
1k!
0i!
1j!
0|
1c!
16
0&!
1#!
0!!
0*!
1$!
1~
0(!
04
1*!
0$!
0-!
1+!
1!!
17
1%!
1-!
0+!
0.!
0%!
1.!
0/!
1/!
#126000
0!
01
#126500
1!
11
1b!
0c!
06
0K
18
14
07
08
17
19
1{
09
#127000
0!
01
#127500
1!
11
1|
0b!
1K
1&!
07
0)!
0{
#128000
0!
01
#128500
1!
11
0k!
0|
1c!
16
0&!
0~
1(!
04
0!!
17
#129000
0!
01
#129500
1!
11
1b!
0c!
06
0K
18
14
07
08
17
19
1{
09
#130000
0!
01
#130500
1!
11
1|
0b!
1K
1&!
07
1)!
0"!
0{
#131000
0!
01
#131500
1!
11
1k!
0j!
0|
1c!
16
0&!
1'!
0#!
1!!
1~
0(!
04
0*!
1$!
1#!
0!!
17
0-!
1+!
1*!
0$!
1%!
0.!
1-!
0+!
0%!
1.!
0/!
1/!
#132000
0!
01
#132500
1!
11
1b!
0c!
06
0K
18
14
07
08
17
19
1{
09
#133000
0!
01
#133500
1!
11
1|
0b!
1K
1&!
07
0)!
0{
#134000
0!
01
#134500
1!
11
0k!
0|
1c!
16
0&!
0~
1(!
04
0#!
1!!
17
0*!
1$!
0-!
1+!
1%!
0.!
0/!
#135000
0!
01
#135500
1!
11
1b!
0c!
06
0K
18
14
07
08
17
19
1{
09
#136000
0!
01
#136500
1!
11
1|
0b!
1K
1&!
07
1,!
1)!
1"!
0{
#137000
0!
01
#137500
1!
11
0g!
1h!
1k!
1i!
1j!
0|
1c!
16
0&!
0'!
1#!
0!!
1*!
0$!
1~
0(!
1-!
0+!
00!
1.!
04
1$!
1+!
1!!
10!
0.!
03!
11!
17
1/!
0%!
13!
01!
06!
14!
0/!
1%!
16!
04!
17!
07!
#138000
0!
01
#138500
1!
11
1b!
0c!
06
0K
18
14
07
08
17
19
1{
09
#139000
0!
01
#139500
1!
11
1|
0b!
1K
1&!
07
0)!
0{
#140000
0!
01
#140500
1!
11
0k!
0|
1c!
16
0&!
0~
1(!
04
0!!
17
#141000
0!
01
#141500
1!
11
1b!
0c!
06
0K
18
14
07
08
17
19
1{
09
#142000
0!
01
#142500
1!
11
1|
0b!
1K
1&!
07
1)!
0"!
0{
#143000
0!
01
#143500
1!
11
1k!
0j!
0|
1c!
16
0&!
0#!
1!!
1~
0(!
04
0$!
1#!
0!!
17
1$!
0%!
1%!
#144000
0!
01
#144500
1!
11
1b!
0c!
06
0K
18
14
07
08
17
19
1{
09
#145000
0!
01
#145500
1!
11
1|
0b!
1K
1&!
07
0)!
0{
#146000
0!
01
#146500
1!
11
0k!
0|
1c!
16
0&!
0~
1(!
04
0#!
1!!
17
0$!
0%!
#147000
0!
01
#147500
1!
11
1b!
0c!
06
0K
18
14
07
08
17
19
1{
09
#148000
0!
01
#148500
1!
11
1|
0b!
1K
1&!
07
1)!
1"!
0{
#149000
0!
01
#149500
1!
11
1k!
0i!
1j!
0|
1c!
16
0&!
1#!
0!!
0*!
1$!
1~
0(!
04
1*!
0$!
0+!
1!!
17
1%!
1+!
0%!
#150000
0!
01
#150500
1!
11
1b!
0c!
06
0K
18
14
07
08
17
19
1{
09
#151000
0!
01
#151500
1!
11
1|
0b!
1K
1&!
07
0)!
0{
#152000
0!
01
#152500
1!
11
0k!
0|
1c!
16
0&!
0~
1(!
04
0!!
17
#153000
0!
01
#153500
1!
11
1b!
0c!
06
0K
18
14
07
08
17
19
1{
09
#154000
0!
01
#154500
1!
11
1|
0b!
1K
1&!
07
1)!
0"!
0{
#155000
0!
01
#155500
1!
11
1k!
0j!
0|
1c!
16
0&!
1'!
0#!
1!!
1~
0(!
04
0*!
1$!
1#!
0!!
17
0+!
1*!
0$!
1%!
1+!
0%!
#156000
0!
01
#156500
1!
11
1b!
0c!
06
0K
18
14
07
08
17
19
1{
09
#157000
0!
01
#157500
1!
11
1|
0b!
1K
1&!
07
0)!
0{
#158000
0!
01
#158500
1!
11
0k!
0|
1c!
16
0&!
0~
1(!
04
0#!
1!!
17
0*!
1$!
0+!
1%!
#159000
0!
01
#159500
1!
11
1b!
0c!
06
0K
18
14
07
08
17
19
1{
09
#160000
0!
01
#160500
1!
11
1|
0b!
1K
1&!
07
0,!
1)!
1"!
0{
#161000
0!
01
#161500
1!
11
0h!
1k!
1i!
1j!
0|
1c!
16
0&!
0'!
1#!
0!!
1*!
0$!
1~
0(!
0-!
1+!
04
1$!
1-!
0+!
1!!
00!
1.!
17
0%!
10!
0.!
03!
11!
1/!
1%!
13!
01!
06!
14!
0/!
16!
04!
17!
07!
#162000
0!
01
#162500
1!
11
1b!
0c!
06
0K
18
14
07
08
17
19
1{
09
#163000
0!
01
#163500
1!
11
1|
0b!
1K
1&!
07
0)!
0{
#164000
0!
01
#164500
1!
11
0k!
0|
1c!
16
0&!
19!
0~
1(!
04
0!!
17
#165000
0!
01
#165500
1!
11
1b!
0c!
06
0K
18
14
07
08
17
19
1{
09
#166000
0!
01
#166500
1!
11
1|
0b!
1K
1&!
07
1)!
0"!
0{
