3/SV2LabStudent_Schematics/simulation/qsim/SV2Lab.msim.vcd
$comment
	File created using the following command:
		vcd file SV2Lab.msim.vcd -direction
$end
$date
	Mon Aug 17 21:17:35 2020
$end
$version
	ModelSim Version 10.5b
$end
$timescale
	1ps
$end

$scope module decimal_2_digits_counter_vlg_vec_tst $end
$var reg 8 ! Data_init [7:0] $end
$var reg 1 " clk $end
$var reg 1 # ena $end
$var reg 1 $ ena_cnt $end
$var reg 1 % loadN $end
$var reg 1 & resetN $end
$var wire 1 ' Count_out [7] $end
$var wire 1 ( Count_out [6] $end
$var wire 1 ) Count_out [5] $end
$var wire 1 * Count_out [4] $end
$var wire 1 + Count_out [3] $end
$var wire 1 , Count_out [2] $end
$var wire 1 - Count_out [1] $end
$var wire 1 . Count_out [0] $end
$var wire 1 / tc $end

$scope module i1 $end
$var wire 1 0 gnd $end
$var wire 1 1 vcc $end
$var wire 1 2 unknown $end
$var tri1 1 3 devclrn $end
$var tri1 1 4 devpor $end
$var tri1 1 5 devoe $end
$var wire 1 6 Count_out[0]~output_o $end
$var wire 1 7 Count_out[1]~output_o $end
$var wire 1 8 Count_out[2]~output_o $end
$var wire 1 9 Count_out[3]~output_o $end
$var wire 1 : Count_out[4]~output_o $end
$var wire 1 ; Count_out[5]~output_o $end
$var wire 1 < Count_out[6]~output_o $end
$var wire 1 = Count_out[7]~output_o $end
$var wire 1 > tc~output_o $end
$var wire 1 ? clk~input_o $end
$var wire 1 @ loadN~input_o $end
$var wire 1 A Data_init[0]~input_o $end
$var wire 1 B ones_counter|count~0_combout $end
$var wire 1 C resetN~input_o $end
$var wire 1 D ena~input_o $end
$var wire 1 E ena_cnt~input_o $end
$var wire 1 F ones_counter|count[0]~1_combout $end
$var wire 1 G Data_init[3]~input_o $end
$var wire 1 H ones_counter|count~4_combout $end
$var wire 1 I Data_init[2]~input_o $end
$var wire 1 J ones_counter|count~3_combout $end
$var wire 1 K Data_init[1]~input_o $end
$var wire 1 L ones_counter|count~2_combout $end
$var wire 1 M Data_init[4]~input_o $end
$var wire 1 N tens_counter|count~0_combout $end
$var wire 1 O tc~0_combout $end
$var wire 1 P tens_counter|count[0]~1_combout $end
$var wire 1 Q Data_init[7]~input_o $end
$var wire 1 R tens_counter|count~4_combout $end
$var wire 1 S Data_init[6]~input_o $end
$var wire 1 T tens_counter|count~3_combout $end
$var wire 1 U Data_init[5]~input_o $end
$var wire 1 V tens_counter|count~2_combout $end
$var wire 1 W tc~1_combout $end
$var wire 1 X ones_counter|count [3] $end
$var wire 1 Y ones_counter|count [2] $end
$var wire 1 Z ones_counter|count [1] $end
$var wire 1 [ ones_counter|count [0] $end
$var wire 1 \ tens_counter|count [3] $end
$var wire 1 ] tens_counter|count [2] $end
$var wire 1 ^ tens_counter|count [1] $end
$var wire 1 _ tens_counter|count [0] $end
$upscope $end
$upscope $end
$enddefinitions $end
#0
$dumpvars
b10010 !
0"
1#
1$
1%
0&
0.
0-
0,
0+
0*
0)
0(
0'
0/
00
11
x2
13
14
15
06
07
08
09
0:
0;
0<
0=
0>
0?
1@
0A
1B
0C
1D
1E
1F
0G
1H
0I
0J
1K
0L
1M
1N
1O
0P
0Q
1R
0S
0T
0U
0V
0W
0[
0Z
0Y
0X
0_
0^
0]
0\
$end
#10000
1"
1&
1C
1?
1P
1W
1>
1/
1X
1[
16
19
0O
1+
1.
0B
0P
0W
0>
0/
#20000
0"
0?
#30000
1"
1?
0[
06
0.
1L
1J
0H
1B
#40000
0"
0?
#50000
0$
1"
0E
1?
0F
1Z
1Y
0X
1[
16
09
18
17
1-
1,
0+
1.
0B
#60000
0"
0?
#70000
1"
1?
#80000
1$
0"
1E
0?
1F
#90000
1"
1?
0[
06
0.
0L
1B
#100000
0"
0?
#110000
1"
1?
0Z
1[
16
07
0-
1.
0B
#120000
0#
0"
0D
0?
0F
#130000
1"
1?
#140000
0"
0?
#150000
1"
1?
#160000
0"
0?
#170000
1#
1"
1D
1?
1F
#180000
0"
0?
#190000
1"
1?
0[
06
0.
1L
0J
1B
#200000
0&
0"
0C
0?
0Y
08
1O
0,
0L
1H
#210000
1"
1?
#220000
0"
0?
#230000
1&
1"
1C
1?
1P
1W
1>
1/
1X
1[
16
19
0O
1+
1.
0B
0P
0W
0>
0/
#240000
0"
0?
#250000
1"
1?
0[
06
0.
1L
1J
0H
1B
#260000
0"
0?
#270000
1"
1?
1Z
1Y
0X
1[
16
09
18
17
1-
1,
0+
1.
0B
#280000
0"
0?
#290000
1"
1?
0[
06
0.
0L
1B
#300000
0"
0?
#310000
1"
1?
0Z
1[
16
07
0-
1.
0B
#320000
0%
0"
0@
0?
1P
0R
1L
0J
#330000
1"
1?
1_
1Z
0Y
0[
06
08
17
1:
1*
1-
0,
0.
#340000
0"
0?
#350000
1"
1?
#360000
0"
0?
#370000
1"
1?
#380000
1%
0"
1@
0?
0P
0N
0L
1B
#390000
1"
1?
0Z
1[
16
07
0-
1.
0B
#400000
0"
0?
#410000
1"
1?
0[
06
1O
0.
1H
1B
1P
#420000
0"
0?
#430000
1"
1?
0_
1X
1[
16
19
0:
0O
0*
1+
1.
0B
1W
1R
1N
1>
0P
1/
0W
0>
0/
#440000
0"
0?
#450000
1"
1?
0[
06
0.
1L
1J
0H
1B
#460000
0"
0?
#470000
1"
1?
1Z
1Y
0X
1[
16
09
18
17
1-
1,
0+
1.
0B
#480000
0"
0?
#490000
1"
1?
0[
06
0.
0L
1B
#500000
0"
0?
#510000
1"
1?
0Z
1[
16
07
0-
1.
0B
#520000
0"
0?
#530000
1"
1?
0[
06
0.
1L
0J
1B
#540000
0"
0?
#550000
1"
1?
1Z
0Y
1[
16
08
17
1-
0,
1.
0B
#560000
0"
0?
#570000
1"
1?
0[
06
0.
0L
1B
#580000
0"
0?
#590000
1"
1?
0Z
1[
16
07
0-
1.
0B
#600000
0"
0?
#610000
1"
1?
0[
06
1O
0.
1H
1B
1P
1W
1>
1/
#620000
0"
0?
#630000
1"
1?
1\
1_
1X
1[
16
19
1:
1=
0O
1'
1*
1+
1.
0B
0W
0N
0>
0P
0/
#640000
0"
0?
#650000
1"
1?
0[
06
0.
1L
1J
0H
1B
#660000
0"
0?
#670000
1"
1?
1Z
1Y
0X
1[
16
09
18
17
1-
1,
0+
1.
0B
#680000
0"
0?
#690000
1"
1?
0[
06
0.
0L
1B
#700000
0"
0?
#710000
1"
1?
0Z
1[
16
07
0-
1.
0B
#720000
0"
0?
#730000
1"
1?
0[
06
0.
1L
0J
1B
#740000
0"
0?
#750000
1"
1?
1Z
0Y
1[
16
08
17
1-
0,
1.
0B
#760000
0"
0?
#770000
1"
1?
0[
06
0.
0L
1B
#780000
0"
0?
#790000
1"
1?
0Z
1[
16
07
0-
1.
0B
#800000
0"
0?
#810000
1"
1?
0[
06
1O
0.
1H
1B
1P
#820000
0"
0?
#830000
1"
1?
0_
1X
1[
16
19
0:
0O
0*
1+
1.
0B
1V
1T
0R
1N
0P
#840000
0"
0?
#850000
1"
1?
0[
06
0.
1L
1J
0H
1B
#860000
0"
0?
#870000
1"
1?
1Z
1Y
0X
1[
16
09
18
17
1-
1,
0+
1.
0B
#880000
0"
0?
#890000
1"
1?
0[
06
0.
0L
1B
#900000
0"
0?
#910000
1"
1?
0Z
1[
16
07
0-
1.
0B
#920000
0"
0?
#930000
1"
1?
0[
06
0.
1L
0J
1B
#940000
0"
0?
#950000
1"
1?
1Z
0Y
1[
16
08
17
1-
0,
1.
0B
#960000
0"
0?
#970000
1"
1?
0[
06
0.
0L
1B
#980000
0"
0?
#990000
1"
1?
0Z
1[
16
07
0-
1.
0B
