3/SV2LabStudent_Schematics/simulation/qsim/SV2Lab.msim.vcd
$comment
	File created using the following command:
		vcd file SV2Lab.msim.vcd -direction
$end
$date
	Mon Aug 17 21:40:50 2020
$end
$version
	ModelSim Version 10.5b
$end
$timescale
	1ps
$end

$scope module bomb_fsm_vlg_vec_tst $end
$var reg 1 ! clk $end
$var reg 1 " resetN $end
$var reg 1 # slowClken $end
$var reg 1 $ startN $end
$var reg 1 % tcSec $end
$var reg 1 & waitN $end
$var wire 1 ' countEnable $end
$var wire 1 ( countLoadN $end
$var wire 1 ) lampEnable $end
$var wire 1 * lampTest $end

$scope module i1 $end
$var wire 1 + gnd $end
$var wire 1 , vcc $end
$var wire 1 - unknown $end
$var tri1 1 . devclrn $end
$var tri1 1 / devpor $end
$var tri1 1 0 devoe $end
$var wire 1 1 countEnable~output_o $end
$var wire 1 2 countLoadN~output_o $end
$var wire 1 3 lampEnable~output_o $end
$var wire 1 4 lampTest~output_o $end
$var wire 1 5 clk~input_o $end
$var wire 1 6 waitN~input_o $end
$var wire 1 7 resetN~input_o $end
$var wire 1 8 tcSec~input_o $end
$var wire 1 9 slowClken~input_o $end
$var wire 1 : Selector4~2_combout $end
$var wire 1 ; prState.SlampOn~0_combout $end
$var wire 1 < Selector3~0_combout $end
$var wire 1 = prState.Spause~q $end
$var wire 1 > startN~input_o $end
$var wire 1 ? Selector4~1_combout $end
$var wire 1 @ Selector4~3_combout $end
$var wire 1 A prState.SlampOn~q $end
$var wire 1 B Selector4~0_combout $end
$var wire 1 C prState.SlampOff~q $end
$var wire 1 D Selector2~0_combout $end
$var wire 1 E Selector0~3_combout $end
$var wire 1 F prState.Sidle~q $end
$var wire 1 G Selector1~0_combout $end
$var wire 1 H prState.Sarm~q $end
$var wire 1 I Selector0~2_combout $end
$var wire 1 J Selector2~1_combout $end
$var wire 1 K prState.Srun~q $end
$var wire 1 L lampEnable~0_combout $end
$upscope $end
$upscope $end
$enddefinitions $end
#0
$dumpvars
0!
0"
0#
1$
0%
1&
0'
1(
0)
0*
0+
1,
x-
1.
1/
10
01
12
03
04
05
16
07
08
09
1:
0;
0<
0=
1>
0?
0@
0A
0B
0C
1D
0E
0F
0G
0H
0I
0J
0K
1L
$end
#10000
1!
15
#20000
1"
1#
0!
17
19
05
#30000
1!
15
#40000
0#
0!
09
05
#50000
1!
15
#60000
0$
1#
0!
0>
19
05
0D
1@
1G
1E
#70000
1!
15
1H
1F
02
0L
1D
0@
0(
13
0E
1)
#80000
0#
0!
09
05
#90000
1$
1!
1>
15
1I
1?
0G
1@
1E
1J
#100000
1#
0!
19
05
#110000
1!
15
0H
1K
11
12
0I
0?
1(
1'
0@
0E
#120000
0#
0!
09
05
#130000
1!
15
#140000
1#
0!
19
05
#150000
1!
15
#160000
0#
0!
09
05
#170000
1!
15
#180000
1#
0!
19
05
#190000
0&
1!
06
15
1E
1?
0J
1<
1@
#200000
0#
0!
09
05
#210000
1!
15
1=
0K
01
0?
0E
0'
0<
0@
#220000
1#
0!
19
05
#230000
1!
15
#240000
0#
0!
09
05
#250000
1!
15
#260000
1#
0!
19
05
#270000
1!
15
#280000
0#
0!
09
05
#290000
1!
15
#300000
1#
0!
19
05
#310000
1!
15
#320000
0#
0!
09
05
#330000
1!
15
#340000
1#
0!
19
05
#350000
1!
15
#360000
0#
0!
09
05
#370000
1!
15
#380000
1#
0!
19
05
#390000
1!
15
#400000
0#
0!
09
05
#410000
1&
1!
16
15
1I
1?
1@
1E
1J
#420000
1#
0!
19
05
#430000
1!
15
0=
1K
11
0I
0?
1'
0@
0E
#440000
0#
0!
09
05
#450000
1!
15
#460000
1#
0!
19
05
#470000
1!
15
#480000
0#
0!
09
05
#490000
1!
15
#500000
1#
0!
19
05
#510000
1!
15
#520000
0#
0!
09
05
#530000
1%
1!
18
15
1E
0:
0J
1@
1;
#540000
1#
0!
19
05
#550000
1!
15
0K
1A
14
01
0D
0E
1:
0'
1*
1B
1E
0;
#560000
0#
0!
09
05
1D
0@
0B
0E
#570000
1!
15
#580000
0%
1#
0!
08
19
05
0D
1@
1B
1E
#590000
1!
15
1C
0A
04
1L
0@
0:
0*
0B
03
1@
0)
1;
#600000
0#
0!
09
05
1D
1:
0@
0E
0;
#610000
1!
15
#620000
1#
0!
19
05
0D
0:
1@
1E
1;
#630000
1!
15
0C
1A
14
0L
1:
1*
1B
13
1)
0;
#640000
0#
0!
09
05
1D
0@
0B
0E
#650000
1!
15
#660000
1#
0!
19
05
0D
1@
1B
1E
#670000
1!
15
1C
0A
04
1L
0@
0:
0*
0B
03
1@
0)
1;
#680000
0#
0!
09
05
1D
1:
0@
0E
0;
#690000
1!
15
#700000
1#
0!
19
05
0D
0:
1@
1E
1;
#710000
1!
15
0C
1A
14
0L
1:
1*
1B
13
1)
0;
#720000
0#
0!
09
05
1D
0@
0B
0E
#730000
1!
15
#740000
1#
0!
19
05
0D
1@
1B
1E
#750000
1!
15
1C
0A
04
1L
0@
0:
0*
0B
03
1@
0)
1;
#760000
0#
0!
09
05
1D
1:
0@
0E
0;
#770000
1!
15
#780000
1#
0!
19
05
0D
0:
1@
1E
1;
#790000
1!
15
0C
1A
14
0L
1:
1*
1B
13
1)
0;
#800000
0#
0!
09
05
1D
0@
0B
0E
#810000
1!
15
#820000
1#
0!
19
05
0D
1@
1B
1E
#830000
1!
15
1C
0A
04
1L
0@
0:
0*
0B
03
1@
0)
1;
#840000
0#
0!
09
05
1D
1:
0@
0E
0;
#850000
1!
15
#860000
1#
0!
19
05
0D
0:
1@
1E
1;
#870000
1!
15
0C
1A
14
0L
1:
1*
1B
13
1)
0;
#880000
0#
0!
09
05
1D
0@
0B
0E
#890000
1!
15
#900000
1#
0!
19
05
0D
1@
1B
1E
#910000
1!
15
1C
0A
04
1L
0@
0:
0*
0B
03
1@
0)
1;
#920000
0#
0!
09
05
1D
1:
0@
0E
0;
#930000
1!
15
#940000
1#
0!
19
05
0D
0:
1@
1E
1;
#950000
1!
15
0C
1A
14
0L
1:
1*
1B
13
1)
0;
#960000
0#
0!
09
05
1D
0@
0B
0E
#970000
1!
15
#980000
1#
0!
19
05
0D
1@
1B
1E
#990000
1!
15
1C
0A
04
1L
0@
0:
0*
0B
03
1@
0)
1;
