3/SV2LabStudent_Schematics/simulation/qsim/SV2Lab.msim.vcd
$comment
	File created using the following command:
		vcd file SV2Lab.msim.vcd -direction
$end
$date
	Mon Aug 17 15:45:36 2020
$end
$version
	ModelSim Version 10.5b
$end
$timescale
	1ps
$end

$scope module ramzor_fsm_vlg_vec_tst $end
$var reg 1 ! clk $end
$var reg 1 " endOftime $end
$var reg 1 # resetN $end
$var reg 1 $ switchN $end
$var wire 1 % greenLight $end
$var wire 1 & loadN $end
$var wire 1 ' redLight $end
$var wire 1 ( timer_val [7] $end
$var wire 1 ) timer_val [6] $end
$var wire 1 * timer_val [5] $end
$var wire 1 + timer_val [4] $end
$var wire 1 , timer_val [3] $end
$var wire 1 - timer_val [2] $end
$var wire 1 . timer_val [1] $end
$var wire 1 / timer_val [0] $end
$var wire 1 0 yellowLight $end

$scope module i1 $end
$var wire 1 1 gnd $end
$var wire 1 2 vcc $end
$var wire 1 3 unknown $end
$var tri1 1 4 devclrn $end
$var tri1 1 5 devpor $end
$var tri1 1 6 devoe $end
$var wire 1 7 loadN~output_o $end
$var wire 1 8 timer_val[0]~output_o $end
$var wire 1 9 timer_val[1]~output_o $end
$var wire 1 : timer_val[2]~output_o $end
$var wire 1 ; timer_val[3]~output_o $end
$var wire 1 < timer_val[4]~output_o $end
$var wire 1 = timer_val[5]~output_o $end
$var wire 1 > timer_val[6]~output_o $end
$var wire 1 ? timer_val[7]~output_o $end
$var wire 1 @ redLight~output_o $end
$var wire 1 A yellowLight~output_o $end
$var wire 1 B greenLight~output_o $end
$var wire 1 C endOftime~input_o $end
$var wire 1 D switchN~input_o $end
$var wire 1 E clk~input_o $end
$var wire 1 F Selector1~0_combout $end
$var wire 1 G resetN~input_o $end
$var wire 1 H present_state.red_yellow_st~q $end
$var wire 1 I Selector5~0_combout $end
$var wire 1 J present_state.green_st~q $end
$var wire 1 K present_state.yellow_st~0_combout $end
$var wire 1 L present_state.yellow_st~q $end
$var wire 1 M Selector0~0_combout $end
$var wire 1 N present_state.red_st~q $end
$var wire 1 O loadN~0_combout $end
$var wire 1 P Selector7~0_combout $end
$var wire 1 Q redLight~0_combout $end
$var wire 1 R yellowLight~0_combout $end
$upscope $end
$upscope $end
$enddefinitions $end
#0
$dumpvars
0!
0"
0#
1$
0%
1&
1'
0/
0.
0-
0,
1+
1*
0)
0(
00
01
12
x3
14
15
16
17
08
09
0:
0;
1<
1=
0>
0?
1@
0A
0B
0C
1D
0E
0F
0G
0H
0I
0J
0K
0L
0M
0N
0O
0P
1Q
0R
$end
#5000
1!
1E
#10000
1#
0!
1G
0E
#15000
1!
1E
#20000
0!
0E
#25000
1"
1!
1C
1E
1O
1P
1M
1F
0=
19
07
0&
1.
0*
#30000
0!
0E
#35000
1!
1E
1N
1H
1R
1I
0F
0P
1=
0<
09
1:
1A
10
1-
0.
0+
1*
#40000
0!
0E
#45000
1!
1E
0H
1J
1B
1%
0R
0Q
0I
1P
1K
0=
1<
19
0:
0@
0A
00
0'
0-
1.
1+
0*
#50000
0"
0!
0C
0E
0O
0P
0K
1I
0<
1=
1:
09
17
1&
0.
1-
1*
0+
#55000
1!
1E
#60000
0!
0E
#65000
1!
1E
#70000
0!
0E
#75000
1"
1!
1C
1E
1O
1P
1K
0I
1<
0=
0:
19
07
0&
1.
0-
0*
1+
#80000
0!
0E
#85000
1!
1E
1L
0J
0B
0%
1R
0M
0K
0P
1=
09
1A
10
0.
1*
#90000
0!
0E
#95000
1!
1E
0N
0L
0R
1M
1Q
1P
1F
0=
19
1@
0A
00
1'
1.
0*
#100000
0"
0!
0C
0E
0O
0P
0M
0F
1=
09
17
1&
0.
1*
#105000
1!
1E
#110000
0!
0E
#115000
1!
1E
#120000
0!
0E
#125000
1"
1!
1C
1E
1O
1P
1M
1F
0=
19
07
0&
1.
0*
#130000
0!
0E
#135000
1!
1E
1N
1H
1R
1I
0F
0P
1=
0<
09
1:
1A
10
1-
0.
0+
1*
#140000
0!
0E
#145000
1!
1E
0H
1J
1B
1%
0R
0Q
0I
1P
1K
0=
1<
19
0:
0@
0A
00
0'
0-
1.
1+
0*
#150000
0"
0!
0C
0E
0O
0P
0K
1I
0<
1=
1:
09
17
1&
0.
1-
1*
0+
#155000
1!
1E
#160000
0!
0E
#165000
1!
1E
#170000
0!
0E
#175000
1"
1!
1C
1E
1O
1P
1K
0I
1<
0=
0:
19
07
0&
1.
0-
0*
1+
#180000
0!
0E
#185000
1!
1E
1L
0J
0B
0%
1R
0M
0K
0P
1=
09
1A
10
0.
1*
#190000
0!
0E
#195000
1!
1E
0N
0L
0R
1M
1Q
1P
1F
0=
19
1@
0A
00
1'
1.
0*
#200000
0$
0"
0!
0D
0C
0E
#205000
1!
1E
1N
1H
0O
1R
1A
17
1&
10
#210000
1$
0!
1D
0E
#215000
1!
1E
#220000
0!
0E
#225000
1"
1!
1C
1E
1O
0P
1I
0F
0<
1=
1:
09
07
0&
0.
1-
1*
0+
#230000
0!
0E
#235000
1!
1E
0H
1J
1B
1%
0R
0Q
0I
1P
1K
0=
1<
19
0:
0@
0A
00
0'
0-
1.
1+
0*
#240000
0!
0E
#245000
1!
1E
1L
0J
0B
0%
1R
0M
0K
0P
1=
09
1A
10
0.
1*
#250000
0"
0!
0C
0E
0O
1P
1M
1K
0=
19
17
1&
1.
0*
#255000
1!
1E
#260000
0!
0E
#265000
1!
1E
#270000
0!
0E
#275000
1"
1!
1C
1E
1O
0P
0M
0K
1=
09
07
0&
0.
1*
#280000
0!
0E
#285000
1!
1E
0N
0L
0R
1M
1Q
1P
1F
0=
19
1@
0A
00
1'
1.
0*
#290000
0!
0E
#295000
1!
1E
1N
1H
1R
1I
0F
0P
1=
0<
09
1:
1A
10
1-
0.
0+
1*
#300000
0"
0!
0C
0E
0O
1P
0I
1F
1<
0=
0:
19
17
1&
1.
0-
0*
1+
#305000
1!
1E
#310000
0!
0E
#315000
1!
1E
#320000
0!
0E
#325000
1"
1!
1C
1E
1O
0P
1I
0F
0<
1=
1:
09
07
0&
0.
1-
1*
0+
#330000
0!
0E
#335000
1!
1E
0H
1J
1B
1%
0R
0Q
0I
1P
1K
0=
1<
19
0:
0@
0A
00
0'
0-
1.
1+
0*
#340000
0!
0E
#345000
1!
1E
1L
0J
0B
0%
1R
0M
0K
0P
1=
09
1A
10
0.
1*
#350000
0"
0!
0C
0E
0O
1P
1M
1K
0=
19
17
1&
1.
0*
#355000
1!
1E
#360000
0!
0E
#365000
1!
1E
#370000
0!
0E
#375000
1"
1!
1C
1E
1O
0P
0M
0K
1=
09
07
0&
0.
1*
#380000
0!
0E
#385000
1!
1E
0N
0L
0R
1M
1Q
1P
1F
0=
19
1@
0A
00
1'
1.
0*
#390000
0!
0E
#395000
1!
1E
1N
1H
1R
1I
0F
0P
1=
0<
09
1:
1A
10
1-
0.
0+
1*
#400000
0"
0!
0C
0E
0O
1P
0I
1F
1<
0=
0:
19
17
1&
1.
0-
0*
1+
#405000
1!
1E
#410000
0!
0E
#415000
1!
1E
#420000
0!
0E
#425000
1"
1!
1C
1E
1O
0P
1I
0F
0<
1=
1:
09
07
0&
0.
1-
1*
0+
#430000
0!
0E
#435000
1!
1E
0H
1J
1B
1%
0R
0Q
0I
1P
1K
0=
1<
19
0:
0@
0A
00
0'
0-
1.
1+
0*
#440000
0!
0E
#445000
1!
1E
1L
0J
0B
0%
1R
0M
0K
0P
1=
09
1A
10
0.
1*
#450000
0"
0!
0C
0E
0O
1P
1M
1K
0=
19
17
1&
1.
0*
#455000
1!
1E
#460000
0!
0E
#465000
1!
1E
#470000
0!
0E
#475000
1"
1!
1C
1E
1O
0P
0M
0K
1=
09
07
0&
0.
1*
#480000
0#
0!
0G
0E
0L
0N
1Q
1P
1M
1F
0R
0=
0A
19
1@
1'
1.
00
0*
#485000
1!
1E
#490000
0!
0E
#495000
1!
1E
#500000
0"
1#
0!
0C
1G
0E
0O
0P
0M
0F
1=
09
17
1&
0.
1*
#505000
1!
1E
#510000
0!
0E
#515000
1!
1E
#520000
0!
0E
#525000
1"
1!
1C
1E
1O
1P
1M
1F
0=
19
07
0&
1.
0*
#530000
0!
0E
#535000
1!
1E
1N
1H
1R
1I
0F
0P
1=
0<
09
1:
1A
10
1-
0.
0+
1*
#540000
0!
0E
#545000
1!
1E
0H
1J
1B
1%
0R
0Q
0I
1P
1K
0=
1<
19
0:
0@
0A
00
0'
0-
1.
1+
0*
#550000
0"
0!
0C
0E
0O
0P
0K
1I
0<
1=
1:
09
17
1&
0.
1-
1*
0+
#555000
1!
1E
#560000
0!
0E
#565000
1!
1E
#570000
0!
0E
#575000
1"
1!
1C
1E
1O
1P
1K
0I
1<
0=
0:
19
07
0&
1.
0-
0*
1+
#580000
0!
0E
#585000
1!
1E
1L
0J
0B
0%
1R
0M
0K
0P
1=
09
1A
10
0.
1*
#590000
0!
0E
#595000
1!
1E
0N
0L
0R
1M
1Q
1P
1F
0=
19
1@
0A
00
1'
1.
0*
#600000
0"
0!
0C
0E
0O
0P
0M
0F
1=
09
17
1&
0.
1*
#605000
1!
1E
#610000
0!
0E
#615000
1!
1E
#620000
0!
0E
#625000
1"
1!
1C
1E
1O
1P
1M
1F
0=
19
07
0&
1.
0*
#630000
0!
0E
#635000
1!
1E
1N
1H
1R
1I
0F
0P
1=
0<
09
1:
1A
10
1-
0.
0+
1*
#640000
0!
0E
#645000
1!
1E
0H
1J
1B
1%
0R
0Q
0I
1P
1K
0=
1<
19
0:
0@
0A
00
0'
0-
1.
1+
0*
#650000
0"
0!
0C
0E
0O
0P
0K
1I
0<
1=
1:
09
17
1&
0.
1-
1*
0+
#655000
1!
1E
#660000
0!
0E
#665000
1!
1E
#670000
0!
0E
#675000
1"
1!
1C
1E
1O
1P
1K
0I
1<
0=
0:
19
07
0&
1.
0-
0*
1+
#680000
0!
0E
#685000
1!
1E
1L
0J
0B
0%
1R
0M
0K
0P
1=
09
1A
10
0.
1*
#690000
0!
0E
#695000
1!
1E
0N
0L
0R
1M
1Q
1P
1F
0=
19
1@
0A
00
1'
1.
0*
#700000
0"
0!
0C
0E
0O
0P
0M
0F
1=
09
17
1&
0.
1*
#705000
1!
1E
#710000
0!
0E
#715000
1!
1E
#720000
0!
0E
#725000
1"
1!
1C
1E
1O
1P
1M
1F
0=
19
07
0&
1.
0*
#730000
0!
0E
#735000
1!
1E
1N
1H
1R
1I
0F
0P
1=
0<
09
1:
1A
10
1-
0.
0+
1*
#740000
0!
0E
#745000
1!
1E
0H
1J
1B
1%
0R
0Q
0I
1P
1K
0=
1<
19
0:
0@
0A
00
0'
0-
1.
1+
0*
#750000
0"
0!
0C
0E
0O
0P
0K
1I
0<
1=
1:
09
17
1&
0.
1-
1*
0+
#755000
1!
1E
#760000
0!
0E
#765000
1!
1E
#770000
0!
0E
#775000
1"
1!
1C
1E
1O
1P
1K
0I
1<
0=
0:
19
07
0&
1.
0-
0*
1+
#780000
0!
0E
#785000
1!
1E
1L
0J
0B
0%
1R
0M
0K
0P
1=
09
1A
10
0.
1*
#790000
0!
0E
#795000
1!
1E
0N
0L
0R
1M
1Q
1P
1F
0=
19
1@
0A
00
1'
1.
0*
#800000
0"
0!
0C
0E
0O
0P
0M
0F
1=
09
17
1&
0.
1*
#805000
1!
1E
#810000
0!
0E
#815000
1!
1E
#820000
0!
0E
#825000
1"
1!
1C
1E
1O
1P
1M
1F
0=
19
07
0&
1.
0*
#830000
0!
0E
#835000
1!
1E
1N
1H
1R
1I
0F
0P
1=
0<
09
1:
1A
10
1-
0.
0+
1*
#840000
0!
0E
#845000
1!
1E
0H
1J
1B
1%
0R
0Q
0I
1P
1K
0=
1<
19
0:
0@
0A
00
0'
0-
1.
1+
0*
#850000
0"
0!
0C
0E
0O
0P
0K
1I
0<
1=
1:
09
17
1&
0.
1-
1*
0+
#855000
1!
1E
#860000
0!
0E
#865000
1!
1E
#870000
0!
0E
#875000
1"
1!
1C
1E
1O
1P
1K
0I
1<
0=
0:
19
07
0&
1.
0-
0*
1+
#880000
0!
0E
#885000
1!
1E
1L
0J
0B
0%
1R
0M
0K
0P
1=
09
1A
10
0.
1*
#890000
0!
0E
#895000
1!
1E
0N
0L
0R
1M
1Q
1P
1F
0=
19
1@
0A
00
1'
1.
0*
#900000
0"
0!
0C
0E
0O
0P
0M
0F
1=
09
17
1&
0.
1*
#905000
1!
1E
#910000
0!
0E
#915000
1!
1E
#920000
0!
0E
#925000
1"
1!
1C
1E
1O
1P
1M
1F
0=
19
07
0&
1.
0*
#930000
0!
0E
#935000
1!
1E
1N
1H
1R
1I
0F
0P
1=
0<
09
1:
1A
10
1-
0.
0+
1*
#940000
0!
0E
#945000
1!
1E
0H
1J
1B
1%
0R
0Q
0I
1P
1K
0=
1<
19
0:
0@
0A
00
0'
0-
1.
1+
0*
#950000
0"
0!
0C
0E
0O
0P
0K
1I
0<
1=
1:
09
17
1&
0.
1-
1*
0+
#955000
1!
1E
#960000
0!
0E
#965000
1!
1E
#970000
0!
0E
#975000
1"
1!
1C
1E
1O
1P
1K
0I
1<
0=
0:
19
07
0&
1.
0-
0*
1+
#980000
0!
0E
#985000
1!
1E
1L
0J
0B
0%
1R
0M
0K
0P
1=
09
1A
10
0.
1*
#990000
0!
0E
#995000
1!
1E
0N
0L
0R
1M
1Q
1P
1F
0=
19
1@
0A
00
1'
1.
0*
