3/SV2LabStudent_Schematics/simulation/qsim/SV2Lab.msim.vcd
$comment
	File created using the following command:
		vcd file SV2Lab.msim.vcd -direction
$end
$date
	Sun Aug 16 18:11:10 2020
$end
$version
	ModelSim Version 10.5b
$end
$timescale
	1ps
$end

$scope module ramzor_vlg_vec_tst $end
$var reg 1 ! CLOCK_50 $end
$var reg 1 " resetN $end
$var reg 1 # switchN $end
$var reg 1 $ turbo $end
$var wire 1 % greenLight $end
$var wire 1 & redLight $end
$var wire 1 ' yellowLight $end

$scope module i1 $end
$var wire 1 ( gnd $end
$var wire 1 ) vcc $end
$var wire 1 * unknown $end
$var tri1 1 + devclrn $end
$var tri1 1 , devpor $end
$var tri1 1 - devoe $end
$var wire 1 . redLight~output_o $end
$var wire 1 / yellowLight~output_o $end
$var wire 1 0 greenLight~output_o $end
$var wire 1 1 CLOCK_50~input_o $end
$var wire 1 2 ramzor_fsm|yellowLight~combout $end
$var wire 1 3 onetens_sec_counter|Add0~125_sumout $end
$var wire 1 4 resetN~input_o $end
$var wire 1 5 onetens_sec_counter|Add0~126 $end
$var wire 1 6 onetens_sec_counter|Add0~21_sumout $end
$var wire 1 7 onetens_sec_counter|Add0~22 $end
$var wire 1 8 onetens_sec_counter|Add0~17_sumout $end
$var wire 1 9 onetens_sec_counter|Add0~18 $end
$var wire 1 : onetens_sec_counter|Add0~13_sumout $end
$var wire 1 ; onetens_sec_counter|Add0~14 $end
$var wire 1 < onetens_sec_counter|Add0~9_sumout $end
$var wire 1 = onetens_sec_counter|Add0~10 $end
$var wire 1 > onetens_sec_counter|Add0~73_sumout $end
$var wire 1 ? onetens_sec_counter|Add0~74 $end
$var wire 1 @ onetens_sec_counter|Add0~97_sumout $end
$var wire 1 A onetens_sec_counter|Add0~98 $end
$var wire 1 B onetens_sec_counter|Add0~93_sumout $end
$var wire 1 C onetens_sec_counter|Add0~94 $end
$var wire 1 D onetens_sec_counter|Add0~89_sumout $end
$var wire 1 E onetens_sec_counter|Add0~90 $end
$var wire 1 F onetens_sec_counter|Add0~85_sumout $end
$var wire 1 G onetens_sec_counter|Add0~86 $end
$var wire 1 H onetens_sec_counter|Add0~5_sumout $end
$var wire 1 I onetens_sec_counter|Add0~6 $end
$var wire 1 J onetens_sec_counter|Add0~1_sumout $end
$var wire 1 K turbo~input_o $end
$var wire 1 L onetens_sec_counter|LessThan0~0_combout $end
$var wire 1 M onetens_sec_counter|Add0~2 $end
$var wire 1 N onetens_sec_counter|Add0~57_sumout $end
$var wire 1 O onetens_sec_counter|Add0~58 $end
$var wire 1 P onetens_sec_counter|Add0~53_sumout $end
$var wire 1 Q onetens_sec_counter|Add0~54 $end
$var wire 1 R onetens_sec_counter|Add0~49_sumout $end
$var wire 1 S onetens_sec_counter|Add0~50 $end
$var wire 1 T onetens_sec_counter|Add0~45_sumout $end
$var wire 1 U onetens_sec_counter|Add0~46 $end
$var wire 1 V onetens_sec_counter|Add0~41_sumout $end
$var wire 1 W onetens_sec_counter|Add0~42 $end
$var wire 1 X onetens_sec_counter|Add0~37_sumout $end
$var wire 1 Y onetens_sec_counter|Add0~38 $end
$var wire 1 Z onetens_sec_counter|Add0~81_sumout $end
$var wire 1 [ onetens_sec_counter|Add0~82 $end
$var wire 1 \ onetens_sec_counter|Add0~77_sumout $end
$var wire 1 ] onetens_sec_counter|Add0~78 $end
$var wire 1 ^ onetens_sec_counter|Add0~101_sumout $end
$var wire 1 _ onetens_sec_counter|Add0~102 $end
$var wire 1 ` onetens_sec_counter|Add0~69_sumout $end
$var wire 1 a onetens_sec_counter|Add0~70 $end
$var wire 1 b onetens_sec_counter|Add0~65_sumout $end
$var wire 1 c onetens_sec_counter|Add0~66 $end
$var wire 1 d onetens_sec_counter|Add0~61_sumout $end
$var wire 1 e onetens_sec_counter|Add0~62 $end
$var wire 1 f onetens_sec_counter|Add0~33_sumout $end
$var wire 1 g onetens_sec_counter|Add0~34 $end
$var wire 1 h onetens_sec_counter|Add0~121_sumout $end
$var wire 1 i onetens_sec_counter|Add0~122 $end
$var wire 1 j onetens_sec_counter|Add0~117_sumout $end
$var wire 1 k onetens_sec_counter|Add0~118 $end
$var wire 1 l onetens_sec_counter|Add0~113_sumout $end
$var wire 1 m onetens_sec_counter|Add0~114 $end
$var wire 1 n onetens_sec_counter|Add0~109_sumout $end
$var wire 1 o onetens_sec_counter|Add0~110 $end
$var wire 1 p onetens_sec_counter|Add0~105_sumout $end
$var wire 1 q onetens_sec_counter|Add0~106 $end
$var wire 1 r onetens_sec_counter|Add0~29_sumout $end
$var wire 1 s onetens_sec_counter|Add0~30 $end
$var wire 1 t onetens_sec_counter|Add0~25_sumout $end
$var wire 1 u onetens_sec_counter|LessThan0~1_combout $end
$var wire 1 v onetens_sec_counter|LessThan0~2_combout $end
$var wire 1 w onetens_sec_counter|LessThan0~3_combout $end
$var wire 1 x onetens_sec_counter|LessThan0~4_combout $end
$var wire 1 y onetens_sec_counter|LessThan0~5_combout $end
$var wire 1 z onetens_sec_counter|LessThan0~6_combout $end
$var wire 1 { onetens_sec_counter|onetens_sec~q $end
$var wire 1 | aux_timer|Add0~2 $end
$var wire 1 } aux_timer|Add0~29_sumout $end
$var wire 1 ~ aux_timer|count[1]~7_combout $end
$var wire 1 !! aux_timer|Add0~30 $end
$var wire 1 "! aux_timer|Add0~25_sumout $end
$var wire 1 #! aux_timer|count[2]~6_combout $end
$var wire 1 $! aux_timer|Equal0~1_combout $end
$var wire 1 %! aux_timer|Add0~1_sumout $end
$var wire 1 &! aux_timer|count[0]~0_combout $end
$var wire 1 '! aux_timer|Add0~26 $end
$var wire 1 (! aux_timer|Add0~21_sumout $end
$var wire 1 )! aux_timer|count[3]~5_combout $end
$var wire 1 *! aux_timer|Add0~22 $end
$var wire 1 +! aux_timer|Add0~17_sumout $end
$var wire 1 ,! aux_timer|count[4]~4_combout $end
$var wire 1 -! aux_timer|Add0~18 $end
$var wire 1 .! aux_timer|Add0~13_sumout $end
$var wire 1 /! aux_timer|count[5]~3_combout $end
$var wire 1 0! aux_timer|Add0~14 $end
$var wire 1 1! aux_timer|Add0~9_sumout $end
$var wire 1 2! aux_timer|count[6]~2_combout $end
$var wire 1 3! aux_timer|Add0~10 $end
$var wire 1 4! aux_timer|Add0~5_sumout $end
$var wire 1 5! aux_timer|count[7]~1_combout $end
$var wire 1 6! aux_timer|Equal0~0_combout $end
$var wire 1 7! switchN~input_o $end
$var wire 1 8! ramzor_fsm|Selector1~0_combout $end
$var wire 1 9! ramzor_fsm|present_state.red_yellow_st~q $end
$var wire 1 :! aux_timer|Equal0~2_combout $end
$var wire 1 ;! ramzor_fsm|present_state.green_st~q $end
$var wire 1 <! ramzor_fsm|present_state.yellow_st~q $end
$var wire 1 =! ramzor_fsm|Selector0~0_combout $end
$var wire 1 >! ramzor_fsm|present_state.red_st~q $end
$var wire 1 ?! ramzor_fsm|redLight~combout $end
$var wire 1 @! onetens_sec_counter|onetensSecCount [31] $end
$var wire 1 A! onetens_sec_counter|onetensSecCount [30] $end
$var wire 1 B! onetens_sec_counter|onetensSecCount [29] $end
$var wire 1 C! onetens_sec_counter|onetensSecCount [28] $end
$var wire 1 D! onetens_sec_counter|onetensSecCount [27] $end
$var wire 1 E! onetens_sec_counter|onetensSecCount [26] $end
$var wire 1 F! onetens_sec_counter|onetensSecCount [25] $end
$var wire 1 G! onetens_sec_counter|onetensSecCount [24] $end
$var wire 1 H! onetens_sec_counter|onetensSecCount [23] $end
$var wire 1 I! onetens_sec_counter|onetensSecCount [22] $end
$var wire 1 J! onetens_sec_counter|onetensSecCount [21] $end
$var wire 1 K! onetens_sec_counter|onetensSecCount [20] $end
$var wire 1 L! onetens_sec_counter|onetensSecCount [19] $end
$var wire 1 M! onetens_sec_counter|onetensSecCount [18] $end
$var wire 1 N! onetens_sec_counter|onetensSecCount [17] $end
$var wire 1 O! onetens_sec_counter|onetensSecCount [16] $end
$var wire 1 P! onetens_sec_counter|onetensSecCount [15] $end
$var wire 1 Q! onetens_sec_counter|onetensSecCount [14] $end
$var wire 1 R! onetens_sec_counter|onetensSecCount [13] $end
$var wire 1 S! onetens_sec_counter|onetensSecCount [12] $end
$var wire 1 T! onetens_sec_counter|onetensSecCount [11] $end
$var wire 1 U! onetens_sec_counter|onetensSecCount [10] $end
$var wire 1 V! onetens_sec_counter|onetensSecCount [9] $end
$var wire 1 W! onetens_sec_counter|onetensSecCount [8] $end
$var wire 1 X! onetens_sec_counter|onetensSecCount [7] $end
$var wire 1 Y! onetens_sec_counter|onetensSecCount [6] $end
$var wire 1 Z! onetens_sec_counter|onetensSecCount [5] $end
$var wire 1 [! onetens_sec_counter|onetensSecCount [4] $end
$var wire 1 \! onetens_sec_counter|onetensSecCount [3] $end
$var wire 1 ]! onetens_sec_counter|onetensSecCount [2] $end
$var wire 1 ^! onetens_sec_counter|onetensSecCount [1] $end
$var wire 1 _! onetens_sec_counter|onetensSecCount [0] $end
$var wire 1 `! aux_timer|count [7] $end
$var wire 1 a! aux_timer|count [6] $end
$var wire 1 b! aux_timer|count [5] $end
$var wire 1 c! aux_timer|count [4] $end
$var wire 1 d! aux_timer|count [3] $end
$var wire 1 e! aux_timer|count [2] $end
$var wire 1 f! aux_timer|count [1] $end
$var wire 1 g! aux_timer|count [0] $end
$upscope $end
$upscope $end
$enddefinitions $end
#0
$dumpvars
0!
0"
1#
0$
0%
1&
0'
0(
1)
x*
1+
1,
1-
1.
0/
00
01
02
13
04
05
06
07
08
09
0:
0;
0<
0=
0>
0?
0@
0A
0B
0C
0D
0E
0F
0G
0H
0I
0J
0K
1L
0M
0N
0O
0P
0Q
0R
0S
0T
0U
0V
0W
0X
0Y
0Z
0[
0\
0]
0^
0_
0`
0a
0b
0c
0d
0e
0f
0g
0h
0i
0j
0k
0l
0m
0n
0o
0p
0q
0r
0s
0t
1u
1v
1w
1x
1y
0z
0{
0|
1}
0~
0!!
1"!
0#!
1$!
1%!
0&!
0'!
1(!
0)!
0*!
1+!
1,!
0-!
1.!
1/!
00!
11!
02!
03!
14!
05!
16!
17!
18!
09!
1:!
0;!
0<!
1=!
0>!
1?!
0_!
0^!
0]!
0\!
0[!
0Z!
0Y!
0X!
0W!
0V!
0U!
0T!
0S!
0R!
0Q!
0P!
0O!
0N!
0M!
0L!
0K!
0J!
0I!
0H!
0G!
0F!
0E!
0D!
0C!
0B!
0A!
0@!
0g!
0f!
0e!
0d!
0c!
0b!
0a!
0`!
$end
#500
1!
11
#1000
0!
01
#1500
1!
11
#2000
0!
01
#2500
1!
11
#3000
0!
01
#3500
1!
11
#4000
0!
01
#4500
1!
11
#5000
0!
01
#5500
1!
11
#6000
0!
01
#6500
1!
11
#7000
0!
01
#7500
1!
11
#8000
0!
01
#8500
1!
11
#9000
0!
01
#9500
1!
11
#10000
0!
01
#10500
1!
11
#11000
0!
01
#11500
1!
11
#12000
0!
01
#12500
1!
11
#13000
0!
01
#13500
1!
11
#14000
0!
01
#14500
1!
11
#15000
0!
01
#15500
1!
11
#16000
0!
01
#16500
1!
11
#17000
0!
01
#17500
1!
11
#18000
0!
01
#18500
1!
11
#19000
0!
01
#19500
1!
11
#20000
1"
0!
14
01
#20500
1!
11
1>!
1b!
1c!
1_!
19!
15
06!
1-!
0+!
10!
0.!
03
08!
12
1/
1.!
13!
01!
0:!
1'
16
18!
04!
#21000
0!
01
#21500
1!
11
1^!
0_!
05
0L
17
13
06
07
16
18
08
#22000
0!
01
#22500
1!
11
1_!
15
03
17
06
18
#23000
0!
01
#23500
1!
11
1]!
0^!
0_!
05
07
19
13
16
08
09
06
18
1:
0:
#24000
0!
01
#24500
1!
11
1_!
15
03
16
#25000
0!
01
#25500
1!
11
1^!
0_!
05
17
13
06
07
19
16
08
09
18
1:
0:
#26000
0!
01
#26500
1!
11
1_!
15
03
17
06
19
08
1:
#27000
0!
01
#27500
1!
11
1\!
0]!
0^!
0_!
05
07
09
1;
13
16
18
0:
0;
06
08
1:
1<
0<
#28000
0!
01
#28500
1!
11
1_!
15
03
16
#29000
0!
01
#29500
1!
11
1^!
0_!
05
17
13
06
07
16
18
08
#30000
0!
01
#30500
1!
11
1_!
15
03
17
06
18
#31000
0!
01
#31500
1!
11
1]!
0^!
0_!
05
07
19
13
16
08
09
1;
06
18
0:
0;
1:
1<
0<
#32000
0!
01
#32500
1!
11
1_!
15
03
16
#33000
0!
01
#33500
1!
11
1^!
0_!
05
17
13
06
07
19
16
08
09
1;
18
0:
0;
1:
1<
0<
#34000
0!
01
#34500
1!
11
1_!
15
03
17
06
19
08
1;
0:
1<
#35000
0!
01
#35500
1!
11
1[!
0\!
0]!
0^!
0_!
05
07
09
0;
1=
13
16
18
1:
0<
0=
06
08
0:
1<
1>
0>
#36000
0!
01
#36500
1!
11
1_!
15
03
16
#37000
0!
01
#37500
1!
11
1^!
0_!
05
17
13
06
07
16
18
08
#38000
0!
01
#38500
1!
11
1_!
15
03
17
06
18
#39000
0!
01
#39500
1!
11
1]!
0^!
0_!
05
07
19
13
16
08
09
06
18
1:
0:
#40000
0!
01
#40500
1!
11
1_!
15
03
16
#41000
0!
01
#41500
1!
11
1^!
0_!
05
17
13
06
07
19
16
08
09
18
1:
0:
#42000
0!
01
#42500
1!
11
1_!
15
03
17
06
19
08
1:
#43000
0!
01
#43500
1!
11
1\!
0]!
0^!
0_!
05
07
09
1;
13
16
18
0:
0;
1=
06
08
1:
0<
0=
1<
1>
0>
#44000
0!
01
#44500
1!
11
1_!
15
03
16
#45000
0!
01
#45500
1!
11
1^!
0_!
05
17
13
06
07
16
18
08
#46000
0!
01
#46500
1!
11
1_!
15
03
17
06
18
#47000
0!
01
#47500
1!
11
1]!
0^!
0_!
05
07
19
13
16
08
09
1;
06
18
0:
0;
1=
1:
0<
0=
1<
1>
0>
#48000
0!
01
#48500
1!
11
1_!
15
03
16
#49000
0!
01
#49500
1!
11
1^!
0_!
05
17
13
06
07
19
16
08
09
1;
18
0:
0;
1=
1:
0<
0=
1<
1>
0>
#50000
0!
01
#50500
1!
11
1_!
15
03
17
06
19
08
1;
0:
1=
0<
1>
#51000
0!
01
#51500
1!
11
1Z!
0[!
0\!
0]!
0^!
0_!
05
1L
07
09
0;
0=
0v
1?
13
16
18
1:
1<
0>
0?
0y
06
08
0:
0<
1>
1@
0@
1z
#52000
0!
01
#52500
1!
11
1{
0Z!
1v
0>
0,!
1)!
1&!
1#!
1~
1y
0z
#53000
0!
01
#53500
1!
11
0c!
1d!
1g!
1e!
1f!
0{
1_!
15
0$!
1!!
0}
1'!
0"!
1|
0%!
1*!
0(!
0-!
1+!
03
1"!
1(!
1}
1-!
0+!
0.!
16
1.!
#54000
0!
01
#54500
1!
11
1^!
0_!
05
0L
17
13
06
07
16
18
08
#55000
0!
01
#55500
1!
11
1_!
15
03
17
06
18
#56000
0!
01
#56500
1!
11
1]!
0^!
0_!
05
07
19
13
16
08
09
06
18
1:
0:
#57000
0!
01
#57500
1!
11
1_!
15
03
16
#58000
0!
01
#58500
1!
11
1^!
0_!
05
17
13
06
07
19
16
08
09
18
1:
0:
#59000
0!
01
#59500
1!
11
1_!
15
03
17
06
19
08
1:
#60000
0!
01
#60500
1!
11
1\!
0]!
0^!
0_!
05
07
09
1;
13
16
18
0:
0;
06
08
1:
1<
0<
#61000
0!
01
#61500
1!
11
1_!
15
03
16
#62000
0!
01
#62500
1!
11
1^!
0_!
05
17
13
06
07
16
18
08
#63000
0!
01
#63500
1!
11
1_!
15
03
17
06
18
#64000
0!
01
#64500
1!
11
1]!
0^!
0_!
05
07
19
13
16
08
09
1;
06
18
0:
0;
1:
1<
0<
#65000
0!
01
#65500
1!
11
1_!
15
03
16
#66000
0!
01
#66500
1!
11
1^!
0_!
05
17
13
06
07
19
16
08
09
1;
18
0:
0;
1:
1<
0<
#67000
0!
01
#67500
1!
11
1_!
15
03
17
06
19
08
1;
0:
1<
#68000
0!
01
#68500
1!
11
1[!
0\!
0]!
0^!
0_!
05
07
09
0;
1=
13
16
18
1:
0<
0=
06
08
0:
1<
1>
0>
#69000
0!
01
#69500
1!
11
1_!
15
03
16
#70000
0!
01
#70500
1!
11
1^!
0_!
05
17
13
06
07
16
18
08
#71000
0!
01
#71500
1!
11
1_!
15
03
17
06
18
#72000
0!
01
#72500
1!
11
1]!
0^!
0_!
05
07
19
13
16
08
09
06
18
1:
0:
#73000
0!
01
#73500
1!
11
1_!
15
03
16
#74000
0!
01
#74500
1!
11
1^!
0_!
05
17
13
06
07
19
16
08
09
18
1:
0:
#75000
0!
01
#75500
1!
11
1_!
15
03
17
06
19
08
1:
#76000
0!
01
#76500
1!
11
1\!
0]!
0^!
0_!
05
07
09
1;
13
16
18
0:
0;
1=
06
08
1:
0<
0=
1<
1>
0>
#77000
0!
01
#77500
1!
11
1_!
15
03
16
#78000
0!
01
#78500
1!
11
1^!
0_!
05
17
13
06
07
16
18
08
#79000
0!
01
#79500
1!
11
1_!
15
03
17
06
18
#80000
0!
01
#80500
1!
11
1]!
0^!
0_!
05
07
19
13
16
08
09
1;
06
18
0:
0;
1=
1:
0<
0=
1<
1>
0>
#81000
0!
01
#81500
1!
11
1_!
15
03
16
#82000
0!
01
#82500
1!
11
1^!
0_!
05
17
13
06
07
19
16
08
09
1;
18
0:
0;
1=
1:
0<
0=
1<
1>
0>
#83000
0!
01
#83500
1!
11
1_!
15
03
17
06
19
08
1;
0:
1=
0<
1>
#84000
0!
01
#84500
1!
11
1Z!
0[!
0\!
0]!
0^!
0_!
05
1L
07
09
0;
0=
0v
1?
13
16
18
1:
1<
0>
0?
0y
06
08
0:
0<
1>
1@
0@
1z
#85000
0!
01
#85500
1!
11
1{
0Z!
1v
0>
0&!
1y
0z
#86000
0!
01
#86500
1!
11
0g!
0{
1_!
15
0|
1%!
03
0}
16
#87000
0!
01
#87500
1!
11
1^!
0_!
05
0L
17
13
06
07
16
18
08
#88000
0!
01
#88500
1!
11
1_!
15
03
17
06
18
#89000
0!
01
#89500
1!
11
1]!
0^!
0_!
05
07
19
13
16
08
09
06
18
1:
0:
#90000
0!
01
#90500
1!
11
1_!
15
03
16
#91000
0!
01
#91500
1!
11
1^!
0_!
05
17
13
06
07
19
16
08
09
18
1:
0:
#92000
0!
01
#92500
1!
11
1_!
15
03
17
06
19
08
1:
#93000
0!
01
#93500
1!
11
1\!
0]!
0^!
0_!
05
07
09
1;
13
16
18
0:
0;
06
08
1:
1<
0<
#94000
0!
01
#94500
1!
11
1_!
15
03
16
#95000
0!
01
#95500
1!
11
1^!
0_!
05
17
13
06
07
16
18
08
#96000
0!
01
#96500
1!
11
1_!
15
03
17
06
18
#97000
0!
01
#97500
1!
11
1]!
0^!
0_!
05
07
19
13
16
08
09
1;
06
18
0:
0;
1:
1<
0<
#98000
0!
01
#98500
1!
11
1_!
15
03
16
#99000
0!
01
#99500
1!
11
1^!
0_!
05
17
13
06
07
19
16
08
09
1;
18
0:
0;
1:
1<
0<
#100000
0!
01
#100500
1!
11
1_!
15
03
17
06
19
08
1;
0:
1<
#101000
0!
01
#101500
1!
11
1[!
0\!
0]!
0^!
0_!
05
07
09
0;
1=
13
16
18
1:
0<
0=
06
08
0:
1<
1>
0>
#102000
0!
01
#102500
1!
11
1_!
15
03
16
#103000
0!
01
#103500
1!
11
1^!
0_!
05
17
13
06
07
16
18
08
#104000
0!
01
#104500
1!
11
1_!
15
03
17
06
18
#105000
0!
01
#105500
1!
11
1]!
0^!
0_!
05
07
19
13
16
08
09
06
18
1:
0:
#106000
0!
01
#106500
1!
11
1_!
15
03
16
#107000
0!
01
#107500
1!
11
1^!
0_!
05
17
13
06
07
19
16
08
09
18
1:
0:
#108000
0!
01
#108500
1!
11
1_!
15
03
17
06
19
08
1:
#109000
0!
01
#109500
1!
11
1\!
0]!
0^!
0_!
05
07
09
1;
13
16
18
0:
0;
1=
06
08
1:
0<
0=
1<
1>
0>
#110000
0!
01
#110500
1!
11
1_!
15
03
16
#111000
0!
01
#111500
1!
11
1^!
0_!
05
17
13
06
07
16
18
08
#112000
0!
01
#112500
1!
11
1_!
15
03
17
06
18
#113000
0!
01
#113500
1!
11
1]!
0^!
0_!
05
07
19
13
16
08
09
1;
06
18
0:
0;
1=
1:
0<
0=
1<
1>
0>
#114000
0!
01
#114500
1!
11
1_!
15
03
16
#115000
0!
01
#115500
1!
11
1^!
0_!
05
17
13
06
07
19
16
08
09
1;
18
0:
0;
1=
1:
0<
0=
1<
1>
0>
#116000
0!
01
#116500
1!
11
1_!
15
03
17
06
19
08
1;
0:
1=
0<
1>
#117000
0!
01
#117500
1!
11
1Z!
0[!
0\!
0]!
0^!
0_!
05
1L
07
09
0;
0=
0v
1?
13
16
18
1:
1<
0>
0?
0y
06
08
0:
0<
1>
1@
0@
1z
#118000
0!
01
#118500
1!
11
1{
0Z!
1v
0>
1&!
0~
1y
0z
#119000
0!
01
#119500
1!
11
1g!
0f!
0{
1_!
15
0!!
1}
1|
0%!
03
0"!
1!!
0}
16
1"!
#120000
0!
01
#120500
1!
11
1^!
0_!
05
0L
17
13
06
07
16
18
08
#121000
0!
01
#121500
1!
11
1_!
15
03
17
06
18
#122000
0!
01
#122500
1!
11
1]!
0^!
0_!
05
07
19
13
16
08
09
06
18
1:
0:
#123000
0!
01
#123500
1!
11
1_!
15
03
16
#124000
0!
01
#124500
1!
11
1^!
0_!
05
17
13
06
07
19
16
08
09
18
1:
0:
#125000
0!
01
#125500
1!
11
1_!
15
03
17
06
19
08
1:
#126000
0!
01
#126500
1!
11
1\!
0]!
0^!
0_!
05
07
09
1;
13
16
18
0:
0;
06
08
1:
1<
0<
#127000
0!
01
#127500
1!
11
1_!
15
03
16
#128000
0!
01
#128500
1!
11
1^!
0_!
05
17
13
06
07
16
18
08
#129000
0!
01
#129500
1!
11
1_!
15
03
17
06
18
#130000
0!
01
#130500
1!
11
1]!
0^!
0_!
05
07
19
13
16
08
09
1;
06
18
0:
0;
1:
1<
0<
#131000
0!
01
#131500
1!
11
1_!
15
03
16
#132000
0!
01
#132500
1!
11
1^!
0_!
05
17
13
06
07
19
16
08
09
1;
18
0:
0;
1:
1<
0<
#133000
0!
01
#133500
1!
11
1_!
15
03
17
06
19
08
1;
0:
1<
#134000
0!
01
#134500
1!
11
1[!
0\!
0]!
0^!
0_!
05
07
09
0;
1=
13
16
18
1:
0<
0=
06
08
0:
1<
1>
0>
#135000
0!
01
#135500
1!
11
1_!
15
03
16
#136000
0!
01
#136500
1!
11
1^!
0_!
05
17
13
06
07
16
18
08
#137000
0!
01
#137500
1!
11
1_!
15
03
17
06
18
#138000
0!
01
#138500
1!
11
1]!
0^!
0_!
05
07
19
13
16
08
09
06
18
1:
0:
#139000
0!
01
#139500
1!
11
1_!
15
03
16
#140000
0!
01
#140500
1!
11
1^!
0_!
05
17
13
06
07
19
16
08
09
18
1:
0:
#141000
0!
01
#141500
1!
11
1_!
15
03
17
06
19
08
1:
#142000
0!
01
#142500
1!
11
1\!
0]!
0^!
0_!
05
07
09
1;
13
16
18
0:
0;
1=
06
08
1:
0<
0=
1<
1>
0>
#143000
0!
01
#143500
1!
11
1_!
15
03
16
#144000
0!
01
#144500
1!
11
1^!
0_!
05
17
13
06
07
16
18
08
#145000
0!
01
#145500
1!
11
1_!
15
03
17
06
18
#146000
0!
01
#146500
1!
11
1]!
0^!
0_!
05
07
19
13
16
08
09
1;
06
18
0:
0;
1=
1:
0<
0=
1<
1>
0>
#147000
0!
01
#147500
1!
11
1_!
15
03
16
#148000
0!
01
#148500
1!
11
1^!
0_!
05
17
13
06
07
19
16
08
09
1;
18
0:
0;
1=
1:
0<
0=
1<
1>
0>
#149000
0!
01
#149500
1!
11
1_!
15
03
17
06
19
08
1;
0:
1=
0<
1>
#150000
1$
0!
1K
01
1z
#150500
1!
11
1{
0[!
0\!
0]!
0^!
0_!
05
1L
07
09
0;
0=
13
16
18
1:
1<
0&!
06
08
0:
0<
0>
0z
#151000
0!
01
#151500
1!
11
0g!
0{
1_!
15
0|
1%!
03
0!!
1}
16
0"!
#152000
0!
01
#152500
1!
11
1^!
0_!
05
0L
17
13
06
07
16
18
1z
08
#153000
0!
01
#153500
1!
11
1{
0^!
1L
06
1&!
0#!
1~
0z
#154000
0!
01
#154500
1!
11
1g!
0e!
1f!
0{
1_!
15
1!!
0}
0'!
1"!
1|
0%!
03
1'!
0"!
0(!
1}
16
1(!
#155000
0!
01
#155500
1!
11
1^!
0_!
05
0L
17
13
06
07
16
18
1z
08
#156000
0!
01
#156500
1!
11
1{
0^!
1L
06
0&!
0z
#157000
0!
01
#157500
1!
11
0g!
0{
1_!
15
0|
1%!
03
0}
16
#158000
0!
01
#158500
1!
11
1^!
0_!
05
0L
17
13
06
07
16
18
1z
08
#159000
0!
01
#159500
1!
11
1{
0^!
1L
06
1&!
0~
0z
#160000
0!
01
#160500
1!
11
1g!
0f!
0{
1_!
15
1$!
0!!
1}
1|
0%!
03
0'!
1"!
1!!
0}
16
0(!
1'!
0"!
1(!
#161000
0!
01
#161500
1!
11
1^!
0_!
05
0L
17
13
06
07
16
18
1z
08
#162000
0!
01
#162500
1!
11
1{
0^!
1L
06
0&!
0z
#163000
0!
01
#163500
1!
11
0g!
0{
1_!
15
0|
1%!
03
0!!
1}
16
0'!
1"!
0(!
#164000
0!
01
#164500
1!
11
1^!
0_!
05
0L
17
13
06
07
16
18
1z
08
#165000
0!
01
#165500
1!
11
1{
0^!
1L
06
0)!
1&!
1#!
1~
0z
#166000
0!
01
#166500
1!
11
0d!
1g!
1e!
1f!
0{
1_!
15
0$!
1!!
0}
1'!
0"!
1|
0%!
0*!
1(!
03
1"!
1*!
0(!
1}
0-!
1+!
16
1-!
0+!
0.!
1.!
#167000
0!
01
#167500
1!
11
1^!
0_!
05
0L
17
13
06
07
16
18
1z
08
#168000
0!
01
#168500
1!
11
1{
0^!
1L
06
0&!
0z
#169000
0!
01
#169500
1!
11
0g!
0{
1_!
15
0|
1%!
03
0}
16
#170000
0!
01
#170500
1!
11
1^!
0_!
05
0L
17
13
06
07
16
18
1z
08
#171000
0!
01
#171500
1!
11
1{
0^!
1L
06
1&!
0~
0z
#172000
0!
01
#172500
1!
11
1g!
0f!
0{
1_!
15
0!!
1}
1|
0%!
03
0"!
1!!
0}
16
1"!
#173000
0!
01
#173500
1!
11
1^!
0_!
05
0L
17
13
06
07
16
18
1z
08
#174000
0!
01
#174500
1!
11
1{
0^!
1L
06
0&!
0z
#175000
0!
01
#175500
1!
11
0g!
0{
1_!
15
0|
1%!
03
0!!
1}
16
0"!
#176000
0!
01
#176500
1!
11
1^!
0_!
05
0L
17
13
06
07
16
18
1z
08
#177000
0!
01
#177500
1!
11
1{
0^!
1L
06
1&!
0#!
1~
0z
#178000
0!
01
#178500
1!
11
1g!
0e!
1f!
0{
1_!
15
1!!
0}
0'!
1"!
1|
0%!
03
1'!
0"!
0*!
1(!
1}
16
1*!
0(!
0-!
1+!
1-!
0+!
0.!
1.!
#179000
0!
01
#179500
1!
11
1^!
0_!
05
0L
17
13
06
07
16
18
1z
08
#180000
0!
01
#180500
1!
11
1{
0^!
1L
06
0&!
0z
#181000
0!
01
#181500
1!
11
0g!
0{
1_!
15
0|
1%!
03
0}
16
#182000
0!
01
#182500
1!
11
1^!
0_!
05
0L
17
13
06
07
16
18
1z
08
#183000
0!
01
#183500
1!
11
1{
0^!
1L
06
1&!
0~
0z
#184000
0!
01
#184500
1!
11
1g!
0f!
0{
1_!
15
1$!
0!!
1}
1|
0%!
03
0'!
1"!
1!!
0}
16
0*!
1(!
1'!
0"!
0-!
1+!
1*!
0(!
0.!
1-!
0+!
1.!
#185000
0!
01
#185500
1!
11
1^!
0_!
05
0L
17
13
06
07
16
18
1z
08
#186000
0!
01
#186500
1!
11
1{
0^!
1L
06
0&!
0z
#187000
0!
01
#187500
1!
11
0g!
0{
1_!
15
0|
1%!
03
0!!
1}
16
0'!
1"!
0*!
1(!
0-!
1+!
0.!
#188000
0!
01
#188500
1!
11
1^!
0_!
05
0L
17
13
06
07
16
18
1z
08
#189000
0!
01
#189500
1!
11
1{
0^!
1L
06
0/!
1,!
1)!
1&!
1#!
1~
0z
#190000
0!
01
#190500
1!
11
0b!
1c!
1d!
1g!
1e!
1f!
0{
1_!
15
0$!
1!!
0}
1'!
0"!
1|
0%!
1*!
0(!
1-!
0+!
00!
1.!
03
1"!
1(!
1}
1+!
10!
0.!
03!
11!
16
13!
01!
14!
04!
#191000
0!
01
#191500
1!
11
1^!
0_!
05
0L
17
13
06
07
16
18
1z
08
#192000
0!
01
#192500
1!
11
1{
0^!
1L
06
0&!
0z
#193000
0!
01
#193500
1!
11
0g!
0{
1_!
15
0|
1%!
03
0}
16
#194000
0!
01
#194500
1!
11
1^!
0_!
05
0L
17
13
06
07
16
18
1z
08
#195000
0!
01
#195500
1!
11
1{
0^!
1L
06
1&!
0~
0z
#196000
0!
01
#196500
1!
11
1g!
0f!
0{
1_!
15
0!!
1}
1|
0%!
03
0"!
1!!
0}
16
1"!
#197000
0!
01
#197500
1!
11
1^!
0_!
05
0L
17
13
06
07
16
18
1z
08
#198000
0!
01
#198500
1!
11
1{
0^!
1L
06
0&!
0z
#199000
0!
01
#199500
1!
11
0g!
0{
1_!
15
0|
1%!
03
0!!
1}
16
0"!
#200000
0!
01
#200500
1!
11
1^!
0_!
05
0L
17
13
06
07
16
18
1z
08
#201000
0!
01
#201500
1!
11
1{
0^!
1L
06
1&!
0#!
1~
0z
#202000
0!
01
#202500
1!
11
1g!
0e!
1f!
0{
1_!
15
1!!
0}
0'!
1"!
1|
0%!
03
1'!
0"!
0(!
1}
16
1(!
#203000
0!
01
#203500
1!
11
1^!
0_!
05
0L
17
13
06
07
16
18
1z
08
