3/SV2LabStudent_Schematics/simulation/qsim/SV2Lab.msim.vcd
$comment
	File created using the following command:
		vcd file SV2Lab.msim.vcd -direction
$end
$date
	Tue Aug 18 10:09:04 2020
$end
$version
	ModelSim Version 10.5b
$end
$timescale
	1ps
$end

$scope module topBomb_vlg_vec_tst $end
$var reg 1 ! CLOCK_50 $end
$var reg 1 " resetN $end
$var reg 1 # startN $end
$var reg 1 $ turbo $end
$var reg 1 % waitN $end
$var wire 1 & countEnable $end
$var wire 1 ' countLoadN $end
$var wire 1 ( duty50 $end
$var wire 1 ) HEX0 [6] $end
$var wire 1 * HEX0 [5] $end
$var wire 1 + HEX0 [4] $end
$var wire 1 , HEX0 [3] $end
$var wire 1 - HEX0 [2] $end
$var wire 1 . HEX0 [1] $end
$var wire 1 / HEX0 [0] $end
$var wire 1 0 HEX1 [6] $end
$var wire 1 1 HEX1 [5] $end
$var wire 1 2 HEX1 [4] $end
$var wire 1 3 HEX1 [3] $end
$var wire 1 4 HEX1 [2] $end
$var wire 1 5 HEX1 [1] $end
$var wire 1 6 HEX1 [0] $end
$var wire 1 7 lampDarkN $end
$var wire 1 8 ones [3] $end
$var wire 1 9 ones [2] $end
$var wire 1 : ones [1] $end
$var wire 1 ; ones [0] $end
$var wire 1 < tc $end
$var wire 1 = tens [3] $end
$var wire 1 > tens [2] $end
$var wire 1 ? tens [1] $end
$var wire 1 @ tens [0] $end

$scope module i1 $end
$var wire 1 A gnd $end
$var wire 1 B vcc $end
$var wire 1 C unknown $end
$var tri1 1 D devclrn $end
$var tri1 1 E devpor $end
$var tri1 1 F devoe $end
$var wire 1 G duty50~output_o $end
$var wire 1 H tc~output_o $end
$var wire 1 I countEnable~output_o $end
$var wire 1 J countLoadN~output_o $end
$var wire 1 K lampDarkN~output_o $end
$var wire 1 L HEX0[6]~output_o $end
$var wire 1 M HEX0[5]~output_o $end
$var wire 1 N HEX0[4]~output_o $end
$var wire 1 O HEX0[3]~output_o $end
$var wire 1 P HEX0[2]~output_o $end
$var wire 1 Q HEX0[1]~output_o $end
$var wire 1 R HEX0[0]~output_o $end
$var wire 1 S HEX1[6]~output_o $end
$var wire 1 T HEX1[5]~output_o $end
$var wire 1 U HEX1[4]~output_o $end
$var wire 1 V HEX1[3]~output_o $end
$var wire 1 W HEX1[2]~output_o $end
$var wire 1 X HEX1[1]~output_o $end
$var wire 1 Y HEX1[0]~output_o $end
$var wire 1 Z ones[3]~output_o $end
$var wire 1 [ ones[2]~output_o $end
$var wire 1 \ ones[1]~output_o $end
$var wire 1 ] ones[0]~output_o $end
$var wire 1 ^ tens[3]~output_o $end
$var wire 1 _ tens[2]~output_o $end
$var wire 1 ` tens[1]~output_o $end
$var wire 1 a tens[0]~output_o $end
$var wire 1 b CLOCK_50~input_o $end
$var wire 1 c turbo~input_o $end
$var wire 1 d inst5|Add0~125_sumout $end
$var wire 1 e resetN~input_o $end
$var wire 1 f inst5|Add0~2 $end
$var wire 1 g inst5|Add0~49_sumout $end
$var wire 1 h inst5|Add0~50 $end
$var wire 1 i inst5|Add0~45_sumout $end
$var wire 1 j inst5|Add0~46 $end
$var wire 1 k inst5|Add0~21_sumout $end
$var wire 1 l inst5|Add0~22 $end
$var wire 1 m inst5|Add0~41_sumout $end
$var wire 1 n inst5|Add0~42 $end
$var wire 1 o inst5|Add0~37_sumout $end
$var wire 1 p inst5|Add0~38 $end
$var wire 1 q inst5|Add0~81_sumout $end
$var wire 1 r inst5|Add0~82 $end
$var wire 1 s inst5|Add0~77_sumout $end
$var wire 1 t inst5|Add0~78 $end
$var wire 1 u inst5|Add0~73_sumout $end
$var wire 1 v inst5|Add0~74 $end
$var wire 1 w inst5|Add0~69_sumout $end
$var wire 1 x inst5|Add0~70 $end
$var wire 1 y inst5|Add0~65_sumout $end
$var wire 1 z inst5|Add0~66 $end
$var wire 1 { inst5|Add0~61_sumout $end
$var wire 1 | inst5|Add0~62 $end
$var wire 1 } inst5|Add0~33_sumout $end
$var wire 1 ~ inst5|Add0~34 $end
$var wire 1 !! inst5|Add0~121_sumout $end
$var wire 1 "! inst5|Add0~122 $end
$var wire 1 #! inst5|Add0~117_sumout $end
$var wire 1 $! inst5|Add0~118 $end
$var wire 1 %! inst5|Add0~113_sumout $end
$var wire 1 &! inst5|Add0~114 $end
$var wire 1 '! inst5|Add0~105_sumout $end
$var wire 1 (! inst5|Add0~106 $end
$var wire 1 )! inst5|Add0~29_sumout $end
$var wire 1 *! inst5|Add0~30 $end
$var wire 1 +! inst5|Add0~109_sumout $end
$var wire 1 ,! inst5|Add0~110 $end
$var wire 1 -! inst5|Add0~101_sumout $end
$var wire 1 .! inst5|Add0~102 $end
$var wire 1 /! inst5|Add0~97_sumout $end
$var wire 1 0! inst5|Add0~98 $end
$var wire 1 1! inst5|Add0~93_sumout $end
$var wire 1 2! inst5|Add0~94 $end
$var wire 1 3! inst5|Add0~89_sumout $end
$var wire 1 4! inst5|Add0~90 $end
$var wire 1 5! inst5|Add0~85_sumout $end
$var wire 1 6! inst5|Add0~86 $end
$var wire 1 7! inst5|Add0~25_sumout $end
$var wire 1 8! inst5|Add0~26 $end
$var wire 1 9! inst5|Add0~53_sumout $end
$var wire 1 :! inst5|Add0~54 $end
$var wire 1 ;! inst5|Add0~57_sumout $end
$var wire 1 <! inst5|Add0~58 $end
$var wire 1 =! inst5|Add0~17_sumout $end
$var wire 1 >! inst5|LessThan0~1_combout $end
$var wire 1 ?! inst5|LessThan0~2_combout $end
$var wire 1 @! inst5|LessThan0~3_combout $end
$var wire 1 A! inst5|LessThan0~4_combout $end
$var wire 1 B! inst5|LessThan0~5_combout $end
$var wire 1 C! inst5|LessThan0~6_combout $end
$var wire 1 D! inst5|LessThan0~7_combout $end
$var wire 1 E! inst5|Add0~126 $end
$var wire 1 F! inst5|Add0~13_sumout $end
$var wire 1 G! inst5|Add0~14 $end
$var wire 1 H! inst5|Add0~9_sumout $end
$var wire 1 I! inst5|Add0~10 $end
$var wire 1 J! inst5|Add0~5_sumout $end
$var wire 1 K! inst5|Add0~6 $end
$var wire 1 L! inst5|Add0~1_sumout $end
$var wire 1 M! inst5|LessThan0~0_combout $end
$var wire 1 N! inst5|duty50~0_combout $end
$var wire 1 O! inst5|duty50~q $end
$var wire 1 P! inst6|ones_counter|count~4_combout $end
$var wire 1 Q! inst5|one_sec~q $end
$var wire 1 R! waitN~input_o $end
$var wire 1 S! startN~input_o $end
$var wire 1 T! inst|Selector4~0_combout $end
$var wire 1 U! inst|prState.Sidle~q $end
$var wire 1 V! inst|Selector0~1_combout $end
$var wire 1 W! inst|Selector0~2_combout $end
$var wire 1 X! inst|prState.SlampOn~q $end
$var wire 1 Y! inst|Selector5~0_combout $end
$var wire 1 Z! inst|prState.SlampOff~q $end
$var wire 1 [! inst|Selector1~0_combout $end
$var wire 1 \! inst|Selector3~0_combout $end
$var wire 1 ]! inst|prState.Spause~q $end
$var wire 1 ^! inst|Selector0~3_combout $end
$var wire 1 _! inst|Selector2~0_combout $end
$var wire 1 `! inst|Selector2~1_combout $end
$var wire 1 a! inst|prState.Srun~q $end
$var wire 1 b! inst6|ones_counter|count[0]~2_combout $end
$var wire 1 c! inst6|tc~0_combout $end
$var wire 1 d! inst|Selector1~1_combout $end
$var wire 1 e! inst|Selector1~2_combout $end
$var wire 1 f! inst|prState.Sarm~q $end
$var wire 1 g! inst6|ones_counter|count~3_combout $end
$var wire 1 h! inst6|ones_counter|count~1_combout $end
$var wire 1 i! inst6|ones_counter|Equal0~1_combout $end
$var wire 1 j! inst6|ones_counter|count~0_combout $end
$var wire 1 k! inst6|ones_counter|Equal0~0_combout $end
$var wire 1 l! inst6|tens_counter|count~3_combout $end
$var wire 1 m! inst6|tens_counter|count~4_combout $end
$var wire 1 n! inst6|tens_counter|count[3]~1_combout $end
$var wire 1 o! inst6|tens_counter|count~2_combout $end
$var wire 1 p! inst6|tens_counter|count~0_combout $end
$var wire 1 q! inst6|tens_counter|Equal0~0_combout $end
$var wire 1 r! inst6|tc~combout $end
$var wire 1 s! inst|lampEnable~0_combout $end
$var wire 1 t! inst3|ss[6]~6_combout $end
$var wire 1 u! inst3|ss[5]~5_combout $end
$var wire 1 v! inst3|ss[4]~4_combout $end
$var wire 1 w! inst3|ss[3]~3_combout $end
$var wire 1 x! inst3|ss[2]~2_combout $end
$var wire 1 y! inst3|ss[1]~1_combout $end
$var wire 1 z! inst3|ss[0]~0_combout $end
$var wire 1 {! inst4|ss[6]~6_combout $end
$var wire 1 |! inst4|ss[5]~5_combout $end
$var wire 1 }! inst4|ss[4]~4_combout $end
$var wire 1 ~! inst4|ss[3]~3_combout $end
$var wire 1 !" inst4|ss[2]~2_combout $end
$var wire 1 "" inst4|ss[1]~1_combout $end
$var wire 1 #" inst4|ss[0]~0_combout $end
$var wire 1 $" inst5|oneSecCount [31] $end
$var wire 1 %" inst5|oneSecCount [30] $end
$var wire 1 &" inst5|oneSecCount [29] $end
$var wire 1 '" inst5|oneSecCount [28] $end
$var wire 1 (" inst5|oneSecCount [27] $end
$var wire 1 )" inst5|oneSecCount [26] $end
$var wire 1 *" inst5|oneSecCount [25] $end
$var wire 1 +" inst5|oneSecCount [24] $end
$var wire 1 ," inst5|oneSecCount [23] $end
$var wire 1 -" inst5|oneSecCount [22] $end
$var wire 1 ." inst5|oneSecCount [21] $end
$var wire 1 /" inst5|oneSecCount [20] $end
$var wire 1 0" inst5|oneSecCount [19] $end
$var wire 1 1" inst5|oneSecCount [18] $end
$var wire 1 2" inst5|oneSecCount [17] $end
$var wire 1 3" inst5|oneSecCount [16] $end
$var wire 1 4" inst5|oneSecCount [15] $end
$var wire 1 5" inst5|oneSecCount [14] $end
$var wire 1 6" inst5|oneSecCount [13] $end
$var wire 1 7" inst5|oneSecCount [12] $end
$var wire 1 8" inst5|oneSecCount [11] $end
$var wire 1 9" inst5|oneSecCount [10] $end
$var wire 1 :" inst5|oneSecCount [9] $end
$var wire 1 ;" inst5|oneSecCount [8] $end
$var wire 1 <" inst5|oneSecCount [7] $end
$var wire 1 =" inst5|oneSecCount [6] $end
$var wire 1 >" inst5|oneSecCount [5] $end
$var wire 1 ?" inst5|oneSecCount [4] $end
$var wire 1 @" inst5|oneSecCount [3] $end
$var wire 1 A" inst5|oneSecCount [2] $end
$var wire 1 B" inst5|oneSecCount [1] $end
$var wire 1 C" inst5|oneSecCount [0] $end
$var wire 1 D" inst6|tens_counter|count [3] $end
$var wire 1 E" inst6|tens_counter|count [2] $end
$var wire 1 F" inst6|tens_counter|count [1] $end
$var wire 1 G" inst6|tens_counter|count [0] $end
$var wire 1 H" inst6|ones_counter|count [3] $end
$var wire 1 I" inst6|ones_counter|count [2] $end
$var wire 1 J" inst6|ones_counter|count [1] $end
$var wire 1 K" inst6|ones_counter|count [0] $end
$upscope $end
$upscope $end
$enddefinitions $end
#0
$dumpvars
0!
0"
1#
0$
1%
0&
0'
0(
1/
1.
1-
1,
1+
1*
1)
16
15
14
13
12
11
10
07
0;
0:
09
08
0<
0@
0?
0>
0=
0A
1B
xC
1D
1E
1F
0G
0H
0I
0J
0K
1L
1M
1N
1O
1P
1Q
1R
1S
1T
1U
1V
1W
1X
1Y
0Z
0[
0\
0]
0^
0_
0`
0a
0b
0c
1d
0e
0f
0g
0h
0i
0j
0k
0l
0m
0n
0o
0p
0q
0r
0s
0t
0u
0v
0w
0x
0y
0z
0{
0|
0}
0~
0!!
0"!
0#!
0$!
0%!
0&!
0'!
0(!
0)!
0*!
0+!
0,!
0-!
0.!
0/!
00!
01!
02!
03!
04!
05!
06!
07!
08!
09!
0:!
0;!
0<!
0=!
1>!
1?!
1@!
1A!
1B!
1C!
0D!
0E!
0F!
0G!
0H!
0I!
0J!
0K!
0L!
1M!
0N!
0O!
0P!
0Q!
1R!
1S!
0T!
0U!
1V!
0W!
0X!
0Y!
0Z!
1[!
0\!
0]!
0^!
1_!
0`!
0a!
0b!
0c!
0d!
0e!
0f!
1g!
0h!
1i!
0j!
1k!
0l!
0m!
0n!
0o!
1p!
1q!
1r!
1s!
0t!
1u!
1v!
1w!
1x!
1y!
1z!
0{!
1|!
1}!
1~!
1!"
1""
1#"
0C"
0B"
0A"
0@"
0?"
0>"
0="
0<"
0;"
0:"
09"
08"
07"
06"
05"
04"
03"
02"
01"
00"
0/"
0."
0-"
0,"
0+"
0*"
0)"
0("
0'"
0&"
0%"
0$"
0G"
0F"
0E"
0D"
0K"
0J"
0I"
0H"
$end
#500
1!
1b
#1000
0!
0b
#1500
1!
1b
#2000
0!
0b
#2500
1!
1b
#3000
0!
0b
#3500
1!
1b
#4000
0!
0b
#4500
1!
1b
#5000
0!
0b
#5500
1!
1b
#6000
0!
0b
#6500
1!
1b
#7000
0!
0b
#7500
1!
1b
#8000
0!
0b
#8500
1!
1b
#9000
0!
0b
#9500
1!
1b
#10000
1"
0!
1e
0b
0r!
1c!
1H
1<
#10500
1!
1b
1C"
1E!
0d
1F!
#11000
0!
0b
#11500
1!
1b
1B"
0C"
0E!
0M!
1G!
1d
0F!
0G!
1F!
1H!
0H!
#12000
0!
0b
#12500
1!
1b
1C"
1E!
0d
1G!
0F!
1H!
#13000
0!
0b
#13500
1!
1b
1A"
0B"
0C"
0E!
0G!
1I!
1d
1F!
0H!
0I!
0F!
1H!
1J!
0J!
#14000
0!
0b
#14500
1!
1b
1C"
1E!
0d
1F!
#15000
0!
0b
#15500
1!
1b
1B"
0C"
0E!
1G!
1d
0F!
0G!
1I!
1F!
0H!
0I!
1H!
1J!
0J!
#16000
0!
0b
#16500
1!
1b
1C"
1E!
0d
1G!
0F!
1I!
0H!
1J!
#17000
0!
0b
#17500
1!
1b
1@"
0A"
0B"
0C"
0E!
0G!
0I!
1K!
1d
1F!
1H!
0J!
0K!
0F!
0H!
1J!
1L!
0L!
#18000
0!
0b
#18500
1!
1b
1C"
1E!
0d
1F!
#19000
0!
0b
#19500
1!
1b
1B"
0C"
0E!
1G!
1d
0F!
0G!
1F!
1H!
0H!
#20000
0!
0b
#20500
1!
1b
1C"
1E!
0d
1G!
0F!
1H!
#21000
0!
0b
#21500
1!
1b
1A"
0B"
0C"
0E!
0G!
1I!
1d
1F!
0H!
0I!
1K!
0F!
1H!
0J!
0K!
1J!
1L!
0L!
#22000
0!
0b
#22500
1!
1b
1C"
1E!
0d
1F!
#23000
0!
0b
#23500
1!
1b
1B"
0C"
0E!
1G!
1d
0F!
0G!
1I!
1F!
0H!
0I!
1K!
1H!
0J!
0K!
1J!
1L!
0L!
#24000
0!
0b
#24500
1!
1b
1C"
1E!
0d
1G!
0F!
1I!
0H!
1K!
0J!
1L!
#25000
0!
0b
#25500
1!
1b
1?"
0@"
0A"
0B"
0C"
0E!
0G!
0I!
0K!
1f
1d
1F!
1H!
1J!
0L!
0f
0F!
0H!
0J!
1L!
1g
0g
#26000
0!
0b
#26500
1!
1b
1C"
1E!
0d
1F!
#27000
0!
0b
#27500
1!
1b
1B"
0C"
0E!
1G!
1d
0F!
0G!
1F!
1H!
0H!
#28000
0!
0b
#28500
1!
1b
1C"
1E!
0d
1G!
0F!
1H!
#29000
0!
0b
#29500
1!
1b
1A"
0B"
0C"
0E!
0G!
1I!
1d
1F!
0H!
0I!
0F!
1H!
1J!
0J!
#30000
0!
0b
#30500
1!
1b
1C"
1E!
0d
1F!
#31000
0!
0b
#31500
1!
1b
1B"
0C"
0E!
1G!
1d
0F!
0G!
1I!
1F!
0H!
0I!
1H!
1J!
0J!
#32000
0!
0b
#32500
1!
1b
1C"
1E!
0d
1G!
0F!
1I!
0H!
1J!
#33000
0!
0b
#33500
1!
1b
1@"
0A"
0B"
0C"
0E!
0G!
0I!
1K!
1d
1F!
1H!
0J!
0K!
1f
0F!
0H!
1J!
0L!
0f
1L!
1g
0g
#34000
0!
0b
#34500
1!
1b
1C"
1E!
0d
1F!
#35000
0!
0b
#35500
1!
1b
1B"
0C"
0E!
1G!
1d
0F!
0G!
1F!
1H!
0H!
#36000
0!
0b
#36500
1!
1b
1C"
1E!
0d
1G!
0F!
1H!
#37000
0!
0b
#37500
1!
1b
1A"
0B"
0C"
0E!
0G!
1I!
1d
1F!
0H!
0I!
1K!
0F!
1H!
0J!
0K!
1f
1J!
0L!
0f
1L!
1g
0g
#38000
0!
0b
#38500
1!
1b
1C"
1E!
0d
1F!
#39000
0!
0b
#39500
1!
1b
1B"
0C"
0E!
1G!
1d
0F!
0G!
1I!
1F!
0H!
0I!
1K!
1H!
0J!
0K!
1f
1J!
0L!
0f
1L!
1g
0g
#40000
0#
0!
0S!
0b
1d!
0_!
0V!
1W!
1e!
#40500
1!
1b
1f!
1U!
1C"
1E!
0s!
1_!
1V!
1n!
1b!
0d
0p!
1l!
1h!
1P!
1K
1G!
0W!
17
0F!
0#"
0""
0!"
0~!
0}!
0|!
0z!
0y!
0x!
0w!
0v!
0u!
0M
0N
0O
0P
0Q
0R
0T
0U
0V
0W
0X
0Y
1I!
06
05
04
03
02
01
0/
0.
0-
0,
0+
0*
0H!
1K!
0J!
1f
0L!
1g
#41000
0!
0b
#41500
1!
1b
1G"
1I"
1K"
1J"
0?"
0@"
0A"
0B"
0C"
1>"
0?!
1h
0E!
1M!
0G!
0I!
0K!
0f
0k!
0i!
0c!
0q!
0g
1d
1F!
1H!
1J!
1L!
1w!
1v!
1u!
1#"
1~!
1}!
1|!
1T
1U
1V
1Y
1M
1N
1O
0h
1r!
0C!
1,
1+
1*
16
13
12
11
1i
0F!
0H!
0J!
0L!
1g
0H
0<
0i
1N!
1D!
#42000
0!
0b
#42500
1!
1b
1Q!
0>"
1O!
1G
1?!
1(
0g
0N!
1C!
1N!
0D!
#43000
0!
0b
#43500
1!
1b
0Q!
1C"
1E!
0d
1F!
#44000
0!
0b
#44500
1!
1b
1B"
0C"
0E!
0M!
1G!
1d
0F!
0G!
1F!
1H!
0H!
#45000
0!
0b
#45500
1!
1b
1C"
1E!
0d
1G!
0F!
1H!
#46000
0!
0b
#46500
1!
1b
1A"
0B"
0C"
0E!
0G!
1I!
1d
1F!
0H!
0I!
0F!
1H!
1J!
0J!
#47000
0!
0b
#47500
1!
1b
1C"
1E!
0d
1F!
#48000
0!
0b
#48500
1!
1b
1B"
0C"
0E!
1G!
1d
0F!
0G!
1I!
1F!
0H!
0I!
1H!
1J!
0J!
#49000
0!
0b
#49500
1!
1b
1C"
1E!
0d
1G!
0F!
1I!
0H!
1J!
#50000
0!
0b
#50500
1!
1b
1@"
0A"
0B"
0C"
0E!
0G!
0I!
1K!
1d
1F!
1H!
0J!
0K!
0F!
0H!
1J!
1L!
0L!
#51000
0!
0b
#51500
1!
1b
1C"
1E!
0d
1F!
#52000
0!
0b
#52500
1!
1b
1B"
0C"
0E!
1G!
1d
0F!
0G!
1F!
1H!
0H!
#53000
0!
0b
#53500
1!
1b
1C"
1E!
0d
1G!
0F!
1H!
#54000
0!
0b
#54500
1!
1b
1A"
0B"
0C"
0E!
0G!
1I!
1d
1F!
0H!
0I!
1K!
0F!
1H!
0J!
0K!
1J!
1L!
0L!
#55000
0!
0b
#55500
1!
1b
1C"
1E!
0d
1F!
#56000
0!
0b
#56500
1!
1b
1B"
0C"
0E!
1G!
1d
0F!
0G!
1I!
1F!
0H!
0I!
1K!
1H!
0J!
0K!
1J!
1L!
0L!
#57000
0!
0b
#57500
1!
1b
1C"
1E!
0d
1G!
0F!
1I!
0H!
1K!
0J!
1L!
#58000
0!
0b
#58500
1!
1b
1?"
0@"
0A"
0B"
0C"
0E!
0G!
0I!
0K!
1f
1d
1F!
1H!
1J!
0L!
0f
0F!
0H!
0J!
1L!
1g
0g
#59000
0!
0b
#59500
1!
1b
1C"
1E!
0d
1F!
#60000
0!
0b
#60500
1!
1b
1B"
0C"
0E!
1G!
1d
0F!
0G!
1F!
1H!
0H!
#61000
0!
0b
#61500
1!
1b
1C"
1E!
0d
1G!
0F!
1H!
#62000
0!
0b
#62500
1!
1b
1A"
0B"
0C"
0E!
0G!
1I!
1d
1F!
0H!
0I!
0F!
1H!
1J!
0J!
#63000
0!
0b
#63500
1!
1b
1C"
1E!
0d
1F!
#64000
0!
0b
#64500
1!
1b
1B"
0C"
0E!
1G!
1d
0F!
0G!
1I!
1F!
0H!
0I!
1H!
1J!
0J!
#65000
0!
0b
#65500
1!
1b
1C"
1E!
0d
1G!
0F!
1I!
0H!
1J!
#66000
0!
0b
#66500
1!
1b
1@"
0A"
0B"
0C"
0E!
0G!
0I!
1K!
1d
1F!
1H!
0J!
0K!
1f
0F!
0H!
1J!
0L!
0f
1L!
1g
0g
#67000
0!
0b
#67500
1!
1b
1C"
1E!
0d
1F!
#68000
0!
0b
#68500
1!
1b
1B"
0C"
0E!
1G!
1d
0F!
0G!
1F!
1H!
0H!
#69000
0!
0b
#69500
1!
1b
1C"
1E!
0d
1G!
0F!
1H!
#70000
1#
0!
1S!
0b
0d!
1^!
0V!
1W!
1`!
0e!
#70500
1!
1b
0f!
1a!
1A"
0B"
0C"
0E!
0G!
1I!
0n!
0b!
0^!
1V!
1d
1F!
0H!
0g!
0I!
1K!
0W!
0F!
1H!
0J!
0K!
1f
1J!
0L!
0f
1L!
1g
0g
#71000
0!
0b
#71500
1!
1b
1C"
1E!
0d
1F!
#72000
0!
0b
#72500
1!
1b
1B"
0C"
0E!
1G!
1d
0F!
0G!
1I!
1F!
0H!
0I!
1K!
1H!
0J!
0K!
1f
1J!
0L!
0f
1L!
1g
0g
#73000
0!
0b
#73500
1!
1b
1C"
1E!
0d
1G!
0F!
1I!
0H!
1K!
0J!
1f
0L!
1g
#74000
0!
0b
#74500
1!
1b
0?"
0@"
0A"
0B"
0C"
1>"
0?!
1h
0E!
1M!
0G!
0I!
0K!
0f
0g
1d
1F!
1H!
1J!
1L!
0h
0C!
1i
0F!
0H!
0J!
0L!
1g
0i
0N!
1D!
#75000
0!
0b
#75500
1!
1b
1Q!
0>"
0O!
0G
1?!
1b!
0(
0g
1N!
1C!
0N!
0D!
#76000
0!
0b
#76500
1!
1b
0K"
0Q!
1C"
1E!
0b!
1t!
0d
1y!
0w!
0v!
0u!
1g!
0P!
0M
0N
0O
1Q
0L
0)
1.
0,
0+
0*
1F!
#77000
0!
0b
#77500
1!
1b
1B"
0C"
0E!
0M!
1G!
1d
0F!
0G!
1F!
1H!
0H!
#78000
0!
0b
#78500
1!
1b
1C"
1E!
0d
1G!
0F!
1H!
#79000
0!
0b
#79500
1!
1b
1A"
0B"
0C"
0E!
0G!
1I!
1d
1F!
0H!
0I!
0F!
1H!
1J!
0J!
#80000
0!
0b
#80500
1!
1b
1C"
1E!
0d
1F!
#81000
0!
0b
#81500
1!
1b
1B"
0C"
0E!
1G!
1d
0F!
0G!
1I!
1F!
0H!
0I!
1H!
1J!
0J!
#82000
0!
0b
#82500
1!
1b
1C"
1E!
0d
1G!
0F!
1I!
0H!
1J!
#83000
0!
0b
#83500
1!
1b
1@"
0A"
0B"
0C"
0E!
0G!
0I!
1K!
1d
1F!
1H!
0J!
0K!
0F!
0H!
1J!
1L!
0L!
#84000
0!
0b
#84500
1!
1b
1C"
1E!
0d
1F!
#85000
0!
0b
#85500
1!
1b
1B"
0C"
0E!
1G!
1d
0F!
0G!
1F!
1H!
0H!
#86000
0!
0b
#86500
1!
1b
1C"
1E!
0d
1G!
0F!
1H!
#87000
0!
0b
#87500
1!
1b
1A"
0B"
0C"
0E!
0G!
1I!
1d
1F!
0H!
0I!
1K!
0F!
1H!
0J!
0K!
1J!
1L!
0L!
#88000
0!
0b
#88500
1!
1b
1C"
1E!
0d
1F!
#89000
0!
0b
#89500
1!
1b
1B"
0C"
0E!
1G!
1d
0F!
0G!
1I!
1F!
0H!
0I!
1K!
1H!
0J!
0K!
1J!
1L!
0L!
#90000
0!
0b
#90500
1!
1b
1C"
1E!
0d
1G!
0F!
1I!
0H!
1K!
0J!
1L!
#91000
0!
0b
#91500
1!
1b
1?"
0@"
0A"
0B"
0C"
0E!
0G!
0I!
0K!
1f
1d
1F!
1H!
1J!
0L!
0f
0F!
0H!
0J!
1L!
1g
0g
#92000
0!
0b
#92500
1!
1b
1C"
1E!
0d
1F!
#93000
0!
0b
#93500
1!
1b
1B"
0C"
0E!
1G!
1d
0F!
0G!
1F!
1H!
0H!
#94000
0!
0b
#94500
1!
1b
1C"
1E!
0d
1G!
0F!
1H!
#95000
0!
0b
#95500
1!
1b
1A"
0B"
0C"
0E!
0G!
1I!
1d
1F!
0H!
0I!
0F!
1H!
1J!
0J!
#96000
0!
0b
#96500
1!
1b
1C"
1E!
0d
1F!
#97000
0!
0b
#97500
1!
1b
1B"
0C"
0E!
1G!
1d
0F!
0G!
1I!
1F!
0H!
0I!
1H!
1J!
0J!
#98000
0!
0b
#98500
1!
1b
1C"
1E!
0d
1G!
0F!
1I!
0H!
1J!
#99000
0!
0b
#99500
1!
1b
1@"
0A"
0B"
0C"
0E!
0G!
0I!
1K!
1d
1F!
1H!
0J!
0K!
1f
0F!
0H!
1J!
0L!
0f
1L!
1g
0g
#100000
0!
0b
#100500
1!
1b
1C"
1E!
0d
1F!
#101000
0!
0b
#101500
1!
1b
1B"
0C"
0E!
1G!
1d
0F!
0G!
1F!
1H!
0H!
#102000
0!
0b
#102500
1!
1b
1C"
1E!
0d
1G!
0F!
1H!
#103000
0!
0b
#103500
1!
1b
1A"
0B"
0C"
0E!
0G!
1I!
1d
1F!
0H!
0I!
1K!
0F!
1H!
0J!
0K!
1f
1J!
0L!
0f
1L!
1g
0g
#104000
0!
0b
#104500
1!
1b
1C"
1E!
0d
1F!
#105000
0!
0b
#105500
1!
1b
1B"
0C"
0E!
1G!
1d
0F!
0G!
1I!
1F!
0H!
0I!
1K!
1H!
0J!
0K!
1f
1J!
0L!
0f
1L!
1g
0g
#106000
0!
0b
#106500
1!
1b
1C"
1E!
0d
1G!
0F!
1I!
0H!
1K!
0J!
1f
0L!
1g
#107000
0!
0b
#107500
1!
1b
0?"
0@"
0A"
0B"
0C"
1>"
0?!
1h
0E!
1M!
0G!
0I!
0K!
0f
0g
1d
1F!
1H!
1J!
1L!
0h
0C!
1i
0F!
0H!
0J!
0L!
1g
0i
1N!
1D!
#108000
0!
0b
#108500
1!
1b
1Q!
0>"
1O!
1G
1?!
1b!
1(
0g
0N!
1C!
1N!
0D!
#109000
0!
0b
#109500
1!
1b
1K"
0J"
0Q!
1C"
1E!
0b!
0d
1v!
0g!
1N
1+
1F!
#110000
0!
0b
#110500
1!
1b
1B"
0C"
0E!
0M!
1G!
1d
0F!
0G!
1F!
1H!
0H!
#111000
0!
0b
#111500
1!
1b
1C"
1E!
0d
1G!
0F!
1H!
#112000
0!
0b
#112500
1!
1b
1A"
0B"
0C"
0E!
0G!
1I!
1d
1F!
0H!
0I!
0F!
1H!
1J!
0J!
#113000
0!
0b
#113500
1!
1b
1C"
1E!
0d
1F!
#114000
0!
0b
#114500
1!
1b
1B"
0C"
0E!
1G!
1d
0F!
0G!
1I!
1F!
0H!
0I!
1H!
1J!
0J!
#115000
0!
0b
#115500
1!
1b
1C"
1E!
0d
1G!
0F!
1I!
0H!
1J!
#116000
0!
0b
#116500
1!
1b
1@"
0A"
0B"
0C"
0E!
0G!
0I!
1K!
1d
1F!
1H!
0J!
0K!
0F!
0H!
1J!
1L!
0L!
#117000
0!
0b
#117500
1!
1b
1C"
1E!
0d
1F!
#118000
0!
0b
#118500
1!
1b
1B"
0C"
0E!
1G!
1d
0F!
0G!
1F!
1H!
0H!
#119000
0!
0b
#119500
1!
1b
1C"
1E!
0d
1G!
0F!
1H!
#120000
0!
0b
#120500
1!
1b
1A"
0B"
0C"
0E!
0G!
1I!
1d
1F!
0H!
0I!
1K!
0F!
1H!
0J!
0K!
1J!
1L!
0L!
#121000
0!
0b
#121500
1!
1b
1C"
1E!
0d
1F!
#122000
0!
0b
#122500
1!
1b
1B"
0C"
0E!
1G!
1d
0F!
0G!
1I!
1F!
0H!
0I!
1K!
1H!
0J!
0K!
1J!
1L!
0L!
#123000
0!
0b
#123500
1!
1b
1C"
1E!
0d
1G!
0F!
1I!
0H!
1K!
0J!
1L!
#124000
0!
0b
#124500
1!
1b
1?"
0@"
0A"
0B"
0C"
0E!
0G!
0I!
0K!
1f
1d
1F!
1H!
1J!
0L!
0f
0F!
0H!
0J!
1L!
1g
0g
#125000
0!
0b
#125500
1!
1b
1C"
1E!
0d
1F!
#126000
0!
0b
#126500
1!
1b
1B"
0C"
0E!
1G!
1d
0F!
0G!
1F!
1H!
0H!
#127000
0!
0b
#127500
1!
1b
1C"
1E!
0d
1G!
0F!
1H!
#128000
0!
0b
#128500
1!
1b
1A"
0B"
0C"
0E!
0G!
1I!
1d
1F!
0H!
0I!
0F!
1H!
1J!
0J!
#129000
0!
0b
#129500
1!
1b
1C"
1E!
0d
1F!
#130000
0!
0b
#130500
1!
1b
1B"
0C"
0E!
1G!
1d
0F!
0G!
1I!
1F!
0H!
0I!
1H!
1J!
0J!
#131000
0!
0b
#131500
1!
1b
1C"
1E!
0d
1G!
0F!
1I!
0H!
1J!
#132000
0!
0b
#132500
1!
1b
1@"
0A"
0B"
0C"
0E!
0G!
0I!
1K!
1d
1F!
1H!
0J!
0K!
1f
0F!
0H!
1J!
0L!
0f
1L!
1g
0g
#133000
0!
0b
#133500
1!
1b
1C"
1E!
0d
1F!
#134000
0!
0b
#134500
1!
1b
1B"
0C"
0E!
1G!
1d
0F!
0G!
1F!
1H!
0H!
#135000
0!
0b
#135500
1!
1b
1C"
1E!
0d
1G!
0F!
1H!
#136000
0!
0b
#136500
1!
1b
1A"
0B"
0C"
0E!
0G!
1I!
1d
1F!
0H!
0I!
1K!
0F!
1H!
0J!
0K!
1f
1J!
0L!
0f
1L!
1g
0g
#137000
0!
0b
