1/Schematic/simulation/qsim/SchematicLab.msim.vcd
$comment
	File created using the following command:
		vcd file SchematicLab.msim.vcd -direction
$end
$date
	Thu Aug 13 11:31:43 2020
$end
$version
	ModelSim Version 10.5b
$end
$timescale
	1ps
$end

$scope module mitnapeah_vlg_vec_tst $end
$var reg 1 ! clk $end
$var reg 1 " en $end
$var reg 1 # resetN $end
$var wire 1 $ equal $end
$var wire 1 % q [3] $end
$var wire 1 & q [2] $end
$var wire 1 ' q [1] $end
$var wire 1 ( q [0] $end
$var wire 1 ) qs [3] $end
$var wire 1 * qs [2] $end
$var wire 1 + qs [1] $end
$var wire 1 , qs [0] $end

$scope module i1 $end
$var wire 1 - gnd $end
$var wire 1 . vcc $end
$var wire 1 / unknown $end
$var tri1 1 0 devclrn $end
$var tri1 1 1 devpor $end
$var tri1 1 2 devoe $end
$var wire 1 3 equal~output_o $end
$var wire 1 4 q[3]~output_o $end
$var wire 1 5 q[2]~output_o $end
$var wire 1 6 q[1]~output_o $end
$var wire 1 7 q[0]~output_o $end
$var wire 1 8 qs[3]~output_o $end
$var wire 1 9 qs[2]~output_o $end
$var wire 1 : qs[1]~output_o $end
$var wire 1 ; qs[0]~output_o $end
$var wire 1 < clk~input_o $end
$var wire 1 = en~input_o $end
$var wire 1 > inst5|count~1_combout $end
$var wire 1 ? resetN~input_o $end
$var wire 1 @ inst|count[1]~2_combout $end
$var wire 1 A inst5|count~2_combout $end
$var wire 1 B inst|count[2]~3_combout $end
$var wire 1 C inst5|Add0~0_combout $end
$var wire 1 D inst5|count~3_combout $end
$var wire 1 E inst6|Equal0~1_combout $end
$var wire 1 F inst|count[0]~1_combout $end
$var wire 1 G inst|count[3]~0_combout $end
$var wire 1 H inst5|count~0_combout $end
$var wire 1 I inst6|Equal0~0_combout $end
$var wire 1 J inst6|Equal0~2_combout $end
$var wire 1 K inst|count [3] $end
$var wire 1 L inst|count [2] $end
$var wire 1 M inst|count [1] $end
$var wire 1 N inst|count [0] $end
$var wire 1 O inst5|count [3] $end
$var wire 1 P inst5|count [2] $end
$var wire 1 Q inst5|count [1] $end
$var wire 1 R inst5|count [0] $end
$upscope $end
$upscope $end
$enddefinitions $end
#0
$dumpvars
0!
1"
0#
1$
0(
0'
0&
0%
0,
0+
0*
0)
0-
1.
x/
10
11
12
13
04
05
06
07
08
09
0:
0;
0<
1=
0>
0?
0@
0A
0B
0C
0D
1E
1F
0G
0H
0I
1J
0N
0M
0L
0K
0R
0Q
0P
0O
$end
#10000
1#
1?
#25000
1!
1<
1N
17
0E
1(
0F
1@
0J
1F
0@
1>
03
0$
#50000
0!
0<
#75000
1!
1<
1R
1;
1E
1,
1A
0>
1J
0F
0A
1@
13
1$
#100000
0!
0<
#120000
0#
0?
0R
0N
07
0;
0,
0(
1F
0@
#125000
1!
1<
#150000
0!
0<
#160000
1#
1?
#175000
1!
1<
1N
17
0E
1(
0F
1@
0J
1F
0@
1>
03
0$
#200000
0!
0<
#225000
1!
1<
1R
1;
1E
1,
1A
0>
1J
0F
0A
1@
13
1$
#250000
0!
0<
#275000
1!
1<
0N
1M
0R
0;
16
07
0E
0(
1'
0,
1F
0J
0F
1>
03
0$
#300000
0!
0<
#325000
1!
1<
1R
1;
1,
1A
0>
#350000
0!
0<
#375000
1!
1<
1Q
0R
0;
1:
1E
1+
0,
1>
1J
1F
0A
0>
13
1$
#400000
0!
0<
#425000
1!
1<
1N
0Q
0:
17
0E
1(
0+
0F
1B
0@
0J
1F
0B
1@
1>
03
0$
#450000
0!
0<
#475000
1!
1<
1R
1;
1,
1A
0>
#500000
0!
0<
#525000
1!
1<
1Q
0R
0;
1:
1+
0,
1>
#550000
0!
0<
#560000
0"
0=
#575000
1!
1<
#600000
1"
0!
1=
0<
#625000
1!
1<
1R
1;
1E
1C
1,
0A
0>
1J
0F
1B
0@
13
1$
#650000
0!
0<
#675000
1!
1<
0N
1L
0Q
0M
0R
0;
06
0:
15
07
0E
0C
0(
1&
0+
0'
0,
1F
0J
0F
1>
03
0$
#700000
0!
0<
#725000
1!
1<
1R
1;
1,
1A
0>
#750000
0!
0<
#775000
1!
1<
1Q
0R
0;
1:
1+
0,
1>
#800000
0!
0<
#825000
1!
1<
1R
1;
1C
1,
0A
0>
1D
#850000
0!
0<
#875000
1!
1<
1P
0Q
0R
0;
0:
19
1E
0C
1*
0+
0,
1>
1H
0D
0H
1J
1F
0>
13
1$
#900000
0!
0<
#925000
1!
1<
1N
0P
09
17
0E
1(
0*
0F
1@
0J
1F
0@
1>
03
0$
#950000
0!
0<
#975000
1!
1<
1R
1;
1,
1A
0>
#1000000
0!
0<
#1025000
1!
1<
1Q
0R
0;
1:
1+
0,
1>
#1050000
0!
0<
#1075000
1!
1<
1R
1;
1C
1,
0A
0>
1D
#1100000
0!
0<
#1125000
1!
1<
1P
0Q
0R
0;
0:
19
0C
1*
0+
0,
1>
1H
0D
0H
1D
#1150000
0!
0<
#1175000
1!
1<
1R
1;
1E
1,
1A
0>
1J
0F
0D
0A
1@
13
1$
#1200000
0!
0<
#1225000
1!
1<
0N
0P
1M
0R
0;
16
09
07
0E
0(
0*
1'
0,
1F
0J
0F
1>
03
0$
#1250000
0!
0<
#1275000
1!
1<
1R
1;
1,
1A
0>
#1300000
0!
0<
#1325000
1!
1<
1Q
0R
0;
1:
1+
0,
1>
#1350000
0!
0<
#1375000
1!
1<
1R
1;
1C
1,
0A
0>
1D
#1400000
0!
0<
#1425000
1!
1<
1P
0Q
0R
0;
0:
19
0C
1*
0+
0,
1>
1H
0D
0H
1D
#1450000
0!
0<
#1475000
1!
1<
1R
1;
1,
1A
0>
#1500000
0!
0<
#1525000
1!
1<
1Q
0R
0;
1:
1E
1+
0,
1>
1J
1F
0D
0A
0>
13
1$
#1550000
0!
0<
#1575000
1!
1<
1N
0P
0Q
0:
09
17
0E
1(
0*
0+
1G
0F
0B
0@
0J
1F
1B
1@
1>
03
0$
0G
#1600000
0!
0<
#1625000
1!
1<
1R
1;
1,
1A
0>
#1650000
0!
0<
#1675000
1!
1<
1Q
0R
0;
1:
1+
0,
1>
#1700000
0!
0<
#1725000
1!
1<
1R
1;
1C
1,
0A
0>
1D
#1750000
0!
0<
#1775000
1!
1<
1P
0Q
0R
0;
0:
19
0C
1*
0+
0,
1>
1H
0D
0H
1D
#1800000
0!
0<
#1825000
1!
1<
1R
1;
1,
1A
0>
#1850000
0!
0<
#1875000
1!
1<
1Q
0R
0;
1:
1+
0,
1>
#1900000
0!
0<
#1925000
1!
1<
1R
1;
1E
1C
1,
0A
0>
0D
1J
0F
0B
0@
13
1$
1G
#1950000
0!
0<
#1975000
1!
1<
1K
0N
0P
0L
0Q
0M
0R
0;
06
0:
05
09
07
14
0C
1I
1%
0(
0*
0&
0+
0'
0,
1F
0J
0F
1>
03
0$
#2000000
0!
0<
#2025000
1!
1<
1R
1;
0E
1,
1A
0>
#2050000
0!
0<
#2075000
1!
1<
1Q
0R
0;
1:
1+
0,
1>
#2100000
0!
0<
#2125000
1!
1<
1R
1;
1C
1,
0A
0>
1D
#2150000
0!
0<
#2175000
1!
1<
1P
0Q
0R
0;
0:
19
0C
1*
0+
0,
1>
1H
0D
0H
1D
#2200000
0!
0<
#2225000
1!
1<
1R
1;
1,
1A
0>
#2250000
0!
0<
#2275000
1!
1<
1Q
0R
0;
1:
1+
0,
1>
#2300000
0!
0<
#2325000
1!
1<
1R
1;
1C
1,
0A
0>
1H
0D
#2350000
0!
0<
#2375000
1!
1<
1O
0P
0Q
0R
0;
0:
09
18
1E
0C
0I
1)
0*
0+
0,
1>
1D
1J
1F
0D
0>
0H
13
1$
#2400000
0!
0<
#2425000
1!
1<
0O
1N
17
08
0E
1I
0)
1(
0F
1@
0J
1F
0@
1>
03
0$
#2450000
0!
0<
#2475000
1!
1<
1R
1;
1E
1,
1A
0>
#2500000
0!
0<
#2525000
1!
1<
1Q
0R
0;
1:
0E
1+
0,
1>
#2550000
0!
0<
#2575000
1!
1<
1R
1;
1C
1,
0A
0>
1D
#2600000
0!
0<
#2625000
1!
1<
1P
0Q
0R
0;
0:
19
0C
1*
0+
0,
1>
1H
0D
0H
1D
#2650000
0!
0<
#2675000
1!
1<
1R
1;
1,
1A
0>
#2700000
0!
0<
#2725000
1!
1<
1Q
0R
0;
1:
1+
0,
1>
#2750000
0!
0<
#2775000
1!
1<
1R
1;
1C
1,
0A
0>
1H
0D
#2800000
0!
0<
#2825000
1!
1<
1O
0P
0Q
0R
0;
0:
09
18
0C
0I
1)
0*
0+
0,
1>
1D
0D
#2850000
0!
0<
#2875000
1!
1<
1R
1;
1E
1,
1A
0>
1J
0H
0F
0A
1@
13
1$
#2900000
0!
0<
#2925000
1!
1<
0O
0N
1M
0R
0;
16
07
08
0E
1I
0)
0(
1'
0,
1F
0J
0F
1>
03
0$
#2950000
0!
0<
#2975000
1!
1<
1R
1;
1,
1A
0>
#3000000
0!
0<
#3025000
1!
1<
1Q
0R
0;
1:
1E
1+
0,
1>
#3050000
0!
0<
#3075000
1!
1<
1R
1;
0E
1C
1,
0A
0>
1D
#3100000
0!
0<
#3125000
1!
1<
1P
0Q
0R
0;
0:
19
0C
1*
0+
0,
1>
1H
0D
0H
1D
#3150000
0!
0<
#3175000
1!
1<
1R
1;
1,
1A
0>
#3200000
0!
0<
#3225000
1!
1<
1Q
0R
0;
1:
1+
0,
1>
#3250000
0!
0<
#3275000
1!
1<
1R
1;
1C
1,
0A
0>
1H
0D
#3300000
0!
0<
#3325000
1!
1<
1O
0P
0Q
0R
0;
0:
09
18
0C
0I
1)
0*
0+
0,
1>
1D
0D
#3350000
0!
0<
#3375000
1!
1<
1R
1;
1,
1A
0>
#3400000
0!
0<
#3425000
1!
1<
1Q
0R
0;
1:
1E
1+
0,
1>
1J
0H
1F
0A
0>
13
1$
#3450000
0!
0<
#3475000
1!
1<
0O
1N
0Q
0:
17
08
0E
1I
0)
1(
0+
0F
1B
0@
0J
1F
0B
1@
1>
03
0$
#3500000
0!
0<
#3525000
1!
1<
1R
1;
1,
1A
0>
#3550000
0!
0<
#3575000
1!
1<
1Q
0R
0;
1:
1+
0,
1>
#3600000
0!
0<
#3625000
1!
1<
1R
1;
1E
1C
1,
0A
0>
1D
#3650000
0!
0<
#3675000
1!
1<
1P
0Q
0R
0;
0:
19
0E
0C
1*
0+
0,
1>
1H
0D
0H
1D
#3700000
0!
0<
#3725000
1!
1<
1R
1;
1,
1A
0>
#3750000
0!
0<
#3775000
1!
1<
1Q
0R
0;
1:
1+
0,
1>
#3800000
0!
0<
#3825000
1!
1<
1R
1;
1C
1,
0A
0>
1H
0D
#3850000
0!
0<
#3875000
1!
1<
1O
0P
0Q
0R
0;
0:
09
18
0C
0I
1)
0*
0+
0,
1>
1D
0D
#3900000
0!
0<
#3925000
1!
1<
1R
1;
1,
1A
0>
#3950000
0!
0<
#3975000
1!
1<
1Q
0R
0;
1:
1+
0,
1>
#4000000
0!
0<
#4025000
1!
1<
1R
1;
1E
1C
1,
0A
0>
0H
1J
0F
1B
0@
13
1$
#4050000
0!
0<
#4075000
1!
1<
0O
0N
1L
0Q
0M
0R
0;
06
0:
15
07
08
0E
0C
1I
0)
0(
1&
0+
0'
0,
1F
0J
0F
1>
03
0$
#4100000
0!
0<
#4125000
1!
1<
1R
1;
1,
1A
0>
#4150000
0!
0<
#4175000
1!
1<
1Q
0R
0;
1:
1+
0,
1>
#4200000
0!
0<
#4225000
1!
1<
1R
1;
1C
1,
0A
0>
1D
#4250000
0!
0<
#4275000
1!
1<
1P
0Q
0R
0;
0:
19
1E
0C
1*
0+
0,
1>
1H
0D
0H
1D
#4300000
0!
0<
#4325000
1!
1<
1R
1;
0E
1,
1A
0>
#4350000
0!
0<
#4375000
1!
1<
1Q
0R
0;
1:
1+
0,
1>
#4400000
0!
0<
#4425000
1!
1<
1R
1;
1C
1,
0A
0>
1H
0D
#4450000
0!
0<
#4475000
1!
1<
1O
0P
0Q
0R
0;
0:
09
18
0C
0I
1)
0*
0+
0,
1>
1D
0D
#4500000
0!
0<
#4525000
1!
1<
1R
1;
1,
1A
0>
#4550000
0!
0<
#4575000
1!
1<
1Q
0R
0;
1:
1+
0,
1>
#4600000
0!
0<
#4625000
1!
1<
1R
1;
1C
1,
0A
0>
1D
#4650000
0!
0<
#4675000
1!
1<
1P
0Q
0R
0;
0:
19
1E
0C
1*
0+
0,
1>
0H
0D
1J
1F
0>
13
1$
#4700000
0!
0<
#4725000
1!
1<
0O
1N
0P
09
17
08
0E
1I
0)
1(
0*
0F
1@
0J
1F
0@
1>
03
0$
#4750000
0!
0<
#4775000
1!
1<
1R
1;
1,
1A
0>
#4800000
0!
0<
#4825000
1!
1<
1Q
0R
0;
1:
1+
0,
1>
#4850000
0!
0<
#4875000
1!
1<
1R
1;
1C
1,
0A
0>
1D
#4900000
0!
0<
#4925000
1!
1<
1P
0Q
0R
0;
0:
19
0C
1*
0+
0,
1>
1H
0D
0H
1D
#4950000
0!
0<
#4975000
1!
1<
1R
1;
1E
1,
1A
0>
#5000000
0!
0<
#5025000
1!
1<
1Q
0R
0;
1:
0E
1+
0,
1>
#5050000
0!
0<
#5075000
1!
1<
1R
1;
1C
1,
0A
0>
1H
0D
#5100000
0!
0<
#5125000
1!
1<
1O
0P
0Q
0R
0;
0:
09
18
0C
0I
1)
0*
0+
0,
1>
1D
0D
#5150000
0!
0<
#5175000
1!
1<
1R
1;
1,
1A
0>
#5200000
0!
0<
#5225000
1!
1<
1Q
0R
0;
1:
1+
0,
1>
#5250000
0!
0<
#5275000
1!
1<
1R
1;
1C
1,
0A
0>
1D
#5300000
0!
0<
#5325000
1!
1<
1P
0Q
0R
0;
0:
19
0C
1*
0+
0,
1>
0H
0D
1H
1D
#5350000
0!
0<
#5375000
1!
1<
1R
1;
1E
1,
1A
0>
1J
0H
0F
0D
0A
1@
13
1$
#5400000
0!
0<
#5425000
1!
1<
0O
0N
0P
1M
0R
0;
16
09
07
08
0E
1I
0)
0(
0*
1'
0,
1F
0J
0F
1>
03
0$
#5450000
0!
0<
#5475000
1!
1<
1R
1;
1,
1A
0>
#5500000
0!
0<
#5525000
1!
1<
1Q
0R
0;
1:
1+
0,
1>
#5550000
0!
0<
#5575000
1!
1<
1R
1;
1C
1,
0A
0>
1D
#5600000
0!
0<
#5625000
1!
1<
1P
0Q
0R
0;
0:
19
0C
1*
0+
0,
1>
1H
0D
0H
1D
#5650000
0!
0<
#5675000
1!
1<
1R
1;
1,
1A
0>
#5700000
0!
0<
#5725000
1!
1<
1Q
0R
0;
1:
1E
1+
0,
1>
#5750000
0!
0<
#5775000
1!
1<
1R
1;
0E
1C
1,
0A
0>
1H
0D
#5800000
0!
0<
#5825000
1!
1<
1O
0P
0Q
0R
0;
0:
09
18
0C
0I
1)
0*
0+
0,
1>
1D
0D
#5850000
0!
0<
#5875000
1!
1<
1R
1;
1,
1A
0>
#5900000
0!
0<
#5925000
1!
1<
1Q
0R
0;
1:
1+
0,
1>
#5950000
0!
0<
#5975000
1!
1<
1R
1;
1C
1,
0A
0>
1D
#6000000
0!
0<
#6025000
1!
1<
1P
0Q
0R
0;
0:
19
0C
1*
0+
0,
1>
0H
0D
1H
1D
#6050000
0!
0<
#6075000
1!
1<
1R
1;
1,
1A
0>
#6100000
0!
0<
#6125000
1!
1<
1Q
0R
0;
1:
1E
1+
0,
1>
1J
0H
1F
0D
0A
0>
13
1$
#6150000
0!
0<
#6175000
1!
1<
0O
1N
0P
0Q
0:
09
17
08
0E
1I
0)
1(
0*
0+
0G
0F
0B
0@
0J
1F
1B
1@
1>
03
0$
1G
#6200000
0!
0<
#6225000
1!
1<
1R
1;
1,
1A
0>
#6250000
0!
0<
#6275000
1!
1<
1Q
0R
0;
1:
1+
0,
1>
#6300000
0!
0<
#6325000
1!
1<
1R
1;
1C
1,
0A
0>
1D
#6350000
0!
0<
#6375000
1!
1<
1P
0Q
0R
0;
0:
19
0C
1*
0+
0,
1>
1H
0D
0H
1D
#6400000
0!
0<
#6425000
1!
1<
1R
1;
1,
1A
0>
#6450000
0!
0<
#6475000
1!
1<
1Q
0R
0;
1:
1+
0,
1>
#6500000
0!
0<
#6525000
1!
1<
1R
1;
1E
1C
1,
0A
0>
1H
0D
#6550000
0!
0<
#6575000
1!
1<
1O
0P
0Q
0R
0;
0:
09
18
0E
0C
0I
1)
0*
0+
0,
1>
0H
1D
0D
1H
#6600000
0!
0<
#6625000
1!
1<
1R
1;
1,
1A
0>
#6650000
0!
0<
#6675000
1!
1<
1Q
0R
0;
1:
1+
0,
1>
#6700000
0!
0<
#6725000
1!
1<
1R
1;
1C
1,
0A
0>
1D
#6750000
0!
0<
#6775000
1!
1<
1P
0Q
0R
0;
0:
19
0C
1*
0+
0,
1>
0H
0D
1H
1D
#6800000
0!
0<
#6825000
1!
1<
1R
1;
1,
1A
0>
#6850000
0!
0<
#6875000
1!
1<
1Q
0R
0;
1:
1+
0,
1>
#6900000
0!
0<
#6925000
1!
1<
1R
1;
1E
1C
1,
0A
0>
0H
0D
1J
0F
0B
0@
13
1$
0G
#6950000
0!
0<
#6975000
1!
1<
0O
0K
0N
0P
0L
0Q
0M
0R
0;
06
0:
05
09
07
04
08
0C
0)
0%
0(
0*
0&
0+
0'
0,
1F
#7000000
0!
0<
#7025000
1!
1<
1N
17
0E
1(
0F
1@
0J
1F
0@
1>
03
0$
#7050000
0!
0<
#7075000
1!
1<
1R
1;
1E
1,
1A
0>
1J
0F
0A
1@
13
1$
#7100000
0!
0<
#7125000
1!
1<
0N
1M
0R
0;
16
07
0E
0(
1'
0,
1F
0J
0F
1>
03
0$
#7150000
0!
0<
#7175000
1!
1<
1R
1;
1,
1A
0>
#7200000
0!
0<
#7225000
1!
1<
1Q
0R
0;
1:
1E
1+
0,
1>
1J
1F
0A
0>
13
1$
#7250000
0!
0<
#7275000
1!
1<
1N
0Q
0:
17
0E
1(
0+
0F
1B
0@
0J
1F
0B
1@
1>
03
0$
#7300000
0!
0<
#7325000
1!
1<
1R
1;
1,
1A
0>
#7350000
0!
0<
#7375000
1!
1<
1Q
0R
0;
1:
1+
0,
1>
#7400000
0!
0<
#7425000
1!
1<
1R
1;
1E
1C
1,
0A
0>
1J
0F
1B
0@
13
1$
#7450000
0!
0<
#7475000
1!
1<
0N
1L
0Q
0M
0R
0;
06
0:
15
07
0E
0C
0(
1&
0+
0'
0,
1F
0J
0F
1>
03
0$
#7500000
0!
0<
#7525000
1!
1<
1R
1;
1,
1A
0>
#7550000
0!
0<
#7575000
1!
1<
1Q
0R
0;
1:
1+
0,
1>
#7600000
0!
0<
#7625000
1!
1<
1R
1;
1C
1,
0A
0>
1D
#7650000
0!
0<
#7675000
1!
1<
1P
0Q
0R
0;
0:
19
1E
0C
1*
0+
0,
1>
1H
0D
0H
1J
1F
0>
13
1$
#7700000
0!
0<
#7725000
1!
1<
1N
0P
09
17
0E
1(
0*
0F
1@
0J
1F
0@
1>
03
0$
#7750000
0!
0<
#7775000
1!
1<
1R
1;
1,
1A
0>
#7800000
0!
0<
#7825000
1!
1<
1Q
0R
0;
1:
1+
0,
1>
#7850000
0!
0<
#7875000
1!
1<
1R
1;
1C
1,
0A
0>
1D
#7900000
0!
0<
#7925000
1!
1<
1P
0Q
0R
0;
0:
19
0C
1*
0+
0,
1>
1H
0D
0H
1D
#7950000
0!
0<
#7975000
1!
1<
1R
1;
1E
1,
1A
0>
1J
0F
0D
0A
1@
13
1$
#8000000
0!
0<
#8025000
1!
1<
0N
0P
1M
0R
0;
16
09
07
0E
0(
0*
1'
0,
1F
0J
0F
1>
03
0$
#8050000
0!
0<
#8075000
1!
1<
1R
1;
1,
1A
0>
#8100000
0!
0<
#8125000
1!
1<
1Q
0R
0;
1:
1+
0,
1>
#8150000
0!
0<
#8175000
1!
1<
1R
1;
1C
1,
0A
0>
1D
#8200000
0!
0<
#8225000
1!
1<
1P
0Q
0R
0;
0:
19
0C
1*
0+
0,
1>
1H
0D
0H
1D
#8250000
0!
0<
#8275000
1!
1<
1R
1;
1,
1A
0>
#8300000
0!
0<
#8325000
1!
1<
1Q
0R
0;
1:
1E
1+
0,
1>
1J
1F
0D
0A
0>
13
1$
#8350000
0!
0<
#8375000
1!
1<
1N
0P
0Q
0:
09
17
0E
1(
0*
0+
1G
0F
0B
0@
0J
1F
1B
1@
1>
03
0$
0G
#8400000
0!
0<
#8425000
1!
1<
1R
1;
1,
1A
0>
#8450000
0!
0<
#8475000
1!
1<
1Q
0R
0;
1:
1+
0,
1>
#8500000
0!
0<
#8525000
1!
1<
1R
1;
1C
1,
0A
0>
1D
#8550000
0!
0<
#8575000
1!
1<
1P
0Q
0R
0;
0:
19
0C
1*
0+
0,
1>
1H
0D
0H
1D
#8600000
0!
0<
#8625000
1!
1<
1R
1;
1,
1A
0>
#8650000
0!
0<
#8675000
1!
1<
1Q
0R
0;
1:
1+
0,
1>
#8700000
0!
0<
#8725000
1!
1<
1R
1;
1E
1C
1,
0A
0>
0D
1J
0F
0B
0@
13
1$
1G
#8750000
0!
0<
#8775000
1!
1<
1K
0N
0P
0L
0Q
0M
0R
0;
06
0:
05
09
07
14
0C
1I
1%
0(
0*
0&
0+
0'
0,
1F
0J
0F
1>
03
0$
#8800000
0!
0<
#8825000
1!
1<
1R
1;
0E
1,
1A
0>
#8850000
0!
0<
#8875000
1!
1<
1Q
0R
0;
1:
1+
0,
1>
#8900000
0!
0<
#8925000
1!
1<
1R
1;
1C
1,
0A
0>
1D
#8950000
0!
0<
#8975000
1!
1<
1P
0Q
0R
0;
0:
19
0C
1*
0+
0,
1>
1H
0D
0H
1D
#9000000
0!
0<
#9025000
1!
1<
1R
1;
1,
1A
0>
#9050000
0!
0<
#9075000
1!
1<
1Q
0R
0;
1:
1+
0,
1>
#9100000
0!
0<
#9125000
1!
1<
1R
1;
1C
1,
0A
0>
1H
0D
#9150000
0!
0<
#9175000
1!
1<
1O
0P
0Q
0R
0;
0:
09
18
1E
0C
0I
1)
0*
0+
0,
1>
1D
1J
1F
0D
0>
0H
13
1$
#9200000
0!
0<
#9225000
1!
1<
0O
1N
17
08
0E
1I
0)
1(
0F
1@
0J
1F
0@
1>
03
0$
#9250000
0!
0<
#9275000
1!
1<
1R
1;
1E
1,
1A
0>
#9300000
0!
0<
#9325000
1!
1<
1Q
0R
0;
1:
0E
1+
0,
1>
#9350000
0!
0<
#9375000
1!
1<
1R
1;
1C
1,
0A
0>
1D
#9400000
0!
0<
#9425000
1!
1<
1P
0Q
0R
0;
0:
19
0C
1*
0+
0,
1>
1H
0D
0H
1D
#9450000
0!
0<
#9475000
1!
1<
1R
1;
1,
1A
0>
#9500000
0!
0<
#9525000
1!
1<
1Q
0R
0;
1:
1+
0,
1>
#9550000
0!
0<
#9575000
1!
1<
1R
1;
1C
1,
0A
0>
1H
0D
#9600000
0!
0<
#9625000
1!
1<
1O
0P
0Q
0R
0;
0:
09
18
0C
0I
1)
0*
0+
0,
1>
1D
0D
#9650000
0!
0<
#9675000
1!
1<
1R
1;
1E
1,
1A
0>
1J
0H
0F
0A
1@
13
1$
#9700000
0!
0<
#9725000
1!
1<
0O
0N
1M
0R
0;
16
07
08
0E
1I
0)
0(
1'
0,
1F
0J
0F
1>
03
0$
#9750000
0!
0<
#9775000
1!
1<
1R
1;
1,
1A
0>
#9800000
0!
0<
#9825000
1!
1<
1Q
0R
0;
1:
1E
1+
0,
1>
#9850000
0!
0<
#9875000
1!
1<
1R
1;
0E
1C
1,
0A
0>
1D
#9900000
0!
0<
#9925000
1!
1<
1P
0Q
0R
0;
0:
19
0C
1*
0+
0,
1>
1H
0D
0H
1D
#9950000
0!
0<
#9975000
1!
1<
1R
1;
1,
1A
0>
