2/SV1Schematics/simulation/qsim/SV1Exs.msim.vcd
$comment
	File created using the following command:
		vcd file SV1Exs.msim.vcd -direction
$end
$date
	Sun Aug 16 12:49:41 2020
$end
$version
	ModelSim Version 10.5b
$end
$timescale
	1ps
$end

$scope module inflating_cnt_top_vlg_vec_tst $end
$var reg 1 ! CLOCK_50 $end
$var reg 1 " darkN $end
$var reg 1 # lampTest $end
$var reg 1 $ resetN $end
$var reg 1 % turbo $end
$var wire 1 & duty50 $end
$var wire 1 ' FastCount [3] $end
$var wire 1 ( FastCount [2] $end
$var wire 1 ) FastCount [1] $end
$var wire 1 * FastCount [0] $end
$var wire 1 + HEX0 [6] $end
$var wire 1 , HEX0 [5] $end
$var wire 1 - HEX0 [4] $end
$var wire 1 . HEX0 [3] $end
$var wire 1 / HEX0 [2] $end
$var wire 1 0 HEX0 [1] $end
$var wire 1 1 HEX0 [0] $end
$var wire 1 2 HEX1 [6] $end
$var wire 1 3 HEX1 [5] $end
$var wire 1 4 HEX1 [4] $end
$var wire 1 5 HEX1 [3] $end
$var wire 1 6 HEX1 [2] $end
$var wire 1 7 HEX1 [1] $end
$var wire 1 8 HEX1 [0] $end
$var wire 1 9 SlowCount [3] $end
$var wire 1 : SlowCount [2] $end
$var wire 1 ; SlowCount [1] $end
$var wire 1 < SlowCount [0] $end

$scope module i1 $end
$var wire 1 = gnd $end
$var wire 1 > vcc $end
$var wire 1 ? unknown $end
$var tri1 1 @ devclrn $end
$var tri1 1 A devpor $end
$var tri1 1 B devoe $end
$var wire 1 C duty50~output_o $end
$var wire 1 D FastCount[3]~output_o $end
$var wire 1 E FastCount[2]~output_o $end
$var wire 1 F FastCount[1]~output_o $end
$var wire 1 G FastCount[0]~output_o $end
$var wire 1 H HEX0[6]~output_o $end
$var wire 1 I HEX0[5]~output_o $end
$var wire 1 J HEX0[4]~output_o $end
$var wire 1 K HEX0[3]~output_o $end
$var wire 1 L HEX0[2]~output_o $end
$var wire 1 M HEX0[1]~output_o $end
$var wire 1 N HEX0[0]~output_o $end
$var wire 1 O HEX1[6]~output_o $end
$var wire 1 P HEX1[5]~output_o $end
$var wire 1 Q HEX1[4]~output_o $end
$var wire 1 R HEX1[3]~output_o $end
$var wire 1 S HEX1[2]~output_o $end
$var wire 1 T HEX1[1]~output_o $end
$var wire 1 U HEX1[0]~output_o $end
$var wire 1 V SlowCount[3]~output_o $end
$var wire 1 W SlowCount[2]~output_o $end
$var wire 1 X SlowCount[1]~output_o $end
$var wire 1 Y SlowCount[0]~output_o $end
$var wire 1 Z CLOCK_50~input_o $end
$var wire 1 [ turbo~input_o $end
$var wire 1 \ inst3|Add0~125_sumout $end
$var wire 1 ] resetN~input_o $end
$var wire 1 ^ inst3|Add0~2 $end
$var wire 1 _ inst3|Add0~61_sumout $end
$var wire 1 ` inst3|Add0~62 $end
$var wire 1 a inst3|Add0~41_sumout $end
$var wire 1 b inst3|Add0~42 $end
$var wire 1 c inst3|Add0~33_sumout $end
$var wire 1 d inst3|Add0~34 $end
$var wire 1 e inst3|Add0~121_sumout $end
$var wire 1 f inst3|Add0~122 $end
$var wire 1 g inst3|Add0~117_sumout $end
$var wire 1 h inst3|Add0~118 $end
$var wire 1 i inst3|Add0~113_sumout $end
$var wire 1 j inst3|Add0~114 $end
$var wire 1 k inst3|Add0~109_sumout $end
$var wire 1 l inst3|Add0~110 $end
$var wire 1 m inst3|Add0~29_sumout $end
$var wire 1 n inst3|Add0~30 $end
$var wire 1 o inst3|Add0~101_sumout $end
$var wire 1 p inst3|Add0~102 $end
$var wire 1 q inst3|Add0~97_sumout $end
$var wire 1 r inst3|Add0~98 $end
$var wire 1 s inst3|Add0~93_sumout $end
$var wire 1 t inst3|Add0~94 $end
$var wire 1 u inst3|Add0~89_sumout $end
$var wire 1 v inst3|Add0~90 $end
$var wire 1 w inst3|Add0~85_sumout $end
$var wire 1 x inst3|Add0~86 $end
$var wire 1 y inst3|Add0~25_sumout $end
$var wire 1 z inst3|Add0~26 $end
$var wire 1 { inst3|Add0~21_sumout $end
$var wire 1 | inst3|Add0~22 $end
$var wire 1 } inst3|Add0~57_sumout $end
$var wire 1 ~ inst3|Add0~58 $end
$var wire 1 !! inst3|Add0~53_sumout $end
$var wire 1 "! inst3|Add0~54 $end
$var wire 1 #! inst3|Add0~49_sumout $end
$var wire 1 $! inst3|Add0~50 $end
$var wire 1 %! inst3|Add0~45_sumout $end
$var wire 1 &! inst3|Add0~46 $end
$var wire 1 '! inst3|Add0~105_sumout $end
$var wire 1 (! inst3|Add0~106 $end
$var wire 1 )! inst3|Add0~37_sumout $end
$var wire 1 *! inst3|Add0~38 $end
$var wire 1 +! inst3|Add0~81_sumout $end
$var wire 1 ,! inst3|Add0~82 $end
$var wire 1 -! inst3|Add0~77_sumout $end
$var wire 1 .! inst3|Add0~78 $end
$var wire 1 /! inst3|Add0~73_sumout $end
$var wire 1 0! inst3|Add0~74 $end
$var wire 1 1! inst3|Add0~69_sumout $end
$var wire 1 2! inst3|Add0~70 $end
$var wire 1 3! inst3|Add0~65_sumout $end
$var wire 1 4! inst3|Add0~66 $end
$var wire 1 5! inst3|Add0~17_sumout $end
$var wire 1 6! inst3|LessThan0~1_combout $end
$var wire 1 7! inst3|LessThan0~2_combout $end
$var wire 1 8! inst3|LessThan0~3_combout $end
$var wire 1 9! inst3|LessThan0~4_combout $end
$var wire 1 :! inst3|LessThan0~5_combout $end
$var wire 1 ;! inst3|LessThan0~6_combout $end
$var wire 1 <! inst3|LessThan0~7_combout $end
$var wire 1 =! inst3|Add0~126 $end
$var wire 1 >! inst3|Add0~13_sumout $end
$var wire 1 ?! inst3|Add0~14 $end
$var wire 1 @! inst3|Add0~9_sumout $end
$var wire 1 A! inst3|Add0~10 $end
$var wire 1 B! inst3|Add0~5_sumout $end
$var wire 1 C! inst3|Add0~6 $end
$var wire 1 D! inst3|Add0~1_sumout $end
$var wire 1 E! inst3|LessThan0~0_combout $end
$var wire 1 F! inst3|duty50~0_combout $end
$var wire 1 G! inst3|duty50~q $end
$var wire 1 H! inst3|one_sec~q $end
$var wire 1 I! inst|slowC|count[2]~2_combout $end
$var wire 1 J! inst|cmp|Equal0~0_combout $end
$var wire 1 K! inst|slowC|count[0]~0_combout $end
$var wire 1 L! inst|slowC|count[1]~1_combout $end
$var wire 1 M! inst|slowC|count[1]~3_combout $end
$var wire 1 N! inst|slowC|count[3]~4_combout $end
$var wire 1 O! inst|cmp|Equal0~1_combout $end
$var wire 1 P! inst|fastC|count~3_combout $end
$var wire 1 Q! inst|fastC|count~2_combout $end
$var wire 1 R! inst|fastC|Add0~0_combout $end
$var wire 1 S! inst|fastC|count~1_combout $end
$var wire 1 T! inst|fastC|count~0_combout $end
$var wire 1 U! lampTest~input_o $end
$var wire 1 V! darkN~input_o $end
$var wire 1 W! inst4|ss[6]~6_combout $end
$var wire 1 X! inst4|ss[5]~5_combout $end
$var wire 1 Y! inst4|ss[4]~4_combout $end
$var wire 1 Z! inst4|ss[3]~3_combout $end
$var wire 1 [! inst4|ss[2]~2_combout $end
$var wire 1 \! inst4|ss[1]~1_combout $end
$var wire 1 ]! inst4|ss[0]~0_combout $end
$var wire 1 ^! inst2|ss[6]~6_combout $end
$var wire 1 _! inst2|ss[5]~5_combout $end
$var wire 1 `! inst2|ss[4]~4_combout $end
$var wire 1 a! inst2|ss[3]~3_combout $end
$var wire 1 b! inst2|ss[2]~2_combout $end
$var wire 1 c! inst2|ss[1]~1_combout $end
$var wire 1 d! inst2|ss[0]~0_combout $end
$var wire 1 e! inst3|oneSecCount [31] $end
$var wire 1 f! inst3|oneSecCount [30] $end
$var wire 1 g! inst3|oneSecCount [29] $end
$var wire 1 h! inst3|oneSecCount [28] $end
$var wire 1 i! inst3|oneSecCount [27] $end
$var wire 1 j! inst3|oneSecCount [26] $end
$var wire 1 k! inst3|oneSecCount [25] $end
$var wire 1 l! inst3|oneSecCount [24] $end
$var wire 1 m! inst3|oneSecCount [23] $end
$var wire 1 n! inst3|oneSecCount [22] $end
$var wire 1 o! inst3|oneSecCount [21] $end
$var wire 1 p! inst3|oneSecCount [20] $end
$var wire 1 q! inst3|oneSecCount [19] $end
$var wire 1 r! inst3|oneSecCount [18] $end
$var wire 1 s! inst3|oneSecCount [17] $end
$var wire 1 t! inst3|oneSecCount [16] $end
$var wire 1 u! inst3|oneSecCount [15] $end
$var wire 1 v! inst3|oneSecCount [14] $end
$var wire 1 w! inst3|oneSecCount [13] $end
$var wire 1 x! inst3|oneSecCount [12] $end
$var wire 1 y! inst3|oneSecCount [11] $end
$var wire 1 z! inst3|oneSecCount [10] $end
$var wire 1 {! inst3|oneSecCount [9] $end
$var wire 1 |! inst3|oneSecCount [8] $end
$var wire 1 }! inst3|oneSecCount [7] $end
$var wire 1 ~! inst3|oneSecCount [6] $end
$var wire 1 !" inst3|oneSecCount [5] $end
$var wire 1 "" inst3|oneSecCount [4] $end
$var wire 1 #" inst3|oneSecCount [3] $end
$var wire 1 $" inst3|oneSecCount [2] $end
$var wire 1 %" inst3|oneSecCount [1] $end
$var wire 1 &" inst3|oneSecCount [0] $end
$var wire 1 '" inst|fastC|count [3] $end
$var wire 1 (" inst|fastC|count [2] $end
$var wire 1 )" inst|fastC|count [1] $end
$var wire 1 *" inst|fastC|count [0] $end
$var wire 1 +" inst|slowC|count [3] $end
$var wire 1 ," inst|slowC|count [2] $end
$var wire 1 -" inst|slowC|count [1] $end
$var wire 1 ." inst|slowC|count [0] $end
$upscope $end
$upscope $end
$enddefinitions $end
#0
$dumpvars
0!
1"
0#
0$
0%
0&
0*
0)
0(
0'
01
00
0/
0.
0-
0,
1+
08
07
06
05
04
03
12
0<
0;
0:
09
0=
1>
x?
1@
1A
1B
0C
0D
0E
0F
0G
1H
0I
0J
0K
0L
0M
0N
1O
0P
0Q
0R
0S
0T
0U
0V
0W
0X
0Y
0Z
0[
1\
0]
0^
0_
0`
0a
0b
0c
0d
0e
0f
0g
0h
0i
0j
0k
0l
0m
0n
0o
0p
0q
0r
0s
0t
0u
0v
0w
0x
0y
0z
0{
0|
0}
0~
0!!
0"!
0#!
0$!
0%!
0&!
0'!
0(!
0)!
0*!
0+!
0,!
0-!
0.!
0/!
00!
01!
02!
03!
04!
05!
16!
17!
18!
19!
1:!
1;!
0<!
0=!
0>!
0?!
0@!
0A!
0B!
0C!
0D!
1E!
0F!
0G!
0H!
0I!
1J!
0K!
0L!
0M!
0N!
0O!
0P!
0Q!
0R!
0S!
0T!
0U!
1V!
0W!
0X!
0Y!
0Z!
0[!
0\!
0]!
0^!
0_!
0`!
0a!
0b!
0c!
0d!
0&"
0%"
0$"
0#"
0""
0!"
0~!
0}!
0|!
0{!
0z!
0y!
0x!
0w!
0v!
0u!
0t!
0s!
0r!
0q!
0p!
0o!
0n!
0m!
0l!
0k!
0j!
0i!
0h!
0g!
0f!
0e!
0*"
0)"
0("
0'"
0."
0-"
0,"
0+"
$end
#500
1!
1Z
#1000
0!
0Z
#1500
1!
1Z
#2000
0!
0Z
#2500
1!
1Z
#3000
0!
0Z
#3500
1!
1Z
#4000
0!
0Z
#4500
1!
1Z
#5000
0!
0Z
#5500
1!
1Z
#6000
0!
0Z
#6500
1!
1Z
#7000
0!
0Z
#7500
1!
1Z
#8000
0!
0Z
#8500
1!
1Z
#9000
0!
0Z
#9500
1!
1Z
#10000
1$
0!
1]
0Z
#10500
1!
1Z
1&"
1=!
0\
1>!
#11000
0!
0Z
#11500
1!
1Z
1%"
0&"
0=!
0E!
1?!
1\
0>!
0?!
1>!
1@!
0@!
#12000
0!
0Z
#12500
1!
1Z
1&"
1=!
0\
1?!
0>!
1@!
#13000
0!
0Z
#13500
1!
1Z
1$"
0%"
0&"
0=!
0?!
1A!
1\
1>!
0@!
0A!
0>!
1@!
1B!
0B!
#14000
0!
0Z
#14500
1!
1Z
1&"
1=!
0\
1>!
#15000
0!
0Z
#15500
1!
1Z
1%"
0&"
0=!
1?!
1\
0>!
0?!
1A!
1>!
0@!
0A!
1@!
1B!
0B!
#16000
0!
0Z
#16500
1!
1Z
1&"
1=!
0\
1?!
0>!
1A!
0@!
1B!
#17000
0!
0Z
#17500
1!
1Z
1#"
0$"
0%"
0&"
0=!
0?!
0A!
1C!
1\
1>!
1@!
0B!
0C!
0>!
0@!
1B!
1D!
0D!
#18000
0!
0Z
#18500
1!
1Z
1&"
1=!
0\
1>!
#19000
0!
0Z
#19500
1!
1Z
1%"
0&"
0=!
1?!
1\
0>!
0?!
1>!
1@!
0@!
#20000
0"
0!
0V!
0Z
1d!
1c!
1b!
1a!
1`!
1_!
1]!
1\!
1[!
1Z!
1Y!
1X!
1I
1J
1K
1L
1M
1N
1P
1Q
1R
1S
1T
1U
18
17
16
15
14
13
11
10
1/
1.
1-
1,
#20500
1!
1Z
1&"
1=!
0\
1?!
0>!
1@!
#21000
0!
0Z
#21500
1!
1Z
1$"
0%"
0&"
0=!
0?!
1A!
1\
1>!
0@!
0A!
1C!
0>!
1@!
0B!
0C!
1B!
1D!
0D!
#22000
0!
0Z
#22500
1!
1Z
1&"
1=!
0\
1>!
#23000
0!
0Z
#23500
1!
1Z
1%"
0&"
0=!
1?!
1\
0>!
0?!
1A!
1>!
0@!
0A!
1C!
1@!
0B!
0C!
1B!
1D!
0D!
#24000
0!
0Z
#24500
1!
1Z
1&"
1=!
0\
1?!
0>!
1A!
0@!
1C!
0B!
1D!
#25000
0!
0Z
#25500
1!
1Z
1""
0#"
0$"
0%"
0&"
0=!
0?!
0A!
0C!
1^
1\
1>!
1@!
1B!
0D!
0^
0>!
0@!
0B!
1D!
1_
0_
#26000
0!
0Z
#26500
1!
1Z
1&"
1=!
0\
1>!
#27000
0!
0Z
#27500
1!
1Z
1%"
0&"
0=!
1?!
1\
0>!
0?!
1>!
1@!
0@!
#28000
0!
0Z
#28500
1!
1Z
1&"
1=!
0\
1?!
0>!
1@!
#29000
0!
0Z
#29500
1!
1Z
1$"
0%"
0&"
0=!
0?!
1A!
1\
1>!
0@!
0A!
0>!
1@!
1B!
0B!
#30000
1#
0!
1U!
0Z
#30500
1!
1Z
1&"
1=!
0\
1>!
#31000
0!
0Z
#31500
1!
1Z
1%"
0&"
0=!
1?!
1\
0>!
0?!
1A!
1>!
0@!
0A!
1@!
1B!
0B!
#32000
0!
0Z
#32500
1!
1Z
1&"
1=!
0\
1?!
0>!
1A!
0@!
1B!
#33000
0!
0Z
#33500
1!
1Z
1#"
0$"
0%"
0&"
0=!
0?!
0A!
1C!
1\
1>!
1@!
0B!
0C!
1^
0>!
0@!
1B!
0D!
0^
1D!
1_
0_
#34000
0!
0Z
#34500
1!
1Z
1&"
1=!
0\
1>!
#35000
0!
0Z
#35500
1!
1Z
1%"
0&"
0=!
1?!
1\
0>!
0?!
1>!
1@!
0@!
#36000
0!
0Z
#36500
1!
1Z
1&"
1=!
0\
1?!
0>!
1@!
#37000
0!
0Z
#37500
1!
1Z
1$"
0%"
0&"
0=!
0?!
1A!
1\
1>!
0@!
0A!
1C!
0>!
1@!
0B!
0C!
1^
1B!
0D!
0^
1D!
1_
0_
#38000
0!
0Z
#38500
1!
1Z
1&"
1=!
0\
1>!
#39000
0!
0Z
#39500
1!
1Z
1%"
0&"
0=!
1?!
1\
0>!
0?!
1A!
1>!
0@!
0A!
1C!
1@!
0B!
0C!
1^
1B!
0D!
0^
1D!
1_
0_
#40000
0!
0Z
#40500
1!
1Z
1&"
1=!
0\
1?!
0>!
1A!
0@!
1C!
0B!
1^
0D!
1_
#41000
0!
0Z
#41500
1!
1Z
0""
0#"
0$"
0%"
0&"
1!"
08!
1`
0=!
1E!
0?!
0A!
0C!
0^
0_
1\
1>!
1@!
1B!
1D!
0`
0;!
1a
0>!
0@!
0B!
0D!
1_
0a
1F!
1<!
#42000
0!
0Z
#42500
1!
1Z
1H!
0!"
1G!
1C
18!
1&
0_
1K!
0F!
1;!
1F!
0<!
#43000
0!
0Z
#43500
1!
1Z
0H!
1&"
1."
1Y
1=!
0J!
1<
0\
1>!
1P!
#44000
0!
0Z
#44500
1!
1Z
1%"
0&"
0=!
0E!
1?!
1\
0>!
0?!
1>!
1@!
0@!
#45000
0!
0Z
#45500
1!
1Z
1&"
1=!
0\
1?!
0>!
1@!
#46000
0!
0Z
#46500
1!
1Z
1$"
0%"
0&"
0=!
0?!
1A!
1\
1>!
0@!
0A!
0>!
1@!
1B!
0B!
#47000
0!
0Z
#47500
1!
1Z
1&"
1=!
0\
1>!
#48000
0!
0Z
#48500
1!
1Z
1%"
0&"
0=!
1?!
1\
0>!
0?!
1A!
1>!
0@!
0A!
1@!
1B!
0B!
#49000
0!
0Z
#49500
1!
1Z
1&"
1=!
0\
1?!
0>!
1A!
0@!
1B!
#50000
1"
0!
1V!
0Z
1^!
1W!
0d!
0c!
0b!
0a!
0`!
0_!
0]!
0\!
0[!
0Z!
0Y!
0X!
0I
0J
0K
0L
0M
0N
0P
0Q
0R
0S
0T
0U
0H
0O
02
0+
08
07
06
05
04
03
01
00
0/
0.
0-
0,
#50500
1!
1Z
1#"
0$"
0%"
0&"
0=!
0?!
0A!
1C!
1\
1>!
1@!
0B!
0C!
0>!
0@!
1B!
1D!
0D!
#51000
0!
0Z
#51500
1!
1Z
1&"
1=!
0\
1>!
#52000
0!
0Z
#52500
1!
1Z
1%"
0&"
0=!
1?!
1\
0>!
0?!
1>!
1@!
0@!
#53000
0!
0Z
#53500
1!
1Z
1&"
1=!
0\
1?!
0>!
1@!
#54000
0!
0Z
#54500
1!
1Z
1$"
0%"
0&"
0=!
0?!
1A!
1\
1>!
0@!
0A!
1C!
0>!
1@!
0B!
0C!
1B!
1D!
0D!
#55000
0!
0Z
#55500
1!
1Z
1&"
1=!
0\
1>!
#56000
0!
0Z
#56500
1!
1Z
1%"
0&"
0=!
1?!
1\
0>!
0?!
1A!
1>!
0@!
0A!
1C!
1@!
0B!
0C!
1B!
1D!
0D!
#57000
0!
0Z
#57500
1!
1Z
1&"
1=!
0\
1?!
0>!
1A!
0@!
1C!
0B!
1D!
#58000
0!
0Z
#58500
1!
1Z
1""
0#"
0$"
0%"
0&"
0=!
0?!
0A!
0C!
1^
1\
1>!
1@!
1B!
0D!
0^
0>!
0@!
0B!
1D!
1_
0_
#59000
0!
0Z
#59500
1!
1Z
1&"
1=!
0\
1>!
#60000
0!
0Z
#60500
1!
1Z
1%"
0&"
0=!
1?!
1\
0>!
0?!
1>!
1@!
0@!
#61000
0!
0Z
#61500
1!
1Z
1&"
1=!
0\
1?!
0>!
1@!
#62000
0!
0Z
#62500
1!
1Z
1$"
0%"
0&"
0=!
0?!
1A!
1\
1>!
0@!
0A!
0>!
1@!
1B!
0B!
#63000
0!
0Z
#63500
1!
1Z
1&"
1=!
0\
1>!
#64000
0!
0Z
#64500
1!
1Z
1%"
0&"
0=!
1?!
1\
0>!
0?!
1A!
1>!
0@!
0A!
1@!
1B!
0B!
#65000
0!
0Z
#65500
1!
1Z
1&"
1=!
0\
1?!
0>!
1A!
0@!
1B!
#66000
0!
0Z
#66500
1!
1Z
1#"
0$"
0%"
0&"
0=!
0?!
0A!
1C!
1\
1>!
1@!
0B!
0C!
1^
0>!
0@!
1B!
0D!
0^
1D!
1_
0_
#67000
0!
0Z
#67500
1!
1Z
1&"
1=!
0\
1>!
#68000
0!
0Z
#68500
1!
1Z
1%"
0&"
0=!
1?!
1\
0>!
0?!
1>!
1@!
0@!
#69000
0!
0Z
#69500
1!
1Z
1&"
1=!
0\
1?!
0>!
1@!
#70000
0#
0!
0U!
0Z
0^!
0W!
1d!
1a!
1`!
1_!
1P
1Q
1R
1U
1H
1O
12
1+
18
15
14
13
#70500
1!
1Z
1$"
0%"
0&"
0=!
0?!
1A!
1\
1>!
0@!
0A!
1C!
0>!
1@!
0B!
0C!
1^
1B!
0D!
0^
1D!
1_
0_
#71000
0!
0Z
#71500
1!
1Z
1&"
1=!
0\
1>!
#72000
0!
0Z
#72500
1!
1Z
1%"
0&"
0=!
1?!
1\
0>!
0?!
1A!
1>!
0@!
0A!
1C!
1@!
0B!
0C!
1^
1B!
0D!
0^
1D!
1_
0_
#73000
0!
0Z
#73500
1!
1Z
1&"
1=!
0\
1?!
0>!
1A!
0@!
1C!
0B!
1^
0D!
1_
#74000
0!
0Z
#74500
1!
1Z
0""
0#"
0$"
0%"
0&"
1!"
08!
1`
0=!
1E!
0?!
0A!
0C!
0^
0_
1\
1>!
1@!
1B!
1D!
0`
0;!
1a
0>!
0@!
0B!
0D!
1_
0a
0F!
1<!
#75000
0!
0Z
#75500
1!
1Z
1H!
0!"
0G!
0C
18!
0&
0_
1F!
1;!
0F!
0<!
#76000
0!
0Z
#76500
1!
1Z
0H!
1&"
1*"
1G
1=!
1J!
1*
0\
1]!
1Z!
1Y!
1X!
1Q!
0P!
1I
1J
1K
1N
11
1.
1-
1,
1>!
0Q!
#77000
0!
0Z
#77500
1!
1Z
1%"
0&"
0=!
0E!
1?!
1\
0>!
0?!
1>!
1@!
0@!
#78000
0!
0Z
#78500
1!
1Z
1&"
1=!
0\
1?!
0>!
1@!
#79000
0!
0Z
#79500
1!
1Z
1$"
0%"
0&"
0=!
0?!
1A!
1\
1>!
0@!
0A!
0>!
1@!
1B!
0B!
#80000
0!
0Z
#80500
1!
1Z
1&"
1=!
0\
1>!
#81000
0!
0Z
#81500
1!
1Z
1%"
0&"
0=!
1?!
1\
0>!
0?!
1A!
1>!
0@!
0A!
1@!
1B!
0B!
#82000
0!
0Z
#82500
1!
1Z
1&"
1=!
0\
1?!
0>!
1A!
0@!
1B!
#83000
0!
0Z
#83500
1!
1Z
1#"
0$"
0%"
0&"
0=!
0?!
0A!
1C!
1\
1>!
1@!
0B!
0C!
0>!
0@!
1B!
1D!
0D!
#84000
0!
0Z
#84500
1!
1Z
1&"
1=!
0\
1>!
#85000
0!
0Z
#85500
1!
1Z
1%"
0&"
0=!
1?!
1\
0>!
0?!
1>!
1@!
0@!
#86000
0!
0Z
#86500
1!
1Z
1&"
1=!
0\
1?!
0>!
1@!
#87000
0!
0Z
#87500
1!
1Z
1$"
0%"
0&"
0=!
0?!
1A!
1\
1>!
0@!
0A!
1C!
0>!
1@!
0B!
0C!
1B!
1D!
0D!
#88000
0!
0Z
#88500
1!
1Z
1&"
1=!
0\
1>!
#89000
0!
0Z
#89500
1!
1Z
1%"
0&"
0=!
1?!
1\
0>!
0?!
1A!
1>!
0@!
0A!
1C!
1@!
0B!
0C!
1B!
1D!
0D!
#90000
0!
0Z
#90500
1!
1Z
1&"
1=!
0\
1?!
0>!
1A!
0@!
1C!
0B!
1D!
#91000
0!
0Z
#91500
1!
1Z
1""
0#"
0$"
0%"
0&"
0=!
0?!
0A!
0C!
1^
1\
1>!
1@!
1B!
0D!
0^
0>!
0@!
0B!
1D!
1_
0_
#92000
0!
0Z
#92500
1!
1Z
1&"
1=!
0\
1>!
#93000
0!
0Z
#93500
1!
1Z
1%"
0&"
0=!
1?!
1\
0>!
0?!
1>!
1@!
0@!
#94000
0!
0Z
#94500
1!
1Z
1&"
1=!
0\
1?!
0>!
1@!
#95000
0!
0Z
#95500
1!
1Z
1$"
0%"
0&"
0=!
0?!
1A!
1\
1>!
0@!
0A!
0>!
1@!
1B!
0B!
#96000
0!
0Z
#96500
1!
1Z
1&"
1=!
0\
1>!
#97000
0!
0Z
#97500
1!
1Z
1%"
0&"
0=!
1?!
1\
0>!
0?!
1A!
1>!
0@!
0A!
1@!
1B!
0B!
#98000
0!
0Z
#98500
1!
1Z
1&"
1=!
0\
1?!
0>!
1A!
0@!
1B!
#99000
0!
0Z
#99500
1!
1Z
1#"
0$"
0%"
0&"
0=!
0?!
0A!
1C!
1\
1>!
1@!
0B!
0C!
1^
0>!
0@!
1B!
0D!
0^
1D!
1_
0_
#100000
1%
0!
1[
0Z
1F!
1<!
#100500
1!
1Z
1H!
0""
0#"
1G!
1C
1E!
1M!
1&
0B!
0D!
1L!
0K!
0F!
1F!
0<!
#101000
0!
0Z
#101500
1!
1Z
0H!
1&"
0*"
1-"
0."
0Y
1X
0G
1=!
0M!
1^!
0J!
0*
1;
0<
0\
0d!
1b!
0a!
0`!
0]!
0Z!
0Y!
0X!
0I
0J
0K
0N
0Q
0R
1S
0U
0O
02
08
16
05
04
01
0.
0-
0,
1>!
1P!
#102000
0!
0Z
#102500
1!
1Z
1%"
0&"
0=!
0E!
1?!
1\
0>!
0?!
1>!
1@!
0F!
1<!
0@!
#103000
0!
0Z
#103500
1!
1Z
1H!
0%"
0G!
0C
1E!
0&
0>!
1F!
0F!
0<!
#104000
0!
0Z
#104500
1!
1Z
0H!
1&"
1*"
1G
1=!
1*
0\
1]!
1Z!
1Y!
1X!
1Q!
0P!
1I
1J
1K
1N
11
1.
1-
1,
1>!
#105000
0!
0Z
#105500
1!
1Z
1%"
0&"
0=!
0E!
1?!
1\
0>!
0?!
1>!
1@!
1F!
1<!
0@!
#106000
0!
0Z
#106500
1!
1Z
1H!
0%"
1G!
1C
1E!
1&
0>!
0F!
1F!
0<!
#107000
0!
0Z
#107500
1!
1Z
0H!
1&"
1)"
0*"
0G
1F
1=!
1W!
1J!
1)
0*
0\
0]!
1[!
0Z!
0Y!
1P!
0J
0K
1L
0N
0H
0+
01
1/
0.
0-
1>!
0Q!
0P!
#108000
0!
0Z
#108500
1!
1Z
1%"
0&"
0=!
0E!
1?!
1\
0>!
0?!
1>!
1@!
0F!
1<!
0@!
#109000
0!
0Z
#109500
1!
1Z
1H!
0%"
0G!
0C
1E!
0&
0>!
1K!
1F!
0F!
0<!
#110000
0!
0Z
#110500
1!
1Z
0H!
1&"
0)"
1."
1Y
0F
1=!
0J!
0W!
0)
1<
0\
0b!
1`!
0[!
0X!
0I
0L
1Q
0S
1H
1+
06
14
0/
0,
1>!
1P!
#111000
0!
0Z
#111500
1!
1Z
1%"
0&"
0=!
0E!
1?!
1\
0>!
0?!
1>!
1@!
1F!
1<!
0@!
#112000
0!
0Z
#112500
1!
1Z
1H!
0%"
1G!
1C
1E!
1&
0>!
0F!
1F!
0<!
#113000
0!
0Z
#113500
1!
1Z
0H!
1&"
1*"
1G
1=!
1*
0\
1]!
1Z!
1Y!
1X!
1Q!
0P!
1I
1J
1K
1N
11
1.
1-
1,
1>!
#114000
0!
0Z
#114500
1!
1Z
1%"
0&"
0=!
0E!
1?!
1\
0>!
0?!
1>!
1@!
0F!
1<!
0@!
#115000
0!
0Z
#115500
1!
1Z
1H!
0%"
0G!
0C
1E!
0&
0>!
1F!
0F!
0<!
#116000
0!
0Z
#116500
1!
1Z
0H!
1&"
1)"
0*"
0G
1F
1=!
1W!
1)
0*
0\
0]!
1[!
0Z!
0Y!
1P!
0J
0K
1L
0N
0H
0+
01
1/
0.
0-
1>!
#117000
0!
0Z
#117500
1!
1Z
1%"
0&"
0=!
0E!
1?!
1\
0>!
0?!
1>!
1@!
1F!
1<!
0@!
#118000
0!
0Z
#118500
1!
1Z
1H!
0%"
1G!
1C
1E!
1&
0>!
0F!
1F!
0<!
#119000
0!
0Z
#119500
1!
1Z
0H!
1&"
1*"
1G
1=!
1R!
1J!
1*
0\
0[!
1Y!
0Q!
0P!
1J
0L
0/
1-
1>!
#120000
0!
0Z
#120500
1!
1Z
1%"
0&"
0=!
0E!
1?!
1\
0>!
0?!
1>!
1@!
0F!
1<!
0@!
#121000
0!
0Z
#121500
1!
1Z
1H!
0%"
0G!
0C
1E!
1M!
0&
0>!
0L!
0K!
1I!
1F!
0F!
0<!
#122000
0!
0Z
#122500
1!
1Z
0H!
1&"
0)"
0*"
0-"
0."
1,"
1W
0Y
0X
0G
0F
1=!
0M!
0J!
0W!
0R!
0)
0*
0;
0<
1:
0\
1d!
1a!
0_!
0Y!
0X!
0I
0J
0P
1R
1U
1H
1+
18
15
03
0-
0,
1>!
1P!
#123000
0!
0Z
#123500
1!
1Z
1%"
0&"
0=!
0E!
1?!
1\
0>!
0?!
1>!
1@!
1F!
1<!
0@!
#124000
0!
0Z
#124500
1!
1Z
1H!
0%"
1G!
1C
1E!
1&
0>!
0F!
1F!
0<!
#125000
0!
0Z
#125500
1!
1Z
0H!
1&"
1*"
1G
1=!
1*
0\
1]!
1Z!
1Y!
1X!
1Q!
0P!
1I
1J
1K
1N
11
1.
1-
1,
1>!
#126000
0!
0Z
#126500
1!
1Z
1%"
0&"
0=!
0E!
1?!
1\
0>!
0?!
1>!
1@!
0F!
1<!
0@!
#127000
0!
0Z
#127500
1!
1Z
1H!
0%"
0G!
0C
1E!
0&
0>!
1F!
0F!
0<!
#128000
0!
0Z
#128500
1!
1Z
0H!
1&"
1)"
0*"
0G
1F
1=!
1W!
1)
0*
0\
0]!
1[!
0Z!
0Y!
1P!
0J
0K
1L
0N
0H
0+
01
1/
0.
0-
1>!
#129000
0!
0Z
#129500
1!
1Z
1%"
0&"
0=!
0E!
1?!
1\
0>!
0?!
1>!
1@!
1F!
1<!
0@!
#130000
0!
0Z
#130500
1!
1Z
1H!
0%"
1G!
1C
1E!
1&
0>!
0F!
1F!
0<!
#131000
0!
0Z
#131500
1!
1Z
0H!
1&"
1*"
1G
1=!
1R!
1*
0\
0[!
1Y!
0Q!
0P!
1J
0L
0/
1-
1>!
1S!
#132000
0!
0Z
#132500
1!
1Z
1%"
0&"
0=!
0E!
1?!
1\
0>!
0?!
1>!
1@!
0F!
1<!
0@!
#133000
0!
0Z
#133500
1!
1Z
1H!
0%"
0G!
0C
1E!
0&
0>!
1F!
0F!
0<!
#134000
0!
0Z
